0
0
0
0
0
0
0
0
0
0
0
0
0
0
0
0
0
0
0
0
0
0
0
0
0
0
0
0
0
0
0
0
0
0
0
0
0
0
0
0
0
0
0
0
0
0
0
0
0
0
0
0
0
0
0
0
0
0
0
0
0
0
0
0
0
0
0
0
0
0
0
0
0
0
0
0
0
0
0
0
0
0
0
0
0
0
0
0
0
0
0
0
0
0
0
0
0
0
0
0
0
0
0
0
0
0
0
0
0
0
0
0
0
0
0
0
0
0
0
0
0
0
0
0
0
0
0
0
0
0
0
0
0
0
0
0
0
0
0
0
0
0
0
0
0
0
0
0
0
0
0
0
0
0
0
0
0
0
0
0
0
0
0
0
0
0
0
0
0
0
0
0
0
0
0
0
0
0
0
0
0
0
0
0
0
0
0
0
0
0
0
0
0
0
0
0
0
0
0
0
0
0
0
0
0
0
0
0
0
0
0
0
0
0
0
0
0
0
0
0
0
0
0
0
0
0
0
0
0
0
0
0
0
0
0
0
0
0
0
0
0
0
0
0
0
0
0
0
0
0
0
0
0
0
0
0
0
0
0
0
0
0
0
0
0
0
0
0
0
0
0
0
0
0
0
0
0
0
0
0
0
0
0
0
0
0
0
0
0
0
0
0
0
0
0
0
0
0
0
0
0
0
0
0
0
0
0
0
0
0
0
0
0
0
0
0
0
0
0
0
0
0
0
0
0
0
0
0
0
0
0
0
0
0
0
0
0
0
0
0
0
0
0
0
0
0
0
0
0
0
0
0
0
0
0
0
0
0
0
0
0
0
0
0
0
0
0
0
0
0
0
0
0
0
0
0
0
0
0
0
0
0
0
0
0
0
0
0
0
0
0
0
0
0
0
0
0
0
0
0
0
0
0
0
0
0
0
0
0
0
0
0
0
0
0
0
0
0
0
0
0
0
0
0
0
0
0
0
0
0
0
0
0
0
0
0
0
0
0
0
0
0
0
0
0
0
0
0
0
0
0
0
0
0
0
0
0
0
0
0
0
0
0
0
0
0
0
0
0
0
0
0
1
8
118
153
172
148
146
157
159
171
149
151
154
169
167
182
145
138
146
153
138
171
153
154
149
145
172
135
166
131
138
159
167
162
141
139
154
183
148
144
136
135
138
137
144
159
150
149
140
144
162
151
161
152
139
135
147
153
161
123
143
132
143
157
116
149
121
137
148
121
137
164
142
133
133
149
104
137
131
148
112
133
117
139
129
131
110
134
142
102
118
125
130
131
142
121
131
113
122
128
119
140
136
130
113
141
116
150
141
138
156
121
134
118
132
98
116
125
146
118
125
134
117
131
115
93
135
131
117
122
133
117
116
103
108
111
127
95
111
127
125
115
100
113
124
121
104
110
104
106
110
106
113
135
119
130
101
125
129
118
126
97
104
105
123
107
108
109
95
109
111
100
119
112
115
121
111
116
107
111
107
131
121
114
108
118
120
89
101
116
124
101
99
100
110
100
107
105
112
92
127
108
89
109
98
113
108
105
94
99
120
97
102
101
109
96
112
105
104
105
111
103
96
99
90
99
99
89
83
88
106
105
98
75
97
94
97
99
99
102
109
124
83
103
86
107
101
86
98
89
104
88
97
94
107
91
107
102
106
94
101
84
105
97
79
102
98
109
116
96
92
85
109
105
94
91
85
92
85
71
113
94
88
105
95
105
97
96
94
104
90
101
91
78
95
72
97
88
88
70
88
73
86
87
83
108
81
66
84
84
70
101
86
82
96
85
104
82
79
86
71
84
78
79
92
74
82
74
96
86
81
83
75
100
86
76
77
89
93
78
89
80
71
69
88
87
75
90
78
71
84
77
99
92
78
91
96
69
88
81
90
77
67
82
69
66
78
66
62
70
85
91
64
87
81
76
71
72
83
81
72
75
79
78
75
86
69
72
62
66
69
81
84
73
85
84
75
80
85
83
73
71
71
64
68
72
71
71
96
67
78
58
75
78
56
69
78
78
95
66
70
70
74
77
60
78
74
87
69
81
83
66
71
79
79
79
78
68
62
62
84
79
64
68
76
66
55
72
52
88
68
57
76
82
66
66
73
84
75
73
55
56
65
67
73
78
78
63
66
60
81
59
58
78
67
56
65
74
65
66
61
62
80
62
75
67
73
62
63
65
55
78
68
68
56
61
78
75
64
76
71
53
65
63
60
72
78
75
69
54
78
73
74
53
61
75
61
67
58
61
58
71
66
64
56
59
65
77
57
65
67
69
60
58
63
52
55
63
61
77
54
63
61
60
60
45
61
63
63
65
56
75
67
48
51
72
66
53
78
55
53
52
67
67
55
54
51
72
43
63
55
68
59
59
68
69
55
55
46
60
49
52
59
67
55
72
56
68
53
70
53
59
54
63
63
67
60
47
55
52
52
61
68
50
62
49
66
71
46
58
57
56
64
58
59
55
58
48
50
52
48
54
61
71
62
59
55
52
43
53
55
54
54
51
57
50
53
57
50
47
47
47
56
48
52
50
69
59
63
33
46
60
54
44
61
56
49
67
53
65
45
43
56
65
45
43
71
51
60
64
69
51
47
61
44
50
59
59
57
58
64
57
55
42
69
67
44
64
37
48
48
50
49
51
46
38
62
64
46
51
41
52
60
57
62
61
51
59
55
43
51
45
48
54
45
50
53
54
57
48
52
60
48
52
39
52
50
56
61
56
50
45
45
59
53
33
51
50
40
46
63
43
45
43
42
38
50
52
57
52
58
54
59
41
57
56
64
45
46
45
49
48
38
57
49
42
49
48
51
47
57
49
39
59
60
56
49
50
48
54
47
60
50
36
45
54
42
53
47
47
50
54
39
46
45
44
51
40
60
39
45
60
49
55
50
49
54
56
48
43
56
34
46
49
59
55
53
44
36
40
54
45
37
46
53
53
41
49
47
43
58
52
45
47
54
46
45
37
38
47
39
54
35
52
37
37
42
49
54
38
34
46
46
52
49
39
45
39
62
45
47
45
41
45
61
66
62
46
41
41
39
45
46
45
42
53
43
35
41
43
46
46
32
45
44
54
47
40
45
50
42
46
38
33
54
46
45
50
53
51
38
50
48
44
37
47
44
41
39
47
42
50
31
43
50
49
38
42
43
45
46
32
29
37
44
46
49
45
42
40
45
49
34
49
43
42
28
52
41
50
40
52
47
27
40
46
40
36
39
53
39
53
42
43
42
40
37
43
43
42
67
44
33
47
39
45
40
36
37
49
43
39
42
43
41
35
44
41
42
48
46
57
45
42
53
36
48
44
41
37
33
46
41
47
38
46
42
37
40
47
39
41
42
46
48
42
28
41
47
37
39
39
29
40
34
58
43
32
52
45
48
33
38
31
36
45
43
43
48
45
34
34
31
33
43
42
46
42
40
50
32
25
29
24
37
48
38
40
31
52
46
38
39
43
42
36
40
36
41
26
52
35
40
46
39
39
35
35
43
35
39
33
45
35
51
50
37
36
39
34
42
41
35
54
45
33
45
37
41
32
36
29
48
36
46
36
33
28
36
46
47
37
48
41
40
41
47
51
35
44
41
36
35
33
30
42
39
36
47
26
33
32
32
34
37
39
41
32
30
42
37
36
36
43
41
36
30
41
44
46
43
42
42
28
31
34
41
53
34
37
38
43
27
39
40
37
37
33
42
47
38
34
36
35
27
34
48
36
46
38
37
39
42
29
33
46
38
43
43
37
33
41
24
36
35
39
37
45
35
38
41
31
30
33
31
31
43
42
29
35
41
49
25
33
46
22
38
41
39
37
33
37
29
27
34
32
39
34
32
34
30
41
37
37
22
40
35
32
34
41
35
53
30
30
46
27
32
37
36
38
24
38
33
36
39
33
45
36
31
40
33
37
24
31
39
41
28
38
32
36
38
45
33
47
39
37
35
27
32
44
15
38
34
38
45
38
27
36
31
48
31
43
32
36
33
27
32
31
30
35
32
38
44
37
33
23
38
32
26
31
34
43
32
35
30
47
26
25
33
26
40
48
27
30
29
34
24
44
33
30
33
43
25
35
31
29
36
39
37
31
28
23
26
29
31
39
25
29
31
31
42
31
36
40
23
43
37
29
18
35
43
34
41
36
30
29
30
39
29
32
25
31
28
25
44
24
36
30
32
32
34
28
24
36
41
35
29
30
22
39
46
20
28
20
25
35
32
35
32
37
34
32
36
36
32
28
28
31
34
22
28
28
26
39
34
21
27
28
24
31
31
33
30
28
19
22
23
16
23
24
37
18
33
27
37
37
27
29
33
30
31
24
26
41
34
30
36
18
29
21
33
35
34
31
21
15
18
27
33
28
34
33
36
22
27
25
34
26
22
37
24
28
27
19
35
22
26
34
27
31
22
25
20
26
24
31
20
17
22
20
38
26
34
27
29
35
35
29
24
37
36
35
26
26
35
24
20
32
26
35
32
26
21
44
23
26
28
26
27
29
24
23
20
29
26
31
27
26
23
23
25
30
30
24
23
23
30
21
29
27
26
23
27
21
30
24
26
33
20
19
28
31
34
34
30
26
21
35
28
25
28
21
22
27
30
24
17
14
33
29
21
32
27
31
24
26
19
33
44
28
33
19
22
30
28
20
27
20
31
17
34
25
23
24
24
21
25
27
21
15
29
31
20
24
32
19
23
21
22
27
22
26
14
25
28
33
28
22
22
29
23
22
37
27
24
30
36
31
20
19
29
27
26
21
16
27
24
24
25
26
22
21
28
21
23
24
26
26
21
20
31
31
21
29
24
24
24
20
29
22
20
25
20
21
27
30
27
23
19
23
23
29
24
24
33
20
22
28
20
21
21
18
14
24
27
16
23
24
18
24
21
23
28
19
20
16
26
16
19
38
24
25
24
27
26
23
22
22
21
24
21
24
25
20
26
17
28
18
29
20
24
21
24
25
19
24
27
28
31
24
21
19
28
24
17
27
32
17
15
18
21
25
19
18
20
20
18
25
20
22
21
18
20
19
24
21
13
20
18
17
21
19
17
20
18
26
20
20
21
24
18
13
19
16
14
21
11
16
23
18
16
24
19
18
24
12
20
24
19
12
22
16
21
26
16
16
17
21
11
15
21
17
22
16
22
25
23
23
18
21
13
16
15
15
23
16
27
14
22
17
25
17
14
15
12
16
18
23
22
23
21
13
22
18
22
16
25
24
23
14
21
23
26
21
23
15
16
24
13
24
21
15
18
16
20
16
19
22
20
16
19
16
23
14
10
18
17
15
19
16
16
10
22
28
30
17
19
19
11
19
19
22
9
13
23
22
20
17
17
20
15
20
17
17
18
20
17
18
8
16
10
25
12
20
8
21
17
16
19
16
13
20
26
18
17
11
13
18
21
20
22
20
14
13
20
11
15
10
11
7
15
17
16
17
19
20
19
13
15
25
20
18
20
13
25
17
24
12
20
19
12
15
19
20
14
22
17
16
14
21
25
15
22
13
14
12
13
9
17
18
17
19
21
12
19
7
21
16
15
17
18
14
15
11
8
14
21
13
15
15
16
15
14
18
19
12
18
26
21
23
16
13
13
10
18
18
20
15
19
8
20
20
16
17
13
20
10
11
17
14
18
20
22
12
14
17
13
12
19
20
20
19
13
13
13
16
13
14
17
16
15
23
10
10
17
21
15
18
17
20
9
16
13
21
10
19
14
21
15
11
10
12
16
20
17
15
18
19
17
10
20
20
23
21
16
14
15
27
21
16
9
17
10
14
18
17
13
13
7
17
10
19
12
19
16
18
17
17
21
15
13
13
21
18
11
16
16
19
19
19
15
12
10
14
13
11
17
19
14
17
18
14
14
14
20
9
13
12
16
20
19
9
8
15
10
15
11
14
20
9
19
18
6
7
16
18
20
11
15
16
12
20
17
14
15
12
20
19
10
15
16
13
16
9
14
11
16
15
18
14
20
9
14
14
13
13
10
14
9
12
13
12
18
13
14
8
8
15
8
17
9
10
19
7
18
7
13
19
12
9
24
7
18
13
15
14
13
13
11
9
14
13
15
10
14
13
10
13
8
10
13
10
17
16
14
11
10
11
15
6
18
13
14
11
9
10
10
13
8
9
15
11
13
17
12
14
15
11
12
23
13
8
9
18
18
12
16
12
13
8
13
8
15
11
10
11
15
7
12
13
14
7
16
10
13
8
14
14
14
11
12
8
5
13
8
13
10
12
17
6
14
11
13
9
9
10
10
19
11
12
11
16
12
10
14
11
14
9
5
10
17
17
9
20
1
14
13
14
9
11
10
14
3
5
9
12
13
18
10
9
14
16
8
8
6
11
6
10
13
12
6
19
6
12
6
10
6
7
14
12
8
6
7
7
16
12
16
7
9
6
8
13
10
11
8
12
10
11
11
6
8
11
12
8
8
5
8
9
7
11
15
11
7
10
9
9
8
9
9
9
7
9
5
16
8
7
10
13
7
5
13
3
14
5
7
10
13
11
12
10
13
9
13
11
10
5
10
10
10
10
5
4
7
7
10
10
11
6
11
6
9
16
7
12
10
9
7
8
10
9
14
12
11
9
5
8
11
9
11
9
13
7
8
9
5
8
8
11
8
5
7
10
8
7
9
11
5
7
10
8
11
4
9
5
8
13
9
6
12
8
7
12
9
8
7
9
7
8
8
10
8
11
7
3
7
11
8
5
7
7
8
7
3
11
6
6
6
5
7
6
6
11
11
6
4
9
6
10
11
8
4
11
8
8
5
9
9
5
9
6
5
9
6
5
9
7
8
7
5
8
0
2
5
8
5
7
8
10
13
7
9
6
14
6
4
5
8
10
4
6
6
4
5
12
11
6
7
9
11
7
11
12
7
5
7
8
11
5
4
5
11
5
9
11
9
9
10
5
1
12
4
4
8
5
2
5
8
3
7
2
3
2
5
3
8
15
7
3
10
5
9
7
7
5
5
8
8
5
3
6
2
9
5
6
6
8
7
8
6
7
5
4
3
9
5
7
12
2
3
8
5
4
3
7
6
2
9
4
8
3
7
4
7
7
11
3
4
4
5
7
5
2
7
9
7
4
7
4
3
10
7
3
1
7
6
3
4
5
5
2
7
4
4
4
11
5
4
12
7
5
4
4
2
9
5
4
5
2
11
5
1
2
9
3
5
6
8
6
6
6
5
3
7
5
4
5
6
4
6
2
3
4
6
5
11
6
3
2
2
4
5
2
2
6
0
1
2
5
6
2
6
5
11
4
2
2
0
0
2
2
0
3
1
1
1
2
0
0
0
0
0
0
0
0
0
0
0
0
0
0
0
0
0
0
0
0
0
0
0
0
1
0
0
0
0
0
0
0
0
0
0
0
0
0
0
0
0
0
0
0
0
0
0
0
0
0
0
0
0
0
0
0
0
0
0
0
0
0
0
0
2
0
0
0
0
0
0
0
0
0
0
0
0
0
0
0
0
0
0
0
0
0
0
0
0
0
0
0
0
0
0
0
0
0
0
0
0
0
1
0
0
0
0
0
0
0
0
0
0
0
0
0
0
0
0
0
0
0
0
0
0
0
0
0
0
0
0
0
0
0
0
0
0
0
0
0
0
0
0
0
0
0
0
0
0
0
0
0
0
0
0
0
0
0
0
0
0
0
0
0
0
0
0
0
0
0
0
0
0
0
0
0
0
0
0
0
0
0
0
0
0
0
0
0
0
0
0
0
0
0
0
0
0
0
0
0
0
0
0
0
0
0
0
0
0
0
0
0
0
0
0
0
0
0
0
0
0
0
0
0
0
0
0
0
0
0
0
0
0
0
0
0
0
0
0
0
0
0
0
0
0
0
0
0
0
0
0
0
0
0
0
0
0
0
0
0
0
0
0
0
0
0
0
0
0
0
0
0
0
0
0
0
0
0
0
0
0
0
0
0
0
0
0
0
0
0
0
0
0
0
0
0
0
0
0
0
0
0
0
0
0
0
0
0
0
0
0
0
0
0
0
0
0
0
0
0
0
0
0
0
0
0
0
0
0
0
0
0
0
0
0
0
0
0
0
0
0
0
0
0
0
0
0
0
0
0
0
0
0
0
0
0
0
0
0
0
0
0
0
0
0
0
0
0
0
0
0
0
0
0
0
0
0
0
0
0
0
0
0
0
0
0
0
0
0
0
0
0
0
0
0
0
0
0
0
0
0
0
0
0
0
0
0
0
0
0
0
0
0
0
0
0
0
0
0
0
0
0
0
0
0
0
0
0
0
0
0
0
0
0
0
0
0
0
0
0
0
0
0
0
0
0
0
0
0
0
0
0
0
0
0
0
0
0
0
0
0
0
0
0
0
0
0
0
0
0
0
0
0
0
0
0
0
0
0
0
0
0
0
0
0
0
0
0
0
0
0
0
0
0
0
0
0
0
0
0
0
0
0
0
0
0
0
0
0
0
0
0
0
0
0
0
0
0
0
0
0
0
0
0
0
0
0
0
0
0
0
0
0
0
0
0
0
0
0
0
0
0
0
0
0
0
0
0
0
0
0
0
0
0
0
0
0
0
0
0
0
0
0
0
0
0
0
0
0
0
0
0
0
0
0
0
0
0
0
0
0
0
0
0
0
0
0
0
0
0
0
0
0
0
0
0
0
0
0
0
0
0
0
0
0
0
0
0
0
0
0
0
0
0
0
0
0
0
0
0
0
0
0
0
0
0
0
0
0
0
0
0
0
0
0
0
0
0
0
0
0
0
0
0
0
0
0
0
0
0
0
0
0
0
0
0
0
0
0
0
0
0
0
0
0
0
0
0
0
0
0
0
0
0
0
0
0
0
0
0
0
0
0
0
0
0
0
0
0
0
0
0
0
0
0
0
0
0
0
0
0
0
0
0
0
0
0
0
0
0
0
0
0
0
0
0
0
0
0
0
0
0
0
0
0
0
0
0
0
0
0
0
0
0
0
0
0
0
0
0
0
0
0
0
0
0
0
0
0
0
0
0
0
0
0
0
0
0
0
0
0
0
0
0
0
0
0
0
0
0
0
0
0
0
0
0
0
0
0
0
0
0
0
0
0
0
0
0
0
0
0
0
0
0
0
0
0
0
0
0
0
0
0
0
0
0
0
0
0
0
0
0
0
0
0
0
0
0
0
0
0
0
0
0
0
0
0
0
0
0
0
0
0
0
0
0
0
0
0
0
0
0
0
0
0
0
0
0
0
0
0
0
0
0
0
0
0
0
0
0
0
0
0
0
0
0
0
0
0
0
0
0
0
0
0
0
0
0
0
0
0
0
0
0
0
0
0
0
0
0
0
0
0
0
0
0
0
0
0
0
0
0
0
0
0
0
0
0
0
0
0
0
0
0
0
0
0
0
0
0
0
0
0
0
0
0
0
0
0
0
0
0
0
0
0
0
0
0
0
0
0
0
0
0
0
0
0
0
0
0
0
0
0
0
0
0
0
0
0
0
0
0
0
0
0
0
0
0
0
0
0
0
0
0
0
0
0
0
0
0
0
0
0
0
0
0
0
0
0
0
0
0
0
0
0
0
0
0
0
0
0
0
0
0
0
0
0
0
0
0
0
0
0
0
0
0
0
0
0
0
0
0
0
0
0
0
0
0
0
0
0
0
0
0
0
0
0
0
0
0
0
0
0
0
0
0
0
0
0
0
0
0
0
0
0
0
0
0
0
0
0
0
0
0
0
0
0
0
0
0
0
0
0
0
0
0
0
0
0
0
0
0
0
0
0
0
0
0
0
0
0
0
0
0
0
0
0
0
0
0
0
0
0
0
0
0
0
0
0
0
0
0
0
0
0
0
0
0
0
0
0
0
0
0
0
0
0
0
0
0
0
0
0
0
0
0
0
0
0
0
0
0
0
0
0
0
0
0
0
0
0
0
0
0
0
0
0
0
0
0
0
0
0
0
0
0
0
0
0
0
0
0
0
0
0
0
0
0
0
0
0
0
0
0
0
0
0
0
0
0
0
0
0
0
0
0
0
0
0
0
0
0
0
0
0
0
0
0
0
0
0
0
0
0
0
0
0
0
0
0
0
0
0
0
0
0
0
0
0
0
0
0
0
0
0
0
0
0
0
0
0
0
0
0
0
0
0
0
0
0
0
0
0
0
0
0
0
0
0
0
0
0
0
0
0
0
0
0
0
0
0
0
0
0
0
0
0
0
0
0
0
0
0
0
0
0
0
0
0
0
0
0
0
0
0
0
0
0
0
0
0
0
0
0
0
0
0
0
0
0
0
0
0
0
0
0
0
0
0
0
0
0
0
0
0
0
0
0
0
0
0
0
0
0
0
0
0
0
0
0
0
0
0
0
0
0
0
0
0
0
0
0
0
0
0
0
0
0
0
0
0
0
0
0
0
0
0
0
0
0
0
0
0
0
0
0
0
0
0
0
0
0
0
0
0
0
0
0
0
0
0
0
0
0
0
0
0
0
0
0
0
0
0
0
0
0
0
0
0
0
0
0
0
0
0
0
0
0
0
0
0
0
0
0
0
0
0
0
0
0
0
0
0
0
0
0
0
0
0
0
0
0
0
0
0
0
0
0
0
0
0
0
0
0
0
0
0
0
0
0
0
0
0
0
0
0
0
0
0
0
0
0
0
0
0
0
0
0
0
0
0
0
0
0
0
0
0
0
0
0
0
0
0
0
0
0
0
0
0
0
0
0
0
0
0
0
0
0
0
0
0
0
0
0
0
0
0
0
0
0
0
0
0
0
0
0
0
0
0
0
0
0
0
0
0
0
0
0
0
0
0
0
0
0
0
0
0
0
0
0
0
0
0
0
0
0
0
0
0
0
0
0
0
0
0
0
0
0
0
0
0
0
0
0
0
0
0
0
0
0
0
0
0
0
0
0
0
0
0
0
0
0
0
0
0
0
0
0
0
0
0
0
0
0
0
0
0
0
0
0
0
0
0
0
0
0
0
0
0
0
0
0
0
0
0
0
0
0
0
0
0
0
0
0
0
0
0
0
0
0
0
0
0
0
0
0
0
0
0
0
0
0
0
0
0
0
0
0
0
0
0
0
0
0
0
0
0
0
0
0
0
0
0
0
0
0
0
0
0
0
0
0
0
0
0
0
0
0
0
0
0
0
0
0
0
0
0
0
0
0
0
0
0
0
0
0
0
0
0
0
0
0
0
0
0
0
0
0
0
0
0
0
0
0
0
0
0
0
0
0
0
0
0
0
0
0
0
0
0
0
0
0
0
0
0
0
0
0
0
0
0
0
0
0
0
0
0
0
0
0
0
0
0
0
0
0
0
0
0
0
0
0
0
0
0
0
0
0
0
0
0
0
0
0
0
0
0
0
0
0
0
0
0
0
0
0
0
0
0
0
0
0
0
0
0
0
0
0
0
0
0
0
0
0
0
0
0
0
0
0
0
0
0
0
0
0
0
0
0
0
0
0
0
0
0
0
0
0
0
0
0
0
0
0
0
0
0
0
0
0
0
0
0
0
0
0
0
0
0
0
0
0
0
0
0
0
0
0
0
0
0
0
0
0
0
0
0
0
0
0
0
0
0
0
0
0
0
0
0
0
0
0
0
0
0
0
0
0
0
0
0
0
0
0
0
0
0
0
0
0
0
0
0
0
0
0
0
0
0
0
0
0
0
0
0
0
0
0
0
0
0
0
0
0
0
0
0
0
0
0
0
0
0
0
0
0
0
0
0
0
0
0
0
0
0
0
0
0
0
0
0
0
0
0
0
0
0
0
0
0
0
0
0
0
0
0
0
0
0
0
0
0
0
0
0
0
0
0
0
0
0
0
0
0
0
0
0
0
0
0
0
0
0
0
0
0
0
0
0
0
0
0
0
0
0
0
0
0
0
0
0
0
0
0
0
0
0
0
0
0
0
0
0
0
0
0
0
0
0
0
0
0
0
0
0
0
0
0
0
0
0
0
0
0
0
0
0
0
0
0
0
0
0
0
0
0
0
0
0
0
0
0
0
0
0
0
0
0
0
0
0
0
0
0
0
0
0
0
0
0
0
0
0
0
0
0
0
0
0
0
0
0
0
0
0
0
0
0
0
0
0
0
0
0
0
0
0
0
0
0
0
0
0
0
0
0
0
0
0
0
0
0
0
0
0
0
0
0
0
0
0
0
0
0
0
0
0
0
0
0
0
0
0
0
0
0
0
0
0
0
0
0
0
0
0
0
0
0
0
0
0
0
0
0
0
0
0
0
0
0
0
0
0
0
0
0
0
0
0
0
0
0
0
0
0
0
0
0
0
0
0
0
0
0
0
0
0
0
0
0
0
0
0
0
0
0
0
0
0
0
0
0
0
0
0
0
0
0
0
0
0
0
0
0
0
0
0
0
0
0
0
0
0
0
0
0
0
0
0
0
0
0
0
0
0
0
0
0
0
0
0
0
0
0
0
0
0
0
0
0
0
0
0
0
0
0
0
0
0
0
0
0
0
0
0
0
0
0
0
0
0
0
0
0
0
0
0
0
0
0
0
0
0
0
0
0
0
0
0
0
0
0
0
0
0
0
0
0
0
0
0
0
0
0
0
0
0
0
0
0
0
0
0
0
0
0
0
0
0
0
0
0
0
0
0
0
0
0
0
0
0
0
0
0
0
0
0
0
0
0
0
0
0
0
0
0
0
0
0
0
0
0
0
0
0
0
0
0
0
0
0
0
0
0
0
0
0
0
0
0
0
0
0
0
0
0
0
0
0
0
0
0
0
0
0
0
0
0
0
0
0
0
0
0
0
0
0
0
0
0
0
0
0
0
0
0
0
0
0
0
0
0
0
0
0
0
0
0
0
0
0
0
0
0
0
0
0
0
0
0
0
0
0
0
0
0
0
0
0
0
0
0
0
0
0
0
0
0
0
0
0
0
0
0
0
0
0
0
0
0
0
0
0
0
0
0
0
0
0
0
0
0
0
0
0
0
0
0
0
0
0
0
0
0
0
0
0
0
0
0
0
0
0
0
0
0
0
0
0
0
0
0
0
0
0
0
0
0
0
0
0
0
0
0
0
0
0
0
0
0
0
0
0
0
0
0
0
0
0
0
0
0
0
0
0
0
0
0
0
0
0
0
0
0
0
0
0
0
0
0
0
0
0
0
0
0
0
0
0
0
0
0
0
0
0
0
0
0
0
0
0
0
0
0
0
0
0
0
0
0
0
0
0
0
0
0
0
0
0
0
0
0
0
0
0
0
0
0
0
0
0
0
0
0
0
0
0
0
0
0
0
0
0
0
0
0
0
0
0
0
0
0
0
0
0
0
0
0
0
0
0
0
0
0
0
0
0
0
0
0
0
0
0
0
0
0
0
0
0
0
0
0
0
0
0
0
0
0
0
0
0
0
0
0
0
0
0
0
0
0
0
0
0
0
0
0
0
0
0
0
0
0
0
0
0
0
0
0
0
0
0
0
0
0
0
0
0
0
0
0
0
0
0
0
0
0
0
0
0
0
0
0
0
0
0
0
0
0
0
0
0
0
0
0
0
0
0
0
0
0
0
0
0
0
0
0
0
0
0
0
0
0
0
0
0
0
0
0
0
0
0
0
0
0
0
0
0
0
0
0
0
0
0
0
0
0
0
0
0
0
0
0
0
0
0
0
0
0
0
0
0
0
0
0
0
0
0
0
0
0
0
0
0
0
0
0
0
0
0
0
0
0
0
0
0
0
0
0
0
0
0
0
0
0
0
0
0
0
0
0
0
0
0
0
0
0
0
0
0
0
0
0
0
0
0
0
0
0
0
0
0
0
0
0
0
0
0
0
0
0
0
0
0
0
0
0
0
0
0
0
0
0
0
0
0
0
0
0
0
0
0
0
0
0
0
0
0
0
0
0
0
0
0
0
0
0
0
0
0
0
0
0
0
0
0
0
0
0
0
0
0
0
0
0
0
0
0
0
0
0
0
0
0
0
0
0
0
0
0
0
0
0
0
0
0
0
0
0
0
0
0
0
0
0
0
0
0
0
0
0
0
0
0
0
0
0
0
0
0
0
0
0
0
0
0
0
0
0
0
0
0
0
0
0
0
0
0
0
0
0
0
0
0
0
0
0
0
0
0
0
0
0
0
0
0
0
0
0
0
0
0
0
0
0
0
0
0
0
0
0
0
0
0
0
0
0
0
0
0
0
0
0
0
0
0
0
0
0
0
0
0
0
0
0
0
0
0
0
0
0
0
0
0
0
0
0
0
0
0
0
0
0
0
0
0
0
0
0
0
0
0
0
0
0
0
0
0
0
0
0
0
0
0
0
0
0
0
0
0
0
0
0
0
0
0
0
0
0
0
0
0
0
0
0
0
0
0
0
0
0
0
0
0
0
0
0
0
0
0
0
0
0
0
0
0
0
0
0
0
0
0
0
0
0
0
0
0
0
0
0
0
0
0
0
0
0
0
0
0
0
0
0
0
0
0
0
0
0
0
0
0
0
0
0
0
0
0
0
0
0
0
0
0
0
0
0
0
0
0
0
0
0
0
0
0
0
0
0
0
0
0
0
0
0
0
0
0
0
0
0
0
0
0
0
0
0
0
0
0
0
0
0
0
0
0
0
0
0
0
0
0
0
0
0
0
0
0
0
0
0
0
0
0
0
0
0
0
0
0
0
0
0
0
0
0
0
0
0
0
0
0
0
0
0
0
0
0
0
0
0
0
0
0
0
0
0
0
0
0
0
0
0
0
0
0
0
0
0
0
0
0
0
0
0
0
0
0
0
0
0
0
0
0
0
0
0
0
0
0
0
0
0
0
0
0
0
0
0
0
0
0
0
0
0
0
0
0
0
0
0
0
0
0
0
0
0
0
0
0
0
0
0
0
0
0
0
0
0
0
0
0
0
0
0
0
0
0
0
0
0
0
0
0
0
0
0
0
0
0
0
0
0
0
0
0
0
0
0
0
0
0
0
0
0
0
0
0
0
0
0
0
0
0
0
0
0
0
0
0
0
0
0
0
0
0
0
0
0
0
0
0
0
0
0
0
0
0
0
0
0
0
0
0
0
0
0
0
0
0
0
0
0
0
0
0
0
0
0
0
0
0
0
0
0
0
0
0
0
0
0
0
0
0
0
0
0
0
0
0
0
0
0
0
0
0
0
0
0
0
0
0
0
0
0
0
0
0
0
0
0
0
0
0
0
0
0
0
0
0
0
0
0
0
0
0
0
0
0
0
0
0
0
0
0
0
0
0
0
0
0
0
0
0
0
0
0
0
0
0
0
0
0
0
0
0
0
0
0
0
0
0
0
0
0
0
0
0
0
0
0
0
0
0
0
0
0
0
0
0
0
0
0
0
0
0
0
0
0
0
0
0
0
0
0
0
0
0
0
0
0
0
0
0
0
0
0
0
0
0
0
0
0
0
0
0
0
0
0
0
0
0
0
0
0
0
0
0
0
0
0
0
0
0
0
0
0
0
0
0
0
0
0
0
0
0
0
0
0
0
0
0
0
0
0
0
0
0
0
0
0
0
0
0
0
0
0
0
0
0
0
0
0
0
0
0
0
0
0
0
0
0
0
0
0
0
0
0
0
0
0
0
0
0
0
0
0
0
0
0
0
0
0
0
0
0
0
0
0
0
0
0
0
0
0
0
0
0
0
0
0
0
0
0
0
0
0
0
0
0
0
0
0
0
0
0
0
0
0
0
0
0
0
0
0
0
0
0
0
0
0
0
0
0
0
0
0
0
0
0
0
0
0
0
0
0
0
0
0
0
0
0
0
0
0
0
0
0
0
0
0
0
0
0
0
0
0
0
0
0
0
0
0
0
0
0
0
0
0
0
0
0
0
0
0
0
0
0
0
0
0
0
0
0
0
0
0
0
0
0
0
0
0
0
0
0
0
0
0
0
0
0
0
0
0
0
0
0
0
0
0
0
0
0
0
0
0
0
0
0
0
0
0
0
0
0
0
0
0
0
0
0
0
0
0
0
0
0
0
0
0
0
0
0
0
0
0
0
0
0
0
0
0
0
0
0
0
0
0
0
0
0
0
0
0
0
0
0
0
0
0
0
0
0
0
0
0
0
0
0
0
0
0
0
0
0
0
0
0
0
0
0
0
0
0
0
0
0
0
0
0
0
0
0
0
0
0
0
0
0
0
0
0
0
0
0
0
0
0
0
0
0
0
0
0
0
0
0
0
0
0
0
0
0
0
0
0
0
0
0
0
0
0
0
0
0
0
0
0
0
0
0
0
0
0
0
0
0
0
0
0
0
0
0
0
0
0
0
0
0
0
0
0
0
0
0
0
0
0
0
0
0
0
0
0
0
0
0
0
0
0
0
0
0
0
0
0
0
0
0
0
0
0
0
0
0
0
0
0
0
0
0
0
0
0
0
0
0
0
0
0
0
0
0
0
0
0
0
0
0
0
0
0
0
0
0
0
0
0
0
0
0
0
0
0
0
0
0
0
0
0
0
0
0
0
0
0
0
0
0
0
0
0
0
0
0
0
0
0
0
0
0
0
0
0
0
0
0
0
0
0
0
0
0
0
0
0
0
0
0
0
0
0
0
0
0
0
0
0
0
0
0
0
0
0
0
0
0
0
0
0
0
0
0
0
0
0
0
0
0
0
0
0
0
0
0
0
0
0
0
0
0
0
0
0
0
0
0
0
0
0
0
0
0
0
0
0
0
0
0
0
0
0
0
0
0
0
0
0
0
0
0
0
0
0
0
0
0
0
0
0
0
0
0
0
0
0
0
0
0
0
0
0
0
0
0
0
0
0
0
0
0
0
0
0
0
0
0
0
0
0
0
0
0
0
0
0
0
0
0
0
0
0
0
0
0
0
0
0
0
0
0
0
0
0
0
0
0
0
0
0
0
0
0
0
0
0
0
0
0
0
0
0
0
0
0
0
0
0
0
0
0
0
0
0
0
0
0
0
0
0
0
0
0
0
0
0
0
0
0
0
0
0
0
0
0
0
0
0
0
0
0
0
0
0
0
0
0
0
0
0
0
0
0
0
0
0
0
0
0
0
0
0
0
0
0
0
0
0
0
0
0
0
0
0
0
0
0
0
0
0
0
0
0
0
0
0
0
0
0
0
0
0
0
0
0
0
0
0
0
0
0
0
0
0
0
0
0
0
0
0
0
0
0
0
0
0
0
0
0
0
0
0
0
0
0
0
0
0
0
0
0
0
0
0
0
0
0
0
0
0
0
0
0
0
0
0
0
0
0
0
0
0
0
0
0
0
0
0
0
0
0
0
0
0
0
0
0
0
0
0
0
0
0
0
0
0
0
0
0
0
0
0
0
0
0
0
0
0
0
0
0
0
0
0
0
0
0
0
0
0
0
0
0
0
0
0
0
0
0
0
0
0
0
0
0
0
0
0
0
0
0
0
0
0
0
0
0
0
0
0
0
0
0
0
0
0
0
0
0
0
0
0
0
0
0
0
0
0
0
0
0
0
0
0
0
0
0
0
0
0
0
0
0
0
0
0
0
0
0
0
0
0
0
0
0
0
0
0
0
0
0
0
0
0
0
0
0
0
0
0
0
0
0
0
0
0
0
0
0
0
0
0
0
0
0
0
0
0
0
0
0
0
0
0
0
0
0
0
0
0
0
0
0
0
0
0
0
0
0
0
0
0
0
0
0
0
0
0
0
0
0
0
0
0
0
0
0
0
0
0
0
0
0
0
0
0
0
0
0
0
0
0
0
0
0
0
0
0
0
0
0
0
0
0
0
0
0
0
0
0
0
0
0
0
0
0
0
0
0
0
0
0
0
0
0
0
0
0
0
0
0
0
0
0
0
0
0
0
0
0
0
0
0
0
0
0
0
0
0
0
0
0
0
0
0
0
0
0
0
0
0
0
0
0
0
0
0
0
0
0
0
0
0
0
0
0
0
0
0
0
0
0
0
0
0
0
0
0
0
0
0
0
0
0
0
0
0
0
0
0
0
0
0
0
0
0
0
0
0
0
0
0
0
0
0
0
0
0
0
0
0
0
0
0
0
0
0
0
0
0
0
0
0
0
0
0
0
0
0
0
0
0
0
0
0
0
0
0
0
0
0
0
0
0
0
0
0
0
0
0
0
0
0
0
0
0
0
0
0
0
0
0
0
0
0
0
0
0
0
0
0
0
0
0
0
0
0
0
0
0
0
0
0
0
0
0
0
0
0
0
0
0
0
0
0
0
0
0
0
0
0
0
0
0
0
0
0
0
0
0
0
0
0
0
0
0
0
0
0
0
0
0
0
0
0
0
0
0
0
0
0
0
0
0
0
0
0
0
0
0
0
0
0
0
0
0
0
0
0
0
0
0
0
0
0
0
0
0
0
0
0
0
0
0
0
0
0
0
0
0
0
0
0
0
0
0
0
0
0
0
0
0
0
0
0
0
0
0
0
0
0
0
0
0
0
0
0
0
0
0
0
0
0
0
0
0
0
0
0
0
0
0
0
0
0
0
0
0
0
0
0
0
0
0
0
0
0
0
0
0
0
0
0
0
0
0
0
0
0
0
0
0
0
0
0
0
0
0
0
0
0
0
0
0
0
0
0
0
0
0
0
0
0
0
