0
0
0
0
0
0
0
0
0
0
0
0
0
0
0
0
0
0
0
0
0
0
0
0
0
0
0
0
0
0
0
0
0
0
0
0
0
0
0
0
0
0
0
0
0
0
0
0
0
0
0
0
0
0
0
0
0
0
0
0
0
0
0
0
0
0
0
0
0
0
0
0
0
0
0
0
0
0
0
0
0
0
0
0
0
0
0
0
0
0
0
0
0
0
0
0
0
0
0
0
0
0
0
0
0
0
0
0
0
0
0
0
0
0
0
0
0
0
0
0
0
0
0
0
0
0
0
0
0
0
0
0
0
0
0
0
0
0
0
0
0
0
0
0
0
0
0
0
0
0
0
0
0
0
0
0
0
0
0
0
0
0
0
0
0
0
0
0
0
0
0
0
0
0
0
0
0
0
0
0
0
0
0
0
0
0
0
0
0
0
0
0
0
0
0
0
0
0
0
0
0
0
0
0
0
0
0
0
0
0
0
0
0
0
0
0
0
0
0
0
0
0
0
0
0
0
0
0
0
0
0
0
0
0
0
0
0
0
0
0
0
0
0
0
0
0
0
0
0
0
0
0
0
0
0
0
0
0
0
0
0
0
0
0
0
0
0
0
0
0
0
0
0
0
0
0
0
0
0
0
0
0
0
0
0
0
0
0
0
0
0
0
0
0
0
0
0
0
0
0
0
0
0
0
0
0
0
0
0
0
0
0
0
0
0
0
0
0
0
0
0
0
0
0
0
0
0
0
0
0
0
0
0
0
0
0
0
0
0
0
0
0
0
0
0
0
0
0
0
0
0
0
0
0
0
0
0
0
0
0
0
0
0
0
0
0
0
0
0
0
0
0
0
0
0
0
0
0
0
0
0
0
0
0
0
0
0
0
0
0
0
0
0
0
0
0
0
0
0
0
0
0
0
0
0
0
0
0
0
0
0
0
0
0
0
0
0
0
0
0
0
0
0
0
0
0
0
0
0
0
0
0
0
0
0
0
0
0
0
0
0
0
0
0
0
0
0
0
0
1
1
3
1
10
148
184
33554433
50331852
33554642
33554664
33554675
33554471
50331888
33554675
33554445
50331648
50331874
33554440
50331673
50331679
50331877
33554680
33554519
50331710
50331713
50331772
50331686
50331680
50331690
50331664
50331692
50331754
50331696
50331735
50331715
50331750
50331803
50331770
50331752
50331807
50331795
50331788
50331750
50331804
50331813
50331824
50331857
50331800
50331833
50331843
50331778
50331648
67109024
50331851
50331870
50331843
50331811
50331802
50331749
50331740
50331689
50331691
50331899
33554662
33554680
33554650
33554640
33554595
33554630
33554607
33554655
33554618
33554613
33554612
33554597
33554589
33554642
33554575
33554619
33554606
33554577
33554618
33554607
33554647
33554614
33554565
33554561
33554584
33554597
33554602
33554551
33554580
33554570
33554592
33554600
33554604
33554559
33554574
33554560
33554603
33554558
33554532
33554521
33554576
33554532
33554566
33554555
33554537
33554549
33554532
33554499
33554544
33554552
33554539
33554525
33554548
33554592
33554524
33554541
33554524
33554576
33554574
33554534
33554528
33554547
33554522
33554554
33554550
33554562
33554598
33554564
33554571
33554557
33554595
33554497
33554519
33554541
33554523
33554468
33554497
33554475
33554673
16777450
16777454
16777417
16777428
16777388
16777361
16777365
16777310
16777366
16777371
16777352
16777312
16777296
16777325
16777332
16777322
16777363
16777369
16777408
16777439
16777252
33554624
33554458
67109097
117440744
201326803
218103925
201326795
167772258
184549559
251658293
268435518
184549474
50331662
16777463
255
208
198
218
205
189
190
197
194
162
182
167
152
157
141
154
195
125
154
127
136
137
152
132
141
136
115
104
117
120
115
99
130
108
105
92
109
85
88
97
73
95
83
111
73
89
100
88
93
95
82
85
96
85
87
87
83
81
102
82
111
81
107
128
135
152
192
231
80
16777470
16777354
50331846
117440603
167772254
167772322
134217863
117440546
134217772
184549403
218103867
184549471
83886326
56
52
45
44
49
42
48
47
50
48
36
42
31
41
39
31
33
43
48
40
41
48
45
48
49
50
35
37
60
48
40
44
45
31
38
34
31
31
38
39
41
31
34
30
25
36
33
37
27
33
34
33
38
33
39
29
36
33
30
30
44
32
34
58
30
34
35
35
39
37
27
33
22
30
22
42
34
27
31
30
29
32
32
29
26
33
21
34
20
22
30
30
23
26
28
32
29
34
21
25
37
32
21
25
29
27
27
30
23
32
27
24
27
29
24
33
27
22
31
26
20
25
25
28
31
23
22
27
22
33
23
32
25
26
27
25
35
29
20
25
22
23
32
25
44
37
51
53
54
51
48
36
70
67
46
52
41
34
35
27
26
25
24
25
36
18
29
22
28
16
26
23
20
22
34
25
26
22
23
23
24
22
29
23
14
24
23
32
15
21
26
31
23
28
34
21
26
17
32
26
19
21
15
27
21
20
17
20
25
25
21
23
28
22
23
23
32
16
30
32
25
28
30
26
19
19
28
27
23
27
18
27
26
25
24
20
26
24
18
24
16
24
27
31
22
25
27
15
18
20
19
18
25
27
17
21
29
24
18
27
32
14
19
20
22
21
16
12
14
24
16
19
16
23
18
16
25
19
31
19
21
20
29
29
19
21
21
20
17
17
31
9
23
21
19
18
22
22
19
18
27
14
14
19
18
19
18
22
15
22
28
26
26
18
18
19
22
21
17
14
18
12
22
15
19
23
14
20
24
13
25
30
25
18
15
30
18
16
14
20
18
14
19
14
20
9
25
21
21
23
19
19
20
25
15
15
15
17
19
17
19
31
18
16
18
17
15
16
23
18
16
22
15
26
13
20
19
11
17
28
15
13
17
20
17
19
19
22
15
13
19
18
14
18
25
14
19
16
23
21
8
21
21
18
23
15
25
15
12
19
12
18
14
12
18
19
15
17
16
15
14
11
24
16
19
12
25
15
20
14
24
19
11
18
15
18
15
17
16
22
20
15
15
18
12
12
9
16
15
7
12
14
17
14
20
14
15
12
11
15
16
15
15
15
21
20
15
17
14
21
17
19
12
22
18
19
20
10
19
14
9
18
15
12
14
9
18
15
16
16
9
15
13
21
13
12
19
4
11
5
11
14
12
10
18
12
12
12
9
12
9
10
9
6
13
14
15
7
15
10
9
8
7
6
8
5
12
10
11
9
15
6
10
7
15
11
5
5
10
6
5
8
7
4
12
13
7
4
4
9
10
5
7
6
2
12
6
7
5
8
2
2
4
3
5
4
9
6
9
4
7
11
5
9
2
5
7
5
8
6
4
9
8
4
3
4
10
12
11
13
10
5
9
4
13
14
10
18
21
21
27
11
18
18
19
20
17
9
22
12
20
16
7
9
8
7
6
9
4
4
4
6
7
7
2
5
5
7
3
4
4
5
3
7
2
4
4
1
4
10
7
5
5
3
4
4
5
3
6
7
9
3
4
5
5
8
2
7
5
6
6
1
5
2
3
7
4
6
2
6
7
4
5
3
3
5
6
6
4
1
5
4
5
2
4
3
3
6
7
9
9
3
3
2
1
4
5
12
3
8
4
4
5
7
4
5
4
4
7
3
3
3
8
0
7
6
4
2
8
5
2
5
2
9
3
9
5
5
6
3
6
6
2
5
4
4
4
6
3
6
7
4
4
3
4
5
2
8
4
5
4
2
3
5
2
3
4
9
5
3
3
5
8
5
5
5
5
3
7
1
2
7
3
3
2
3
4
6
7
7
4
2
4
6
6
7
3
4
3
2
4
5
3
5
6
3
7
5
1
4
5
6
0
7
3
6
4
4
7
4
5
1
4
3
5
7
4
0
5
5
6
5
4
3
3
4
5
6
5
13
1
2
10
6
6
4
6
5
6
5
3
4
4
2
8
2
1
5
6
5
3
6
6
3
3
2
11
2
4
5
3
5
9
4
3
6
9
1
6
8
4
4
4
6
11
1
3
1
4
9
2
5
6
6
9
4
5
4
6
7
5
4
5
5
0
4
3
0
1
6
6
1
3
5
5
5
5
2
5
8
6
5
3
10
5
3
3
6
9
5
4
6
5
8
6
3
5
8
5
2
3
2
6
5
8
4
1
5
12
5
3
8
6
6
6
4
5
5
3
3
5
2
4
5
5
12
3
5
4
7
5
5
5
10
4
6
5
6
3
6
3
5
3
7
8
7
5
3
6
8
2
5
2
6
4
5
6
10
9
5
7
5
5
6
8
9
8
5
5
3
6
4
5
7
3
3
11
6
4
6
5
1
8
5
7
2
5
4
6
2
5
2
2
8
4
4
2
3
4
5
3
9
7
7
5
5
3
4
5
6
2
5
10
6
9
6
1
6
9
2
4
5
4
8
2
10
6
7
5
7
2
0
12
4
9
9
3
3
4
6
9
3
9
3
8
4
3
8
4
8
3
4
4
5
2
4
5
7
8
4
0
1
4
5
8
7
6
5
12
2
5
7
3
7
4
6
8
4
8
3
8
2
4
4
4
6
4
4
4
6
5
3
4
5
3
7
3
5
6
4
3
5
6
0
3
4
2
1
7
3
4
8
3
7
7
5
9
5
8
4
5
4
5
1
6
7
4
5
4
7
3
4
5
5
6
6
8
2
7
9
4
8
1
4
5
4
2
10
5
6
5
5
5
8
2
6
2
7
8
3
4
1
6
8
4
5
5
5
2
7
5
10
4
6
3
3
7
7
7
3
3
5
5
4
7
7
5
4
3
5
5
6
6
6
3
5
2
5
3
4
3
3
5
4
7
6
5
4
4
1
4
5
4
8
6
9
7
6
7
8
3
3
4
10
4
11
5
7
5
5
6
10
4
7
5
0
6
8
8
4
3
2
3
5
7
6
7
4
7
3
10
12
6
6
7
3
9
6
4
1
6
3
4
5
6
5
2
6
7
4
5
2
5
8
5
8
9
7
8
3
3
6
3
4
5
10
8
6
4
3
4
7
5
4
4
8
6
5
7
7
4
2
3
5
5
3
6
7
9
6
6
4
7
6
8
8
2
7
4
9
6
8
3
4
9
9
5
3
9
7
6
3
9
4
4
3
7
7
5
6
7
3
9
3
3
5
5
6
6
5
7
3
6
4
3
6
7
6
8
7
8
4
6
9
4
6
3
5
4
10
4
7
1
5
6
7
5
5
7
12
3
6
0
1
10
4
2
4
7
2
7
6
7
3
6
9
6
12
7
3
6
5
2
10
4
3
7
2
6
4
8
9
6
7
4
4
8
1
3
2
8
2
8
4
6
3
6
13
9
6
4
5
4
10
8
12
7
11
8
9
6
5
4
5
3
4
8
7
5
6
3
4
6
5
9
8
4
6
8
6
8
4
9
7
7
9
6
9
9
6
6
6
4
11
11
6
9
4
7
3
7
3
3
4
9
6
3
3
4
2
6
5
10
11
7
10
5
6
7
6
6
6
4
6
4
2
6
4
6
10
6
8
0
6
3
5
8
9
6
6
3
2
4
9
4
7
5
3
7
3
1
10
6
6
7
8
5
5
5
8
9
9
4
5
2
9
7
3
4
7
4
6
3
10
11
7
6
5
6
8
5
7
6
4
7
3
3
3
8
3
6
6
10
4
6
9
7
8
0
0
5
9
4
2
8
8
2
6
10
3
5
5
3
7
11
7
9
7
4
3
6
3
14
3
10
3
9
10
8
3
8
9
5
7
9
11
2
2
7
8
5
5
6
9
6
11
11
9
7
5
9
3
5
5
11
3
5
4
5
12
12
10
4
8
9
4
9
4
9
8
9
8
10
7
8
9
3
6
5
10
6
5
9
9
7
6
10
8
10
9
13
11
7
5
10
4
5
6
8
4
4
8
6
9
9
7
11
3
5
9
5
4
4
11
12
4
7
2
10
10
8
5
10
9
10
8
4
7
8
5
10
7
10
8
6
8
8
10
2
10
9
4
14
8
13
9
8
3
9
14
8
8
10
3
3
5
7
5
8
7
9
3
6
6
10
10
9
8
3
8
7
4
8
7
6
7
12
7
9
12
6
9
11
3
10
8
7
4
8
5
10
11
5
17
8
13
12
8
13
14
5
11
4
8
12
5
10
8
9
3
9
5
5
6
3
9
10
7
15
7
8
4
9
7
7
9
11
8
12
5
6
11
8
4
10
5
10
6
8
7
12
7
7
10
12
10
15
1
13
10
9
10
6
6
9
8
12
11
6
9
5
10
14
9
12
8
4
10
7
7
10
9
13
11
13
9
11
15
9
13
11
10
12
4
7
8
9
6
8
6
10
11
7
19
3
12
5
8
8
7
10
15
11
9
14
4
7
6
11
12
7
7
10
9
12
14
10
11
10
11
10
8
17
9
12
10
16
9
12
11
11
13
20
16
17
25
30
26
27
27
25
23
23
20
28
16
25
16
28
27
23
20
27
20
29
16
18
20
30
32
31
29
36
21
19
22
29
19
25
23
19
19
13
15
19
16
17
18
9
15
19
24
17
21
17
18
17
22
23
12
14
12
8
17
24
11
9
11
20
11
12
18
16
12
20
16
12
14
13
10
13
10
16
16
14
10
17
15
21
16
12
16
16
12
15
20
19
16
18
19
21
13
17
12
18
11
16
12
14
14
15
16
16
13
18
16
18
20
17
14
11
21
17
15
21
15
18
27
14
16
15
5
17
16
18
10
15
17
15
10
11
15
13
18
16
26
9
20
13
16
11
16
11
16
15
15
20
16
13
15
13
21
20
9
21
23
14
18
17
18
10
18
13
9
15
15
16
15
11
15
16
15
14
16
29
16
15
12
15
18
12
14
27
12
8
14
11
10
19
17
20
17
15
15
14
12
10
18
9
13
22
9
12
13
14
17
15
18
11
10
20
14
13
9
7
13
16
11
11
17
8
15
11
12
9
14
11
16
9
16
12
14
15
13
9
14
13
13
19
9
16
11
11
10
8
14
18
15
15
10
9
14
9
15
11
15
22
20
16
19
13
19
23
17
21
27
17
22
25
22
24
29
23
22
24
26
15
21
18
17
21
27
31
23
17
22
21
31
28
31
28
18
26
18
16
17
15
13
13
20
24
15
13
12
11
11
15
16
15
19
19
12
8
14
13
11
15
8
11
14
17
8
10
22
9
7
13
11
6
9
12
10
17
10
13
13
14
21
13
10
13
13
13
7
18
13
22
19
12
9
11
9
16
15
11
13
7
13
9
12
9
7
10
11
11
11
9
12
14
15
8
13
16
12
10
16
12
13
14
16
20
13
9
12
14
15
15
11
19
19
21
9
14
18
13
13
10
17
11
19
14
11
18
19
17
8
21
14
16
18
12
11
10
17
15
11
12
10
17
14
19
13
18
12
8
15
15
17
10
15
16
16
17
21
16
12
13
11
13
13
13
8
15
13
13
13
12
15
12
10
8
15
12
14
11
8
12
10
5
9
13
11
15
6
9
8
5
9
10
8
9
7
11
8
5
17
6
11
10
9
11
9
9
1
9
10
5
5
8
10
5
7
12
5
11
8
9
4
10
6
5
7
10
8
9
9
11
8
4
5
7
12
16
5
13
13
9
13
13
13
17
12
15
12
18
6
20
15
13
12
16
13
15
15
15
24
24
17
19
20
20
23
20
23
16
20
11
13
19
16
20
17
19
19
16
16
18
13
11
15
18
8
19
12
14
5
11
7
10
11
10
7
10
12
5
12
9
10
2
10
5
9
5
5
11
10
7
3
8
7
5
12
7
7
10
5
3
4
5
4
8
8
4
8
3
7
7
4
4
10
7
4
5
5
7
7
7
5
6
6
3
0
7
6
3
3
5
5
7
6
3
7
7
6
3
6
4
8
7
5
9
7
5
3
7
10
10
4
5
4
2
7
6
10
4
5
9
7
4
6
5
5
4
7
4
3
8
4
8
9
11
6
5
8
12
8
6
5
7
11
9
9
5
8
4
5
5
7
12
7
5
6
5
4
6
9
7
9
6
10
8
10
5
8
6
6
7
10
4
8
4
11
6
8
4
4
8
3
3
6
9
5
5
6
5
6
6
5
5
4
1
5
4
4
6
7
5
6
1
5
4
3
6
5
2
6
4
1
6
7
7
2
4
6
3
5
4
3
3
2
11
2
2
3
4
4
3
6
4
9
6
3
3
5
5
3
2
8
1
8
2
4
8
7
5
7
4
10
2
5
5
7
1
1
2
4
6
2
8
7
7
3
5
5
3
8
5
6
4
8
3
8
3
7
3
8
7
4
3
8
3
3
6
8
5
5
8
10
2
3
4
3
6
2
3
1
5
8
5
1
2
6
3
2
8
2
3
4
3
3
4
4
9
4
4
3
2
4
0
3
1
5
4
3
0
5
0
3
2
4
5
3
3
2
3
1
1
6
4
2
3
3
2
8
3
4
3
1
6
2
2
4
2
3
3
3
2
4
6
2
1
4
1
2
7
1
3
4
4
3
3
3
4
3
1
1
3
1
6
3
6
1
4
2
4
2
2
0
1
0
5
3
6
3
4
5
1
3
3
3
2
4
0
2
4
5
2
2
5
3
2
2
2
0
2
0
2
4
4
2
6
3
2
4
0
1
3
3
1
3
4
1
2
3
1
4
3
3
0
3
1
2
2
1
1
1
3
1
1
1
1
1
1
2
1
1
1
1
2
1
0
0
1
1
3
0
0
0
0
0
0
1
0
0
1
2
0
3
1
2
0
0
1
0
0
0
3
3
0
1
2
1
0
2
2
0
1
1
1
1
0
2
1
1
0
0
5
4
1
2
0
1
0
1
1
2
2
2
0
2
0
0
2
3
0
2
0
0
3
4
0
1
0
0
1
1
1
2
1
1
1
1
1
0
2
1
0
6
2
0
1
1
1
1
1
0
0
0
1
0
0
0
0
0
1
0
1
0
0
0
0
0
0
0
0
0
0
0
0
0
0
0
0
0
0
0
0
0
0
0
0
0
0
0
0
1
0
0
0
0
0
0
0
0
0
0
0
0
0
0
0
0
0
0
0
0
0
0
1
0
0
0
0
0
0
0
0
1
0
0
0
0
0
0
0
0
0
0
0
0
0
0
0
0
0
0
0
0
0
0
0
0
0
0
0
0
0
0
0
0
0
0
1
0
0
0
0
0
0
0
0
0
0
0
0
0
0
0
0
0
0
0
0
0
0
0
0
0
0
0
0
0
0
1
0
0
0
0
0
0
0
0
0
0
0
0
0
0
0
0
0
0
0
0
0
0
0
0
0
0
0
0
0
0
0
0
0
0
0
0
0
0
0
0
0
0
0
0
0
0
0
0
0
0
0
0
0
0
0
1
0
0
0
1
0
0
0
0
0
0
0
0
0
0
0
0
0
0
0
0
0
0
1
0
0
0
0
0
0
0
0
0
0
0
0
0
0
0
0
0
0
0
0
0
0
0
0
0
0
0
0
0
0
0
0
0
0
0
1
0
0
0
0
0
0
0
0
0
0
0
0
0
1
0
0
0
0
1
0
0
0
0
0
0
0
0
0
0
0
0
0
0
0
0
0
0
0
0
0
0
0
0
0
0
1
0
0
0
0
0
0
0
0
0
0
0
0
0
0
0
0
0
0
0
0
0
0
0
0
0
0
0
0
0
0
1
0
0
1
0
0
0
0
0
0
0
0
0
0
1
0
0
1
0
0
0
0
0
0
0
0
0
0
0
1
0
0
0
0
0
0
0
0
0
0
0
0
0
0
0
1
0
0
0
0
0
0
0
0
0
0
0
0
1
0
0
0
1
0
0
0
0
0
0
0
1
0
0
0
0
0
0
0
0
0
0
1
0
0
0
0
0
1
0
0
0
0
0
0
0
0
0
0
0
0
0
0
0
1
0
0
1
0
0
0
1
0
0
0
1
0
1
0
0
0
0
0
0
0
0
0
0
0
0
0
0
0
0
0
0
0
0
0
0
0
0
0
0
0
0
0
0
0
0
0
0
1
0
0
0
0
0
0
0
0
0
0
0
0
0
0
0
0
0
0
0
0
0
0
0
0
0
0
0
0
0
0
0
0
0
0
0
0
0
0
0
0
0
0
0
0
0
0
0
0
0
0
0
0
0
0
0
0
0
0
0
0
0
0
0
0
0
0
0
0
0
0
0
0
0
0
0
0
0
0
0
0
0
0
0
0
0
0
0
0
0
0
0
0
0
0
0
0
0
0
0
0
0
0
0
0
0
0
0
0
0
0
0
0
0
0
0
0
0
0
0
0
0
1
0
0
0
0
0
0
0
0
0
0
0
0
0
0
0
0
1
0
0
0
0
0
0
0
0
0
0
0
0
0
0
0
0
0
0
1
0
0
0
0
0
0
0
1
0
0
0
0
0
0
0
0
1
0
0
0
0
0
0
0
0
0
0
0
0
0
0
0
0
0
0
0
1
0
0
0
0
0
0
0
1
0
0
0
0
0
0
1
0
0
0
0
0
0
0
0
0
0
0
0
0
0
0
0
0
0
0
0
0
0
0
0
0
0
0
0
0
0
0
0
0
0
0
0
0
0
0
0
0
0
0
0
0
0
0
0
0
0
0
0
0
0
0
0
0
0
0
0
0
0
0
0
0
0
0
0
0
0
1
0
0
0
0
0
0
1
0
0
0
0
0
0
0
0
0
0
0
0
0
1
0
0
0
0
0
1
0
0
0
0
0
0
0
0
0
0
0
1
0
0
0
0
0
0
0
0
0
0
0
0
0
0
0
1
0
0
0
0
0
0
0
0
0
0
0
0
0
0
1
0
0
0
0
0
0
0
0
0
0
0
0
0
0
1
0
0
0
0
0
1
0
0
0
0
0
0
0
0
0
0
0
0
0
0
0
0
0
0
0
0
0
0
0
0
0
0
0
0
0
0
0
0
0
0
0
0
0
0
0
0
0
0
0
0
0
0
0
0
0
0
0
0
0
0
0
0
0
0
0
0
0
0
1
0
0
0
1
0
0
0
0
0
0
0
0
0
0
0
0
0
0
0
0
0
0
0
0
0
0
0
0
0
0
0
0
0
0
0
0
0
0
0
0
0
0
0
0
0
0
0
0
0
0
0
0
0
0
0
0
0
0
0
0
0
0
0
0
1
0
0
0
0
0
0
0
0
0
0
0
0
0
0
0
0
0
0
0
0
0
0
0
0
0
0
0
0
0
0
0
0
0
0
0
0
0
0
0
0
0
0
0
0
0
0
0
0
1
0
1
0
0
0
0
0
0
0
0
0
0
0
0
0
0
0
0
0
0
0
0
0
0
0
0
0
0
0
0
0
0
0
0
0
0
0
0
0
1
0
0
0
0
0
0
0
0
0
0
0
0
0
0
0
0
0
0
0
0
0
0
0
0
0
0
0
0
0
0
1
0
0
0
0
0
0
0
0
0
0
0
0
0
0
0
0
0
0
0
0
0
0
0
0
0
0
0
0
0
0
0
0
0
0
0
0
0
0
0
0
0
0
0
0
0
0
0
1
0
0
0
0
0
0
0
0
0
0
0
0
0
0
0
0
0
0
0
0
0
0
0
0
0
0
0
0
0
0
0
0
0
0
0
0
0
0
0
0
0
1
0
0
0
0
0
0
0
0
0
0
0
0
0
0
0
0
0
0
0
0
0
0
0
0
0
0
1
0
0
0
0
0
0
1
0
0
0
0
0
0
0
0
0
0
0
0
0
0
0
1
0
0
0
0
0
0
0
0
0
0
0
0
0
1
0
0
0
0
0
0
0
0
0
0
0
0
0
0
0
0
0
0
0
0
0
0
0
0
0
0
0
0
1
0
0
0
0
0
0
0
0
0
0
0
0
0
0
0
0
0
0
0
0
0
0
0
0
0
1
0
0
0
0
0
0
1
0
0
1
1
0
0
0
0
0
0
1
0
0
0
0
0
0
0
0
0
0
0
0
1
0
0
0
0
0
0
0
0
0
0
2
0
1
0
0
0
0
0
0
0
0
0
0
0
0
0
0
0
0
0
0
0
0
0
0
0
0
0
0
0
0
0
0
0
0
0
0
0
1
0
0
0
0
0
0
0
0
0
0
0
0
0
1
0
0
0
0
0
0
0
0
0
0
0
0
1
0
0
0
0
0
0
0
0
0
0
0
0
0
0
1
0
0
0
0
0
1
0
0
0
0
0
0
0
0
0
0
0
0
0
0
0
0
1
0
0
0
0
0
0
0
0
0
0
0
0
0
0
1
0
0
0
0
0
0
0
0
0
0
0
0
0
0
0
0
0
0
1
0
1
0
0
0
0
0
0
0
0
0
0
0
0
0
0
0
0
0
0
0
0
0
0
1
0
0
1
0
0
0
0
0
0
0
0
0
0
0
0
0
0
0
0
0
0
0
0
0
0
0
0
1
0
0
0
0
0
0
0
0
0
0
0
0
0
0
0
0
0
0
0
0
0
0
0
0
0
0
0
0
0
0
1
0
0
0
0
0
0
0
0
1
0
0
0
0
0
0
0
0
0
0
0
0
0
0
0
0
0
0
0
0
0
0
1
0
0
0
0
0
0
0
0
0
0
0
0
0
0
0
0
0
0
0
0
0
0
0
0
0
0
0
1
0
0
0
0
0
0
1
0
0
0
0
0
0
0
0
0
1
0
0
0
0
0
0
0
0
1
0
0
0
0
0
0
0
0
0
0
0
0
0
0
0
0
0
0
0
0
0
0
0
0
0
0
0
0
0
0
0
0
0
0
0
0
0
0
0
0
0
0
0
0
0
0
0
0
0
0
0
0
0
0
0
0
0
0
0
0
0
0
0
0
0
0
0
0
0
0
0
0
0
0
0
0
0
1
0
0
0
0
0
0
0
0
0
0
0
0
1
0
0
0
0
0
0
0
0
0
0
0
0
0
0
0
0
0
0
0
0
0
0
0
0
0
0
0
0
0
0
0
1
0
0
0
0
0
0
0
1
0
0
0
0
0
0
0
0
0
0
0
0
0
0
0
0
0
0
0
0
0
0
0
0
0
0
0
0
0
0
0
0
0
0
0
1
0
1
0
0
0
0
0
1
0
2
0
0
0
0
0
0
0
1
0
0
0
0
1
0
0
0
0
0
0
0
0
0
0
0
0
0
0
0
0
0
0
0
0
0
0
0
0
0
0
0
0
0
0
0
0
0
0
0
1
0
0
0
0
0
0
0
0
0
0
0
0
0
0
0
0
0
0
0
0
0
0
0
0
1
0
0
0
0
0
0
0
0
0
0
0
0
0
0
0
0
0
0
0
0
0
0
0
0
0
0
0
0
0
0
0
0
0
0
0
0
0
0
0
1
0
0
0
0
0
0
0
0
0
0
0
0
0
0
0
0
0
0
0
0
0
0
0
0
0
0
0
0
0
0
0
0
0
0
0
0
0
0
0
0
0
0
0
0
0
0
0
0
0
0
0
0
0
0
0
0
0
0
0
0
0
0
0
0
1
0
0
0
0
0
0
0
0
0
0
0
0
0
0
0
0
0
0
0
0
0
0
0
0
0
0
0
0
0
0
0
0
0
0
0
0
0
0
0
0
0
0
0
1
0
0
0
0
0
0
0
0
0
1
0
0
0
0
0
0
0
0
0
0
0
0
0
0
0
0
0
0
0
0
0
0
0
0
0
0
0
1
0
0
0
0
0
0
0
0
0
0
0
0
0
0
0
0
0
0
1
0
1
0
0
0
0
0
0
0
0
0
0
0
0
0
0
0
0
0
0
0
0
0
0
0
0
0
1
0
1
0
0
0
0
0
0
0
0
0
0
0
0
0
0
0
0
0
0
0
0
0
0
0
0
1
0
0
0
0
0
1
0
0
0
0
0
0
0
0
0
0
0
0
0
0
0
0
0
0
0
0
0
0
0
0
0
0
0
0
0
0
0
0
0
0
0
0
0
0
0
0
0
0
0
2
0
0
0
0
1
0
0
0
0
0
0
0
0
1
0
0
0
0
0
0
0
0
0
0
0
0
0
0
0
0
0
0
0
0
0
0
0
0
0
0
0
0
0
0
0
0
0
0
0
0
0
0
0
0
0
0
0
0
0
0
0
0
0
0
0
0
0
0
0
0
0
0
0
0
0
0
0
0
0
0
0
0
0
0
0
0
0
0
0
0
0
0
0
0
0
0
0
0
0
0
0
0
0
0
0
0
0
0
0
0
0
0
0
0
0
0
0
0
0
0
2
0
0
0
1
0
0
0
0
0
0
0
0
0
0
0
0
0
0
0
0
0
0
0
0
0
0
0
0
1
0
0
0
0
0
0
0
0
0
0
0
0
0
0
0
1
0
0
0
0
0
0
0
0
0
0
0
0
0
0
0
0
0
0
0
0
0
0
0
0
0
0
0
0
0
0
0
0
0
0
0
0
0
0
0
0
0
0
0
0
0
0
0
0
0
0
0
0
0
0
0
0
0
0
0
0
0
0
0
0
0
0
0
0
0
0
0
0
0
0
0
0
0
0
0
0
0
0
0
0
0
0
0
0
0
0
0
0
0
0
0
0
0
0
0
0
0
0
0
0
0
0
0
0
0
0
0
0
0
0
0
0
0
0
0
0
0
0
0
0
0
0
0
0
0
0
0
0
0
0
0
0
0
0
0
0
0
0
0
0
0
0
0
0
0
0
1
0
0
0
0
0
0
0
0
0
0
0
0
0
0
0
0
0
0
0
0
0
0
0
0
0
0
0
0
0
0
0
0
0
0
0
0
0
0
0
0
0
1
0
0
0
0
0
0
0
0
0
0
0
0
0
0
0
0
0
0
0
0
0
0
0
0
0
0
0
0
0
0
0
0
0
0
0
0
0
0
0
0
0
1
0
0
0
0
0
0
0
0
0
0
0
0
0
0
0
0
0
0
0
0
0
0
0
0
0
0
0
0
0
0
0
0
0
0
0
0
0
0
0
0
0
0
0
0
0
0
0
0
0
0
0
0
0
0
0
0
0
0
0
0
0
0
0
0
0
0
0
0
0
0
1
0
0
0
0
0
0
0
0
0
0
0
0
0
0
0
0
0
0
0
0
0
0
0
0
0
0
0
0
0
0
0
0
0
0
0
0
0
0
0
0
0
0
0
0
0
0
0
0
0
0
0
0
0
0
0
0
0
0
0
0
0
0
0
0
0
0
0
0
0
0
0
0
0
0
0
0
0
0
0
0
0
0
0
0
0
0
0
0
0
0
0
0
0
0
0
0
0
0
0
0
0
0
0
0
0
0
0
0
0
0
0
0
0
0
0
0
0
0
0
0
0
0
0
0
0
0
0
0
0
0
0
0
0
0
0
0
0
0
0
0
0
0
0
0
1
0
0
0
0
0
0
0
0
0
0
0
0
0
0
0
0
0
1
0
0
0
0
0
0
0
0
0
0
0
0
0
0
0
0
0
0
0
0
0
0
0
0
0
0
0
0
0
0
0
0
0
0
0
0
0
0
0
0
0
0
0
0
0
0
0
0
0
0
0
0
0
0
0
0
0
0
0
0
0
0
0
0
0
0
0
0
0
0
1
0
0
0
0
0
0
0
0
0
0
0
0
0
0
0
0
0
0
0
0
0
0
0
0
0
0
0
0
0
0
0
0
0
0
0
0
0
0
0
0
0
0
0
0
0
0
0
0
0
0
0
0
0
0
0
0
0
0
0
0
0
0
0
0
0
0
0
0
0
0
0
0
0
0
0
0
0
0
0
0
0
0
0
0
0
0
0
0
0
0
0
0
0
1
0
0
0
0
0
0
0
0
0
0
0
0
0
0
0
0
0
0
0
0
0
0
0
0
0
0
0
0
0
0
0
0
0
0
0
0
0
0
0
0
0
0
0
0
0
0
0
0
0
0
0
0
0
1
0
0
1
0
0
0
0
0
0
0
0
0
0
0
0
0
0
0
0
0
0
0
0
0
0
0
0
0
0
0
0
0
0
0
0
0
0
0
0
0
0
0
0
0
0
0
1
0
0
0
0
0
0
0
0
0
0
0
0
0
0
0
0
0
0
0
0
0
0
0
0
0
0
0
0
0
0
0
0
0
0
0
0
0
0
1
0
0
0
0
0
0
0
0
0
0
0
0
0
0
0
0
0
0
0
0
0
0
0
0
0
0
0
0
0
0
0
0
0
0
0
0
0
0
0
0
0
0
0
1
0
0
0
0
0
0
0
0
1
0
0
0
0
0
0
0
0
0
0
0
0
0
0
0
0
0
0
0
0
0
0
0
0
0
1
0
0
0
0
0
0
0
0
0
0
0
0
0
0
0
0
0
0
0
0
0
0
0
0
0
0
0
0
0
0
0
0
0
0
0
0
0
0
0
0
0
0
0
0
0
0
0
0
0
0
0
0
0
0
0
0
0
0
0
0
0
0
0
0
0
0
0
0
0
0
0
0
0
0
1
0
0
0
0
0
0
0
0
0
0
0
0
0
0
0
0
0
0
0
0
0
0
0
0
0
0
0
0
0
0
0
0
0
0
0
0
0
0
0
0
0
0
0
0
0
0
0
0
0
0
0
0
0
0
0
0
0
0
0
0
0
0
0
0
0
0
0
0
0
0
0
0
0
0
0
0
0
0
0
0
0
0
0
0
0
0
0
0
0
0
0
0
0
0
0
0
0
0
0
0
0
0
0
0
0
0
0
0
0
0
0
0
0
0
0
0
0
0
0
0
0
0
0
1
0
0
0
0
0
0
0
0
0
0
0
0
0
0
0
0
0
0
0
0
0
0
0
0
0
0
0
0
0
0
0
0
0
0
0
0
0
0
0
0
0
0
0
0
0
0
0
0
0
0
0
0
0
0
0
0
0
0
0
0
0
0
0
0
0
0
0
0
0
0
0
0
0
0
0
0
0
0
0
0
0
0
0
0
0
0
0
0
0
0
0
0
0
0
0
0
0
0
0
0
0
0
0
0
0
0
0
0
0
0
0
0
0
1
0
0
0
0
0
0
0
0
0
0
0
0
0
0
0
0
0
0
0
0
0
0
0
0
0
0
0
0
0
0
0
0
0
1
0
0
0
0
0
0
0
0
1
0
0
0
0
0
0
0
0
0
0
0
0
0
0
0
0
0
0
0
0
0
0
0
0
0
0
0
0
1
0
0
1
0
0
0
0
0
0
0
0
0
0
0
0
0
0
0
0
0
0
0
0
0
0
0
0
0
0
0
0
0
0
0
0
0
0
0
0
0
0
0
0
0
0
0
0
0
0
0
0
0
0
0
0
0
0
0
0
0
0
0
0
0
0
0
0
0
0
0
0
0
0
0
0
0
0
0
0
0
0
0
0
0
0
0
0
0
0
0
0
0
0
0
0
0
0
0
0
0
0
0
0
0
0
0
0
0
0
0
0
0
0
0
0
0
0
0
0
0
0
0
0
0
0
0
0
0
0
0
0
0
0
0
0
0
0
0
0
0
0
0
0
0
0
0
0
0
0
0
0
0
0
0
0
0
0
0
0
0
0
0
0
0
0
0
0
0
0
0
0
0
0
0
0
0
0
0
0
0
0
0
0
0
0
0
0
0
0
0
0
0
0
0
0
0
0
0
0
0
0
0
0
0
0
0
0
0
0
0
0
0
0
0
0
0
0
0
0
0
0
0
1
0
0
0
0
0
0
0
0
0
0
0
0
0
0
0
0
0
0
0
0
0
0
0
0
0
0
0
0
0
0
0
0
0
0
0
0
0
0
0
0
0
0
0
0
0
0
0
0
0
0
0
0
0
0
0
0
0
0
0
0
0
0
0
0
0
0
0
0
0
0
0
0
0
0
1
0
0
0
0
0
0
0
0
0
0
0
0
0
0
0
0
0
0
0
0
0
0
0
0
0
0
0
0
0
0
0
0
0
0
0
0
1
0
0
0
0
0
0
0
0
0
0
0
0
0
0
0
0
0
1
0
1
0
0
0
0
0
0
0
0
0
0
0
0
0
0
0
0
0
0
0
0
0
0
0
0
0
0
0
0
0
0
0
0
0
0
0
0
0
0
0
0
0
0
0
0
0
0
0
0
0
0
0
0
0
0
0
0
0
0
0
0
0
0
0
0
0
0
0
0
0
0
0
1
0
0
0
0
0
0
0
0
0
0
0
0
0
0
0
0
0
0
0
0
0
0
0
0
0
0
0
0
0
0
0
0
0
0
0
0
0
0
0
0
0
0
0
0
0
0
0
0
0
0
0
0
0
0
0
0
0
0
0
0
0
0
0
0
0
0
0
0
0
0
0
0
0
0
0
0
0
0
0
0
0
0
0
0
0
0
0
0
0
0
0
0
0
0
0
0
0
0
0
0
0
0
0
0
0
0
0
0
0
0
0
0
0
0
0
0
0
0
0
0
0
0
0
0
0
1
0
0
0
0
0
0
0
0
0
0
0
0
0
0
0
0
0
0
0
0
0
0
0
0
0
0
0
0
0
0
0
0
0
0
0
0
1
0
0
0
0
0
0
0
0
0
0
0
0
0
0
0
1
0
0
0
0
0
0
0
0
0
0
0
0
0
0
0
0
0
0
0
0
0
0
0
0
0
0
0
0
0
0
0
0
0
0
0
0
0
0
0
0
0
0
0
0
0
0
0
0
0
0
0
1
0
0
0
0
0
0
0
0
0
0
0
0
0
0
0
0
0
0
0
0
0
0
0
0
0
1
2
3
5
4
1
2
1
1
2
2
1
5
0
4
3
2
3
0
0
2
3
3
0
7
1
1
3
4
1
0
2
1
1
3
0
3
1
3
1
1
4
1
2
2
0
0
1
3
3
3
0
2
2
2
4
3
1
1
3
3
2
1
3
1
3
5
1
1
1
1
4
0
1
2
4
1
2
3
1
4
1
2
2
4
2
0
2
2
1
4
3
1
1
1
2
3
2
2
1
2
2
2
3
2
0
0
3
1
4
1
0
7
1
1
5
1
1
1
1
5
3
1
1
3
3
0
3
0
