0
0
0
0
0
0
0
0
0
0
0
0
0
0
0
0
0
0
0
0
0
0
0
0
0
0
0
0
0
0
0
0
0
0
0
0
0
0
0
0
0
0
0
0
0
0
0
0
0
0
0
0
0
0
0
0
0
0
0
0
0
0
0
0
0
0
0
0
0
0
0
0
0
0
0
0
0
0
0
0
0
0
0
0
0
0
0
0
0
0
0
0
0
0
0
0
0
0
0
0
0
0
0
0
0
0
0
0
0
0
0
0
0
0
0
0
0
0
0
0
0
0
0
0
0
0
0
0
0
0
0
0
0
0
0
0
0
0
0
0
0
0
0
0
0
0
0
0
0
0
0
0
0
0
0
0
0
0
0
0
0
0
0
0
0
0
0
0
0
0
0
0
0
0
0
0
0
0
0
0
0
0
0
0
0
0
0
0
0
0
0
0
0
0
0
0
0
0
0
0
0
0
0
0
0
0
0
0
0
0
0
0
0
0
0
0
0
0
0
0
0
0
0
0
0
0
0
0
0
0
0
0
0
0
0
0
0
0
0
0
0
0
0
0
0
0
0
0
0
0
0
0
0
0
0
0
0
0
0
0
0
0
0
0
0
0
0
0
0
0
0
0
0
0
0
0
0
0
0
0
0
0
0
0
0
0
0
0
0
0
0
0
0
0
0
0
0
0
0
0
0
0
0
0
0
0
0
0
0
0
0
0
0
0
0
0
0
0
0
0
0
0
0
0
0
0
0
0
0
0
0
0
0
0
0
0
0
0
0
0
0
0
0
0
0
0
0
0
0
0
0
0
0
0
0
0
0
0
0
0
0
0
0
0
0
0
0
0
0
0
0
0
0
0
0
0
0
0
0
0
0
0
0
0
0
0
0
0
0
0
0
0
0
0
0
0
0
0
0
0
0
0
0
0
0
0
0
0
0
0
0
0
0
0
0
0
0
0
0
0
0
0
0
0
0
0
0
0
0
0
0
0
0
0
0
0
0
0
0
0
0
0
0
0
0
0
0
0
0
0
0
0
0
1
31
33
16777402
16777368
16777355
16777348
16777336
16777322
16777326
16777360
16777314
16777345
16777349
16777329
16777344
16777334
16777309
16777331
16777332
16777329
16777339
16777351
16777357
16777334
16777324
16777351
16777317
16777331
16777319
16777338
16777309
16777335
16777335
16777317
16777330
16777330
16777309
16777298
16777315
16777314
16777307
16777304
16777326
16777315
16777328
16777293
16777314
16777324
16777320
16777322
16777316
16777313
16777331
16777338
16777297
16777307
16777294
16777324
16777333
16777340
16777342
16777312
16777340
16777341
16777311
16777365
16777299
16777383
16777333
16777326
16777323
16777300
16777299
16777357
16777327
16777299
16777303
16777309
16777347
16777306
16777343
16777329
16777322
16777328
16777303
16777321
16777336
16777315
16777344
16777336
16777319
16777344
16777335
16777298
16777316
16777297
16777310
16777327
16777311
16777335
16777323
16777298
16777322
16777331
16777326
16777292
16777331
16777320
16777328
16777303
16777346
16777308
16777348
16777379
16777312
16777309
16777362
16777317
16777280
16777301
16777354
16777306
16777317
16777346
16777366
16777322
16777296
16777338
16777335
16777327
16777305
16777340
16777330
16777343
16777351
16777329
16777350
16777317
16777301
16777340
16777323
16777338
16777317
16777336
16777330
16777308
16777366
16777292
16777339
16777318
16777294
16777359
16777383
16777330
16777312
16777337
16777346
16777379
16777342
16777317
16777359
16777340
16777385
16777365
16777332
16777349
16777365
16777365
16777360
16777377
16777340
16777339
16777310
16777389
16777346
16777350
16777318
16777343
16777348
16777307
16777360
16777322
16777343
16777373
16777361
16777376
16777339
16777341
16777354
16777380
16777354
16777329
16777328
16777334
16777383
16777309
16777380
16777396
16777358
16777398
16777349
16777352
16777357
16777348
16777359
16777393
16777348
16777343
16777372
16777376
16777360
16777364
16777373
16777383
16777355
16777362
16777360
16777371
16777383
16777383
16777402
16777360
16777352
16777390
16777426
16777365
16777384
16777400
16777344
16777386
16777385
16777394
16777393
16777384
16777402
16777362
16777388
16777415
16777364
16777403
16777379
16777364
16777358
16777407
16777369
16777350
16777390
16777375
16777363
16777367
16777385
16777376
16777398
16777392
16777392
16777401
16777363
16777369
16777374
16777378
16777376
16777433
16777399
16777376
16777418
16777396
16777429
16777398
16777376
16777423
16777396
16777403
16777389
16777429
16777390
16777416
16777415
16777434
16777403
16777442
16777443
16777434
16777431
16777437
16777367
16777416
16777462
16777413
16777422
16777378
16777380
16777434
16777383
16777350
16777434
16777398
16777419
16777379
16777390
16777434
16777366
16777394
16777429
16777388
16777399
16777389
16777435
16777397
16777395
16777369
16777384
16777412
16777382
16777401
16777394
16777406
16777405
16777382
16777378
16777369
16777359
16777383
16777354
16777400
16777336
16777387
16777341
16777339
16777394
16777340
16777388
16777392
16777354
16777348
16777329
16777331
16777369
16777356
16777330
16777350
16777358
16777360
16777350
16777353
16777319
16777309
16777352
16777338
16777329
16777362
16777299
16777327
16777341
16777359
16777320
16777293
16777316
16777302
16777299
16777312
16777338
16777318
16777330
16777276
16777269
16777316
16777296
16777307
16777291
16777295
16777295
16777272
16777302
16777283
16777268
16777302
16777263
16777278
16777272
16777310
16777295
16777268
16777262
16777290
16777252
16777272
16777246
16777277
16777268
16777259
16777244
16777270
16777261
16777275
16777290
16777256
16777262
16777294
16777250
16777269
16777249
16777313
16777249
16777232
16777232
16777242
16777278
16777257
16777228
16777277
16777260
16777223
16777246
16777242
16777242
16777250
16777258
16777260
16777263
16777240
16777255
16777251
16777279
16777237
16777266
16777256
16777256
16777239
16777263
16777248
16777230
16777243
16777222
16777234
16777248
16777466
20
16777470
60
16777228
16777244
16777457
25
16777466
245
35
16777227
16777224
16777243
16777466
11
16777459
250
13
16777246
16777246
16777241
16777463
11
16777223
16777222
16777224
16777219
16777222
16777235
16777232
16777258
16777243
16777219
16777233
16777241
16777234
16777229
16777230
16777467
23
16777256
16777245
16777238
16777242
16777285
16777247
16777239
16777246
16777269
16777254
16777251
16777301
16777307
16777293
16777286
16777304
16777311
16777286
16777323
16777288
16777330
16777319
16777330
16777308
16777355
16777354
16777359
16777353
16777357
16777359
16777354
16777386
16777408
16777390
16777397
16777428
16777429
16777413
16777441
16777421
16777417
16777367
16777459
16777464
16777436
16777454
16777436
16777453
16777451
16777460
16777453
16777463
16777456
16777462
16777449
16777244
33554684
16777242
33554454
33554664
16777230
33554449
33554659
16777246
33554460
33554661
16777450
16777468
16777253
33554441
33554438
33554673
16777468
16777440
16777220
33554669
16777433
16777469
16777454
16777465
16777443
16777438
16777434
16777430
16777416
16777399
16777431
16777391
16777427
16777445
16777409
16777387
16777380
16777333
16777358
16777380
16777330
16777365
16777371
16777345
16777360
16777333
16777347
16777331
16777310
16777306
16777311
16777321
16777318
16777305
16777258
16777274
16777268
16777262
16777279
16777247
16777270
16777265
16777312
16777223
16777248
16777459
247
11
16777234
16777253
16777236
16777233
16777227
16777224
16777251
16777226
16777466
252
235
240
20
16777216
16777234
16777229
16777262
16777456
28
16777232
16777229
16777266
16777224
16777249
16777468
251
47
16777237
16777241
16777271
16777238
16777256
16777282
16777245
16777274
16777248
16777266
16777266
16777255
16777259
16777278
16777287
16777249
16777285
16777282
16777327
16777299
16777286
16777291
16777283
16777294
16777295
16777279
16777321
16777367
16777293
16777299
16777355
16777368
16777332
16777356
16777324
16777320
16777366
16777349
16777371
16777337
16777320
16777369
16777348
16777336
16777353
16777361
16777339
16777390
16777352
16777334
16777332
16777289
16777360
16777332
16777366
16777340
16777343
16777354
16777341
16777379
16777336
16777331
16777334
16777303
16777345
16777348
16777329
16777296
16777309
16777309
16777301
16777290
16777324
16777268
16777307
16777334
16777296
16777292
16777262
16777256
16777288
16777303
16777266
16777230
16777246
16777271
16777469
31
16777257
16777216
16777246
16777233
16777224
16777443
231
210
207
235
13
16777441
221
227
229
1
16777449
193
197
182
202
181
185
181
165
165
198
172
139
174
187
158
118
156
152
144
154
136
140
131
133
107
133
130
114
127
127
114
103
112
101
120
97
95
107
97
100
100
87
100
85
78
80
83
67
75
85
84
82
77
75
66
74
86
58
59
57
51
53
58
60
58
65
72
44
52
46
60
53
57
63
60
51
44
61
56
39
42
39
41
45
56
51
43
41
34
52
39
44
50
38
37
50
50
34
33
25
35
52
51
36
42
33
32
34
55
33
52
38
36
31
45
48
39
41
32
44
29
45
37
30
36
29
36
33
27
37
39
34
31
34
31
25
27
33
36
25
31
27
32
23
41
32
34
21
41
33
34
33
37
27
27
30
28
25
30
33
23
22
28
33
26
30
21
32
24
39
28
37
24
19
35
26
34
33
20
32
40
31
27
34
27
34
36
23
26
33
29
28
26
22
18
26
23
24
30
32
25
23
17
29
18
24
25
28
27
34
28
22
26
22
21
27
28
19
23
23
21
30
29
22
20
20
35
20
24
34
25
27
26
20
20
20
25
25
19
18
19
17
20
32
21
16
27
15
15
23
17
23
17
26
11
21
21
24
24
19
16
24
13
13
19
24
21
14
16
21
15
20
15
12
17
23
25
11
21
17
22
25
24
19
14
19
23
28
19
17
15
21
12
22
18
22
17
14
17
24
11
15
17
24
21
21
20
23
19
15
13
18
13
9
15
20
13
15
16
21
15
17
18
17
29
12
20
23
18
16
9
12
12
13
18
16
22
16
20
18
22
18
26
24
13
13
21
18
20
17
21
18
16
22
20
16
25
12
19
19
15
14
9
17
22
18
15
18
19
17
23
16
18
26
19
21
18
17
12
15
21
12
11
16
15
19
21
18
13
16
18
21
18
13
21
15
14
9
25
14
16
20
9
15
26
34
20
15
14
15
16
17
8
11
22
18
15
23
24
10
21
18
13
15
17
13
20
14
22
20
13
18
19
16
16
13
23
14
17
20
15
16
16
19
16
10
10
9
12
12
15
21
16
12
14
7
17
18
14
17
16
14
17
14
28
24
13
13
20
17
12
8
13
14
12
15
16
14
18
13
15
16
20
12
20
13
19
9
19
13
19
13
20
13
14
12
18
21
11
11
15
14
9
9
9
14
10
13
12
11
10
11
19
15
15
11
12
15
15
12
11
12
14
17
15
14
14
13
16
15
9
13
12
13
16
18
14
15
18
15
13
13
21
16
14
18
17
11
7
19
23
19
12
12
11
14
19
8
15
21
13
20
12
11
13
21
12
8
15
17
17
11
18
13
20
13
16
19
17
17
13
13
18
17
12
11
10
18
12
15
21
23
12
16
11
13
12
19
23
8
15
8
13
11
14
18
5
9
16
15
14
14
12
11
10
14
16
10
16
11
10
14
18
7
12
11
21
13
12
10
13
11
12
12
11
16
16
18
15
23
12
6
10
12
13
14
14
13
15
14
12
14
12
16
5
15
25
18
13
14
12
13
13
16
15
14
10
18
13
15
8
11
18
11
14
15
13
16
12
14
15
13
8
14
18
10
11
10
10
14
18
6
18
15
17
14
15
13
11
11
18
13
17
15
17
17
15
16
7
13
12
16
13
19
14
19
14
9
17
10
18
16
5
14
12
11
20
26
22
16
12
17
15
14
15
9
14
15
19
10
14
13
16
15
6
20
9
18
10
12
7
12
12
16
10
16
15
12
12
9
14
7
17
11
14
15
10
14
12
16
17
15
10
11
18
12
13
12
11
11
10
15
10
10
15
6
10
9
13
14
13
15
11
7
12
11
11
15
10
13
11
19
15
17
11
14
9
12
15
9
7
16
10
12
9
9
12
9
8
7
6
12
12
11
13
9
6
13
18
8
13
8
12
11
6
12
11
13
14
8
10
10
10
12
15
8
14
10
13
15
10
15
17
16
10
8
9
6
11
14
13
5
12
6
12
14
9
7
11
7
8
7
6
5
6
9
12
13
11
12
9
15
7
14
12
6
9
4
7
17
11
12
14
7
4
10
7
7
10
7
8
6
6
11
9
8
10
16
14
6
7
18
11
14
7
14
12
4
5
5
10
8
8
9
13
10
7
16
9
5
10
16
8
12
9
8
19
14
11
17
8
4
5
6
11
11
12
11
9
6
14
8
7
10
10
12
10
17
14
7
9
9
6
12
18
13
10
19
6
7
13
4
18
7
14
12
12
12
4
10
12
8
9
5
9
12
13
11
16
9
13
9
8
6
16
15
8
18
13
12
8
10
13
15
10
8
8
11
5
10
9
14
7
17
11
4
10
13
16
13
8
7
12
7
8
9
10
11
12
4
17
8
6
6
19
10
13
6
9
12
9
7
11
8
10
8
7
9
7
12
9
11
14
17
6
11
11
7
9
11
4
7
9
6
12
10
10
8
10
11
11
12
5
9
13
9
10
14
10
11
5
12
9
6
3
10
5
10
9
7
7
6
6
11
9
5
6
5
7
6
14
12
7
11
9
12
8
6
7
11
5
6
8
6
8
4
6
10
7
8
8
10
12
9
6
8
11
1
8
8
11
6
9
5
15
12
10
12
11
12
6
8
11
9
6
7
7
12
10
9
10
5
6
8
11
6
11
14
10
9
7
15
9
4
5
6
8
8
10
3
8
9
9
6
2
11
8
11
10
8
9
10
7
9
9
4
6
8
9
5
7
10
7
10
11
8
3
7
9
11
2
11
8
10
10
7
4
13
6
9
6
8
9
9
6
12
4
5
7
9
7
12
7
8
2
2
5
9
9
12
11
6
8
9
6
11
5
7
7
8
9
8
5
4
14
2
8
4
8
4
8
4
10
9
10
10
8
9
5
13
7
14
10
7
8
9
8
8
8
10
9
7
5
11
3
12
8
11
5
11
8
4
8
4
6
9
7
7
5
12
8
4
10
7
10
8
7
5
9
7
7
6
7
8
8
4
10
3
5
4
6
4
8
5
7
8
11
9
5
6
6
9
5
5
12
3
4
10
7
4
12
9
8
6
9
6
11
3
7
10
7
5
10
4
5
6
6
4
9
8
9
1
13
6
5
10
7
9
12
6
6
6
4
11
4
7
2
4
4
3
6
4
2
8
7
8
10
8
11
5
12
12
6
4
7
8
7
4
6
5
10
10
7
4
7
7
8
5
5
4
7
5
10
11
7
8
9
4
5
8
6
10
6
6
4
7
7
8
1
10
8
5
4
7
8
15
7
9
6
7
5
7
4
9
9
11
6
8
9
6
5
5
5
2
6
6
6
6
3
5
8
3
6
5
3
7
4
6
4
12
6
11
13
7
5
9
1
13
7
7
2
7
2
5
6
7
3
4
10
5
6
7
8
7
11
10
10
5
7
20
9
8
5
6
10
5
8
9
9
3
3
5
4
4
9
6
5
11
9
10
3
10
5
3
8
5
4
11
5
2
13
6
8
8
4
10
9
9
5
2
6
8
4
3
2
5
7
9
9
3
8
3
9
8
6
4
6
7
8
2
1
4
6
7
5
8
6
6
6
3
6
9
8
7
13
7
8
3
3
2
6
5
6
7
7
5
4
9
6
7
6
6
3
4
4
12
4
8
9
5
7
6
7
5
5
8
5
7
10
6
6
8
10
4
5
6
8
4
7
7
7
13
5
9
7
2
2
10
5
8
5
12
3
6
7
10
4
11
2
8
10
8
5
6
5
10
8
7
4
5
6
6
5
5
10
12
6
6
9
3
9
6
4
5
6
5
4
14
6
9
7
7
10
7
3
13
16
4
6
9
2
4
4
7
8
1
8
6
5
3
4
4
6
10
12
7
2
5
10
4
7
8
11
7
4
5
6
3
2
2
9
6
3
10
8
3
1
8
8
5
6
7
11
5
11
9
7
6
9
8
6
7
5
6
4
7
6
8
11
8
8
6
6
5
8
8
8
14
8
6
5
8
9
4
8
5
6
4
7
5
5
7
4
1
7
7
6
7
6
6
2
7
8
3
9
8
7
6
8
6
11
11
4
12
6
5
6
4
7
12
5
7
6
4
3
8
4
6
4
2
7
6
7
10
6
9
11
11
14
6
10
8
3
8
8
3
11
3
6
3
6
7
9
10
9
6
8
3
9
7
9
8
6
6
8
10
5
6
6
10
7
13
4
7
2
7
11
6
10
5
6
7
6
7
4
9
2
7
7
6
6
12
7
5
6
9
5
9
2
7
6
10
6
9
12
12
8
5
2
8
10
4
3
5
9
10
6
1
8
5
3
6
9
4
6
6
7
14
6
9
8
1
7
7
4
6
7
5
2
6
7
3
10
7
4
3
8
7
5
1
10
8
7
6
5
6
8
4
9
9
6
6
5
6
5
8
4
9
12
3
9
9
6
2
3
6
6
7
6
7
9
7
8
8
8
8
6
6
5
6
10
9
1
8
6
2
9
7
5
3
8
7
5
6
8
6
5
6
5
6
4
7
4
3
6
7
4
7
9
4
3
9
7
6
8
11
3
2
5
4
8
5
7
8
5
6
5
7
8
8
13
7
5
4
6
8
5
8
5
7
8
10
6
2
7
7
11
3
2
3
4
9
4
9
4
4
5
6
12
4
6
4
6
4
4
6
6
7
4
5
10
11
10
3
2
5
5
6
8
7
6
7
3
6
5
5
8
11
6
9
4
5
9
4
6
1
5
4
7
6
10
7
8
7
7
5
10
7
9
6
2
5
5
6
6
6
3
12
2
4
3
5
7
7
9
7
8
7
6
7
11
8
7
9
5
6
1
6
5
5
5
9
10
7
9
6
8
6
8
4
5
8
8
5
3
6
5
5
7
7
7
2
4
4
5
7
10
7
3
4
5
5
4
2
7
4
3
11
7
7
7
6
4
6
10
4
7
8
7
5
7
3
9
3
4
3
3
4
7
6
8
4
6
8
3
2
10
8
3
4
1
6
4
11
7
7
11
2
5
12
8
5
5
8
6
6
6
5
6
7
3
4
3
5
3
5
5
3
10
6
6
6
5
10
7
6
12
6
11
3
3
4
7
4
13
6
4
6
10
4
4
5
5
8
9
9
5
7
4
7
4
5
4
7
4
2
10
3
9
6
4
9
6
10
6
9
9
6
12
6
4
5
3
7
6
8
7
6
10
2
9
4
10
5
6
7
8
5
8
9
8
6
8
15
9
9
4
9
8
7
5
6
4
9
8
5
11
0
4
9
8
7
5
2
8
5
3
6
7
4
5
10
11
8
6
3
6
3
7
8
6
5
6
5
3
11
9
7
6
5
9
5
4
6
8
6
12
9
6
8
6
5
10
5
9
8
3
3
11
2
7
8
9
2
7
9
4
5
5
5
4
5
4
9
7
9
5
6
10
7
6
5
6
8
7
7
4
5
2
7
5
4
4
12
6
2
9
8
7
4
3
4
9
5
9
10
6
6
6
8
6
11
6
9
7
7
8
5
7
5
9
3
5
4
9
8
4
7
2
1
11
7
11
5
3
8
3
6
8
8
7
9
8
4
6
6
4
5
9
6
9
5
2
7
9
3
5
7
6
10
12
5
2
8
4
5
10
6
6
13
10
13
8
5
5
5
7
4
6
5
11
7
2
9
10
8
5
4
8
8
8
4
8
7
6
11
4
10
9
13
7
10
5
8
10
7
8
7
8
3
11
4
7
7
9
5
9
3
8
6
8
7
4
5
7
5
12
10
4
5
4
7
6
5
2
5
6
7
10
6
6
4
3
7
5
14
10
11
10
6
9
7
4
8
4
6
11
6
6
9
8
7
7
10
10
6
7
7
11
5
4
6
5
4
12
6
5
8
10
10
6
7
8
4
5
7
4
13
8
7
8
3
7
10
3
11
6
7
3
5
4
4
5
11
4
10
3
4
9
7
7
7
5
7
8
10
10
7
8
7
7
3
4
5
9
8
10
5
6
4
3
6
8
11
4
5
5
9
4
10
4
8
11
4
9
7
7
7
10
4
4
7
7
6
7
3
8
6
8
12
5
4
6
7
6
5
11
6
9
9
13
3
5
8
11
5
12
8
9
9
8
10
8
7
8
10
3
3
17
7
13
9
10
8
4
7
6
9
6
6
11
6
8
9
8
2
9
6
13
10
4
8
3
6
5
7
7
9
8
5
12
10
13
8
10
3
5
7
9
10
11
5
6
13
11
13
4
6
7
10
5
4
4
8
4
9
15
7
11
12
5
6
4
6
4
7
8
11
7
6
10
4
8
9
12
7
6
7
10
6
5
11
5
7
14
2
13
9
6
4
10
7
7
9
4
6
13
10
7
10
4
8
9
12
6
17
7
7
8
7
8
7
9
4
14
11
6
4
12
6
8
12
8
6
5
11
10
9
6
6
10
7
7
7
5
7
10
4
9
6
9
6
11
8
5
4
5
13
5
10
13
11
8
6
11
11
8
10
6
10
12
9
9
6
6
16
6
4
5
11
9
10
7
9
14
10
10
12
13
11
7
1
8
3
11
10
7
13
9
4
9
12
8
14
15
3
6
3
12
8
11
6
11
8
5
7
10
10
6
10
14
7
18
10
5
7
9
12
10
19
10
4
11
15
7
7
15
5
9
17
5
7
12
13
10
7
14
11
11
12
10
15
12
8
12
11
9
8
12
7
8
12
7
8
11
11
11
9
11
9
14
7
6
6
12
8
12
7
9
8
16
10
9
14
14
7
13
11
13
7
10
17
16
21
7
19
8
19
13
3
8
9
15
9
12
14
7
11
8
13
13
7
10
9
6
14
6
14
6
10
14
16
11
15
15
11
12
15
15
20
9
8
13
14
14
10
10
8
10
13
8
16
18
10
8
19
7
20
10
12
16
5
12
15
10
13
11
13
15
14
12
11
9
15
13
12
17
17
18
15
10
19
14
11
11
14
13
7
9
15
24
13
19
17
13
14
18
17
14
21
13
11
19
14
12
7
20
11
13
14
16
14
18
13
18
15
19
12
13
20
18
21
11
17
17
18
23
15
15
12
15
8
9
10
18
26
8
17
23
21
14
11
20
16
27
17
14
21
18
14
21
17
14
30
14
22
18
22
22
21
16
16
21
15
17
21
9
18
18
22
8
14
16
31
16
15
26
16
17
21
14
9
20
16
18
16
18
25
18
23
16
16
18
12
12
24
16
25
12
16
10
12
13
19
18
16
18
13
21
13
20
15
15
11
22
18
14
19
19
9
21
17
11
19
17
12
15
18
28
19
14
15
14
18
19
9
21
18
17
18
12
9
16
16
17
21
21
10
16
15
19
16
20
16
15
10
13
23
11
19
10
14
14
8
15
24
18
18
10
12
15
12
17
17
13
18
16
20
16
12
13
9
19
18
6
10
17
10
21
13
21
13
17
15
15
10
14
13
19
17
9
12
14
12
14
18
12
11
17
21
19
30
20
16
15
14
16
14
16
12
6
15
13
19
10
14
13
22
15
13
16
11
12
20
17
12
9
15
10
16
18
11
9
17
14
11
17
17
12
13
16
18
8
11
21
20
24
18
12
9
10
10
23
14
15
16
11
9
10
7
10
11
14
12
14
13
10
14
12
17
11
12
16
7
7
8
16
6
12
15
13
13
7
14
11
6
13
7
10
10
10
13
11
7
16
13
14
10
12
20
16
15
13
9
15
18
17
5
11
14
10
11
14
12
16
11
11
14
22
11
15
12
13
16
12
15
14
8
21
12
18
11
17
11
14
10
12
14
16
7
9
15
19
9
7
13
20
10
19
11
14
13
19
10
9
8
12
17
13
19
14
20
10
13
17
9
8
12
10
14
3
16
20
16
14
8
14
12
10
11
16
11
12
9
8
15
11
13
18
10
17
16
20
16
16
16
9
13
10
18
12
11
17
18
17
14
10
10
4
12
13
13
12
16
16
22
8
7
11
8
17
10
19
14
12
15
18
11
14
14
14
9
18
14
14
14
19
8
11
10
9
16
10
12
17
15
18
11
18
2
10
17
8
16
13
14
16
17
5
16
14
16
16
15
8
20
13
20
17
15
15
10
11
16
13
13
11
15
12
12
19
13
15
22
11
12
8
15
17
19
11
11
18
15
14
15
13
24
12
11
10
29
17
11
17
12
18
15
17
8
17
12
9
13
9
16
21
14
12
12
10
11
9
13
13
12
15
13
11
15
13
16
17
11
17
16
14
6
11
16
16
8
12
14
9
18
9
15
18
15
14
13
9
15
14
12
18
18
9
13
20
14
16
9
16
11
16
14
11
13
10
9
15
9
7
18
13
14
12
12
16
12
17
8
11
9
9
9
17
14
11
18
13
16
12
8
14
9
23
12
18
6
7
16
15
17
16
10
13
12
10
9
7
18
7
12
11
23
22
15
9
15
7
10
8
17
12
16
18
3
8
15
11
18
12
14
16
17
9
10
12
7
16
12
12
15
12
18
17
9
14
15
18
9
15
9
11
14
12
12
13
10
19
10
16
16
10
11
12
9
24
15
7
11
13
6
15
11
14
11
13
15
11
15
6
15
6
10
9
11
10
10
13
11
9
9
14
6
14
10
14
14
10
12
10
9
6
13
10
11
6
5
8
11
8
8
8
12
10
9
12
9
10
5
11
3
10
12
8
11
8
12
11
21
14
13
7
9
11
7
3
13
6
9
13
8
8
13
9
11
11
8
13
8
16
10
5
10
12
11
9
5
9
8
10
12
14
6
9
15
10
7
15
6
10
10
18
10
10
8
8
11
10
10
6
9
15
6
9
9
11
10
7
6
7
7
12
9
9
11
8
8
8
13
8
7
10
7
13
9
14
14
9
4
10
7
10
6
12
13
10
8
8
7
17
6
12
4
10
9
8
2
8
9
13
13
6
13
9
11
3
8
7
9
7
10
5
7
15
14
12
7
8
5
5
6
7
13
8
12
6
5
9
5
11
11
4
7
7
5
4
6
9
8
4
7
13
10
7
9
6
5
6
16
5
10
8
6
10
6
7
10
15
6
4
8
7
7
8
6
16
8
8
6
12
9
10
10
7
5
6
10
13
13
7
12
8
5
5
11
8
12
10
8
14
5
16
4
7
12
4
3
8
9
9
6
6
5
11
13
2
7
7
7
6
8
9
12
5
7
9
7
10
6
9
8
8
6
9
3
6
6
8
8
7
9
9
9
6
12
11
8
12
4
9
6
11
8
5
6
8
6
4
3
7
6
6
10
3
5
4
3
5
10
9
17
9
10
7
2
1
12
10
4
6
9
8
16
9
7
3
1
6
9
9
6
10
5
5
4
6
8
15
7
9
7
12
6
8
6
5
3
8
5
4
3
6
3
4
6
4
9
8
5
6
9
9
5
9
7
5
8
4
7
7
13
8
7
4
5
2
3
6
8
7
4
4
8
4
2
6
6
7
5
7
6
7
5
4
4
3
6
9
8
7
3
7
7
3
11
7
7
6
2
5
4
9
8
4
7
4
4
5
5
8
4
4
4
1
3
7
8
7
4
8
5
10
5
7
5
3
3
5
7
7
11
7
3
11
6
4
6
5
2
6
4
5
6
5
8
9
3
4
11
6
1
5
8
6
10
8
6
1
2
4
7
7
9
5
4
7
4
6
5
4
10
9
7
3
5
6
5
6
4
4
3
5
8
2
5
10
3
7
2
0
4
3
3
3
8
4
3
5
4
5
2
5
4
5
5
2
3
6
9
2
9
5
3
5
5
1
2
4
3
1
3
0
10
7
4
3
2
6
6
3
4
6
7
3
6
9
2
8
2
5
5
4
7
3
3
6
4
6
2
3
8
5
4
7
1
4
7
3
3
5
4
4
3
6
3
3
4
7
7
4
3
5
7
5
1
8
4
6
1
7
1
2
6
6
5
1
2
5
9
6
5
2
7
7
4
6
4
3
2
1
1
1
3
0
2
1
4
2
3
4
3
2
7
7
5
4
4
3
5
6
1
3
1
4
7
3
6
4
1
7
6
1
3
4
1
5
8
4
4
7
1
5
4
1
2
5
2
3
3
3
5
2
1
5
4
2
4
3
4
2
4
4
4
4
3
5
3
2
4
2
3
1
0
3
2
4
5
1
1
3
4
3
1
1
3
1
5
3
3
1
1
2
5
4
1
1
3
5
3
1
4
3
1
0
2
3
1
1
4
2
2
3
4
1
0
4
3
3
4
2
1
3
4
2
0
2
7
2
2
3
0
0
1
1
2
2
2
2
1
2
2
3
4
1
4
4
3
2
1
4
1
3
0
3
2
2
3
2
1
3
3
2
0
1
2
4
0
4
5
0
1
4
3
3
4
6
0
2
2
2
4
2
2
1
2
3
2
1
1
1
0
0
2
2
2
5
1
1
3
2
3
2
4
0
1
2
3
0
4
2
1
2
2
3
2
4
3
3
2
4
0
1
4
1
2
1
2
1
0
2
1
1
1
2
2
2
1
0
1
0
0
0
0
0
2
1
3
0
1
0
1
2
3
1
5
3
0
3
0
1
4
1
1
1
2
2
2
1
1
0
1
0
2
6
0
2
2
4
0
3
3
1
1
2
4
1
1
0
1
3
2
1
2
2
2
5
4
1
3
2
1
3
2
1
3
2
2
1
0
2
1
3
0
0
0
0
1
1
2
1
1
2
0
1
0
2
2
3
0
2
1
1
0
2
0
0
0
6
2
3
0
1
2
3
0
2
3
4
1
0
3
0
1
0
0
3
3
0
4
3
2
1
0
1
1
1
1
2
2
0
1
0
0
3
2
2
0
0
0
1
1
1
2
0
3
0
2
2
0
0
0
2
0
1
0
3
2
0
1
0
0
2
2
0
0
1
1
0
3
1
1
2
0
1
3
2
2
0
0
0
2
0
2
3
2
3
1
1
0
0
2
2
1
1
1
1
2
0
0
0
2
0
0
3
2
0
2
1
0
1
0
0
1
3
1
1
0
4
2
3
1
4
0
1
1
4
1
2
3
2
0
0
1
0
1
1
0
3
2
0
0
2
1
0
0
1
0
2
1
1
1
0
0
1
1
0
0
0
0
1
0
1
0
0
2
2
1
0
1
3
0
0
2
1
1
1
0
0
1
1
1
1
0
2
0
1
1
0
1
1
0
0
0
0
0
0
0
1
2
2
0
2
0
0
0
0
0
2
0
0
1
1
1
0
3
0
1
0
1
0
1
1
0
1
1
0
1
1
0
0
0
3
0
0
0
1
0
0
1
0
1
0
0
1
2
2
0
0
1
0
0
2
0
1
1
0
0
0
0
0
0
0
0
1
0
1
1
1
1
0
2
0
0
0
0
0
0
1
0
1
0
0
0
1
1
1
0
0
1
0
0
0
0
0
0
1
2
2
2
0
1
1
0
0
0
0
0
0
0
0
0
1
1
1
0
0
0
1
1
1
0
1
0
0
0
0
0
2
0
1
0
0
0
0
2
0
1
0
0
1
0
1
0
0
2
1
0
2
0
0
0
0
0
0
0
0
0
0
0
1
0
0
0
1
0
0
0
0
1
2
0
0
0
0
0
0
0
0
0
0
1
1
0
1
0
0
2
0
0
1
1
0
1
0
0
0
0
0
0
0
1
0
0
0
0
0
0
0
0
0
0
0
0
0
0
1
0
0
1
1
0
0
0
0
0
1
1
0
1
1
0
1
0
0
1
0
0
1
0
0
0
0
0
0
0
1
1
1
1
0
1
0
0
0
0
2
0
1
0
0
0
1
0
0
1
0
0
0
0
0
1
0
1
0
0
0
0
0
0
1
0
0
0
1
0
0
0
0
0
0
0
0
0
0
1
1
0
0
0
0
0
0
0
0
0
0
0
1
0
0
1
0
0
0
0
1
0
0
0
0
0
1
0
0
0
0
0
1
0
0
0
0
0
0
0
1
0
0
0
0
0
0
0
0
0
0
0
0
0
0
0
0
0
1
0
1
0
0
0
0
0
0
0
0
0
0
0
0
0
0
1
0
1
1
0
0
0
0
0
0
1
0
0
0
1
0
0
0
0
0
0
0
2
0
0
0
0
0
0
0
1
0
0
0
0
0
0
0
0
0
0
0
0
0
0
0
0
0
0
0
1
0
0
0
0
0
0
0
0
0
0
0
1
0
0
0
0
0
0
0
0
1
0
0
1
1
0
0
0
0
0
0
0
0
0
0
0
1
0
0
0
0
0
1
0
0
0
1
0
0
0
0
0
0
0
0
0
0
0
0
0
0
0
0
0
0
0
0
0
0
0
0
0
0
0
0
0
0
0
0
0
0
0
0
0
1
0
0
0
0
0
0
0
0
0
1
0
0
0
0
0
0
0
0
0
0
0
0
0
0
1
0
1
0
0
0
0
0
0
1
0
0
1
0
0
0
0
0
0
0
0
0
1
0
0
0
1
0
0
0
0
0
0
0
0
0
0
0
0
0
0
0
0
0
1
1
0
0
0
0
0
0
0
0
0
0
0
0
0
0
0
0
0
0
0
0
0
0
0
0
0
0
0
0
0
0
0
0
0
0
0
0
0
0
0
0
1
0
0
0
0
0
0
0
0
0
0
0
0
0
0
0
0
0
0
0
0
1
0
0
0
0
0
0
0
0
0
0
0
0
0
0
0
0
0
1
0
0
0
0
0
0
0
0
0
1
0
0
0
1
0
0
0
0
0
0
0
0
1
0
0
0
0
0
0
0
0
0
0
0
0
0
0
0
0
0
0
0
0
0
0
0
0
0
0
0
0
0
0
0
0
0
0
0
0
0
0
1
0
0
0
1
0
0
0
0
0
0
0
1
0
0
0
0
0
0
0
0
0
0
0
0
0
0
0
0
0
0
0
0
0
0
0
0
0
0
0
0
0
0
0
0
0
0
0
0
0
0
0
0
0
0
0
0
0
0
0
0
0
0
0
0
0
0
1
0
0
0
0
0
0
1
0
0
0
1
0
0
0
0
0
0
0
0
0
0
0
0
0
0
0
0
0
0
0
0
0
0
0
0
0
0
0
0
0
0
0
0
0
0
1
0
0
0
0
0
0
0
0
0
0
0
0
0
1
0
0
0
0
0
0
0
0
0
0
0
0
1
0
0
0
0
0
0
0
0
0
0
0
0
0
0
0
0
0
0
0
0
0
0
0
0
0
0
0
0
0
1
0
0
0
0
0
0
0
0
0
0
0
0
0
0
0
0
0
0
0
0
0
0
0
0
0
0
0
0
0
0
0
0
0
0
0
0
0
0
0
0
0
0
0
0
0
0
0
0
0
0
0
0
0
0
0
0
0
0
0
0
0
0
0
0
0
0
0
0
0
0
0
0
0
0
0
0
0
0
0
0
0
0
0
0
0
0
0
0
0
0
0
0
0
0
0
0
0
0
0
0
0
0
0
0
0
0
0
0
0
0
0
0
0
0
0
0
0
0
0
0
0
0
0
0
0
0
0
0
0
0
0
0
1
0
0
0
0
0
0
0
0
0
0
0
0
0
0
0
0
0
0
0
0
0
0
0
0
0
0
0
0
0
0
0
0
0
0
0
0
0
0
0
0
0
0
0
0
0
0
0
0
0
0
0
0
0
0
0
0
0
0
0
0
0
0
0
0
0
0
0
0
0
0
0
0
0
0
0
0
0
0
0
0
0
0
0
0
0
0
0
0
0
0
0
0
0
0
0
0
0
0
0
0
0
0
0
0
0
0
0
0
0
0
0
0
0
0
0
0
0
0
0
0
0
0
0
0
0
0
0
0
0
0
0
0
0
0
0
0
0
0
0
0
0
0
0
0
0
0
0
0
0
0
0
0
0
0
0
0
0
0
0
0
0
0
0
0
0
0
0
0
0
0
0
0
0
0
0
0
0
0
0
0
0
0
0
0
1
0
0
0
0
0
0
0
0
0
0
0
0
0
0
0
0
0
0
0
0
0
0
0
0
0
0
0
0
0
0
0
0
0
0
0
0
0
0
0
0
0
0
0
0
0
0
0
0
0
0
0
0
0
0
0
0
0
0
0
0
0
0
0
0
0
0
0
0
0
0
0
1
0
0
0
0
0
0
0
0
0
0
0
0
0
0
0
0
1
0
0
0
0
0
0
0
0
0
0
0
0
0
0
0
0
0
0
0
0
0
0
0
0
0
0
0
0
0
0
0
0
0
0
0
0
0
0
0
0
0
0
0
0
0
0
0
0
0
0
0
0
0
0
0
0
0
0
0
0
0
0
0
0
0
0
0
0
0
0
0
0
0
0
0
0
0
0
0
0
0
0
0
0
0
0
0
0
0
0
0
0
0
0
0
0
0
0
0
0
0
0
0
0
0
0
0
0
0
0
0
0
0
0
0
0
0
0
0
0
0
1
0
0
0
0
0
0
0
0
0
0
0
0
0
0
0
0
0
0
0
0
0
0
0
0
0
0
0
0
0
0
0
0
0
0
0
0
0
0
0
0
0
0
0
0
0
0
0
0
0
0
1
0
0
0
0
0
0
0
0
0
0
0
0
0
0
0
0
0
0
0
0
0
0
0
0
0
0
0
0
0
0
0
0
0
0
0
0
0
0
0
0
0
0
0
0
0
0
0
0
0
0
0
0
0
0
0
0
0
0
0
0
0
0
0
0
0
0
0
0
0
0
0
0
0
0
0
0
0
0
0
0
0
0
0
0
0
0
0
0
0
0
0
0
0
0
0
0
0
0
0
0
1
0
0
0
0
0
0
0
0
0
0
0
0
0
0
0
0
0
0
0
0
0
0
0
0
0
0
0
0
0
0
0
0
1
0
0
0
0
0
0
0
0
0
0
0
0
0
0
0
0
0
0
0
0
0
0
0
0
0
0
0
0
0
0
0
0
0
0
1
0
0
0
0
0
0
0
0
0
0
0
0
0
0
0
0
0
0
0
0
0
0
0
0
1
0
0
0
0
0
0
0
0
0
0
0
0
0
0
0
0
0
0
0
0
0
0
0
0
0
0
0
0
0
0
0
0
0
0
0
0
0
0
0
0
0
0
0
0
0
0
1
0
0
0
0
0
1
0
0
0
0
0
0
0
0
0
0
0
0
0
0
0
0
1
0
0
0
0
0
1
0
0
0
0
0
0
0
0
0
0
0
0
0
0
0
0
0
0
0
0
0
0
0
0
0
0
0
0
0
0
1
0
0
0
0
0
0
0
0
0
0
0
0
0
0
0
0
0
0
0
0
0
0
0
0
0
1
0
0
0
0
0
0
0
0
0
0
0
0
0
0
0
0
0
0
0
0
0
0
0
0
0
0
0
0
0
0
0
0
1
0
1
1
0
0
0
0
0
0
0
0
0
0
0
2
0
0
0
0
0
0
0
0
0
0
0
0
0
0
0
0
0
1
0
1
0
0
0
1
0
0
0
1
0
1
0
0
0
0
0
0
0
0
0
0
0
0
1
1
2
3
1
2
1
3
0
0
0
3
1
3
0
1
1
1
3
0
2
0
0
0
0
0
0
0
0
0
0
0
0
0
0
0
0
0
0
0
0
0
0
0
0
0
0
1
0
0
0
0
0
0
0
0
0
0
0
0
0
0
0
0
0
0
0
0
0
0
0
0
0
0
0
0
0
0
0
0
0
0
0
0
0
0
0
1
3
1
1
3
3
2
0
2
1
3
2
1
0
1
3
3
1
2
2
2
0
3
2
1
0
3
4
2
2
1
1
0
2
1
2
3
3
1
2
1
1
1
1
1
1
3
2
0
1
2
0
1
0
0
0
0
0
0
1
3
2
1
2
2
0
1
0
1
1
3
3
0
0
4
0
0
2
1
1
1
2
0
2
4
0
1
3
0
0
2
3
1
2
2
0
0
1
1
4
0
2
2
2
2
1
1
3
2
0
0
1
2
1
0
1
2
2
1
2
0
0
1
1
2
2
2
3
0
