0
0
0
0
0
0
0
0
0
0
0
0
0
0
0
0
0
0
0
0
0
0
0
0
0
0
0
0
0
0
0
0
0
0
0
0
0
0
0
0
0
0
0
0
0
0
0
0
0
0
0
0
0
0
0
0
0
0
0
0
0
0
0
0
0
0
0
0
0
0
0
0
0
0
0
0
0
0
0
0
0
0
0
0
0
0
0
0
0
0
0
0
0
0
0
0
0
0
0
0
0
0
0
0
0
0
0
0
0
0
0
0
0
0
0
0
0
0
0
0
0
0
0
0
0
0
0
0
0
0
0
0
0
0
0
0
0
0
0
0
0
0
0
0
0
0
0
0
0
0
0
0
0
0
0
0
0
0
0
0
0
0
0
0
0
0
0
0
0
0
0
0
0
0
0
0
0
0
0
0
0
0
0
0
0
0
0
0
0
0
0
0
0
0
0
0
0
0
0
0
0
0
0
0
0
0
0
0
0
0
0
0
0
0
0
0
0
0
0
0
0
0
0
0
0
0
0
0
0
0
0
0
0
0
0
0
0
0
0
0
0
0
0
0
0
0
0
0
0
0
0
0
0
0
0
0
0
0
0
0
0
0
0
0
0
0
0
0
0
0
0
0
0
0
0
0
0
0
0
0
0
0
0
0
0
0
0
0
0
0
0
0
0
0
0
0
0
0
0
0
0
0
0
0
0
0
0
0
0
0
0
0
0
0
0
0
0
0
0
0
0
0
0
0
0
0
0
0
0
0
0
0
0
0
0
0
0
0
0
0
0
0
0
0
0
0
0
0
0
0
0
0
0
0
0
0
0
0
0
0
0
0
0
0
0
0
0
0
0
0
0
0
0
0
0
0
0
0
0
0
0
0
0
0
0
0
0
0
0
0
0
0
0
0
0
0
0
0
0
0
0
0
0
0
0
0
0
0
0
0
0
0
0
0
0
0
0
0
0
0
0
0
0
0
0
0
0
0
0
0
0
0
0
0
0
0
0
0
0
0
0
0
0
0
0
0
0
0
2
1
5
5
8
23
72
16777445
67109083
67108908
83886093
83886090
83886173
83886082
83886124
83886117
83886329
67108873
83886195
83886140
83886189
83886108
83886170
83886164
83886171
83886184
83886160
83886219
83886254
83886170
83886225
83886172
83886266
83886251
83886274
83886283
83886289
83886304
83886085
100663328
100663547
83886290
83886298
83886120
100663360
100663345
100663442
100663370
100663324
100663381
100663322
100663384
100663393
100663379
100663384
100663440
100663501
100663454
100663323
100663301
100663328
100663468
83886215
83886163
83886128
83886153
83886287
67108888
83886296
67109070
67109031
67109073
67109064
67109023
67109045
67109016
67109063
67108983
67109019
67108959
67109030
67109002
67108975
67108936
67108943
67109052
67109013
67108997
67108992
67108978
67108951
67108980
67108962
67108974
67108922
67108867
67108940
67108964
67108930
67108909
67108934
67108984
67108928
67108918
67108867
67109089
50331689
67108880
67108894
67108959
67109115
50331699
67108915
67108965
67109115
50331649
67108890
67109081
50331679
67108894
67108949
67109079
50331698
67108893
67108881
67108881
67108949
67108894
67108880
67108969
67108912
67108907
67108958
67108934
67108878
67108964
67108922
67108917
67109066
50331859
50331858
50331751
50331726
50331754
50331719
50331893
33554435
50331873
33554627
33554637
33554604
33554588
33554552
33554589
33554551
33554605
33554511
33554554
33554568
33554540
33554598
33554578
33554683
33554501
50331843
50331887
67109059
117440745
251658339
385876183
369098784
335544328
301989894
352321623
469762105
452984973
251658264
67109044
16777349
16777351
16777337
16777359
16777305
16777336
16777311
16777301
16777282
16777262
16777305
16777247
16777252
16777265
16777238
16777217
16777216
16777233
16777444
254
235
19
16777447
223
224
246
235
183
191
183
212
187
160
155
160
170
155
157
162
172
175
175
170
153
147
147
169
163
180
157
149
157
148
148
139
160
159
163
157
185
152
176
148
187
219
229
4
16777302
16777421
16777331
33554666
50331839
117440632
251658301
301989965
268435695
218103833
218103972
234881065
352321736
369098827
268435570
83886252
62
69
66
59
69
73
71
83
60
54
71
75
72
70
79
66
66
63
75
51
58
77
74
55
65
75
60
68
63
57
68
76
70
67
54
58
58
62
77
62
66
68
63
62
55
56
54
54
55
61
54
76
54
47
55
77
63
63
82
73
67
76
66
72
92
71
74
56
61
52
54
46
47
47
55
54
62
64
56
50
54
54
64
51
61
34
52
53
68
60
44
54
40
62
59
62
47
44
67
57
61
50
62
66
55
60
52
50
52
53
44
45
63
40
60
49
49
49
48
63
50
43
45
50
50
62
52
55
58
62
48
52
53
54
47
42
59
56
46
69
42
54
51
43
43
46
52
55
56
53
65
56
59
57
55
58
49
52
45
38
57
53
42
39
42
48
44
52
40
46
31
38
43
50
34
56
51
59
45
40
42
34
53
62
55
39
38
42
36
50
46
52
30
47
31
45
37
44
32
34
40
49
44
43
49
47
40
49
42
37
36
47
44
42
47
38
43
40
45
44
37
49
39
38
38
36
41
41
34
40
55
42
40
37
31
31
40
40
51
44
39
43
37
57
43
44
38
42
38
31
34
49
33
39
52
53
53
44
38
50
49
47
57
38
46
47
41
41
36
39
48
45
44
41
35
39
41
50
46
37
38
37
36
35
31
36
41
35
34
42
42
30
39
41
33
38
48
38
43
30
38
47
41
43
40
38
29
47
39
54
40
39
37
39
35
36
38
37
39
46
44
42
31
36
39
40
41
32
44
33
35
34
49
36
48
29
40
44
31
42
33
41
45
38
44
33
27
36
30
34
42
26
33
33
48
37
30
40
40
24
30
28
41
35
42
31
37
42
36
41
38
37
35
40
29
38
30
36
37
34
40
36
36
39
24
37
39
41
40
33
34
36
30
32
38
23
37
28
37
33
31
34
32
26
24
35
36
18
30
26
24
32
29
29
29
25
34
32
29
34
31
34
39
30
26
28
26
35
22
23
42
37
33
37
33
38
23
36
36
37
32
37
31
36
35
31
32
39
33
29
22
31
32
30
22
45
31
39
35
33
45
38
33
22
37
42
26
28
34
40
29
26
37
45
29
24
32
34
33
34
25
34
30
41
23
25
41
37
30
35
26
28
30
33
30
29
23
19
25
18
23
18
19
31
18
34
26
26
23
22
21
20
25
27
9
34
19
26
23
13
19
21
16
29
14
21
27
25
22
27
26
19
25
23
23
19
22
19
19
22
23
14
25
17
17
11
19
16
25
17
19
23
20
16
21
19
17
16
21
16
15
13
13
12
16
16
16
15
17
20
18
16
14
18
16
12
24
19
21
21
6
15
13
12
12
24
16
7
27
27
21
21
23
27
40
32
33
29
41
39
41
37
46
37
30
31
38
31
37
55
33
30
27
16
11
12
16
14
16
10
10
9
13
9
12
14
13
23
15
7
17
20
11
9
13
11
14
15
15
13
15
14
16
13
14
14
14
18
10
15
16
12
20
13
10
14
14
14
17
11
12
10
10
15
11
9
17
17
7
13
16
8
17
14
16
8
16
9
11
13
15
17
9
12
22
19
21
9
13
16
18
8
8
10
15
11
12
7
14
10
18
19
14
10
7
16
12
18
11
9
14
10
16
11
12
16
17
20
15
14
13
17
14
17
15
13
7
7
17
14
6
11
12
15
12
9
11
10
19
17
16
17
9
17
18
12
6
14
13
15
9
11
12
17
10
7
17
9
11
13
12
12
16
16
12
16
13
16
8
20
13
27
8
21
16
13
9
8
11
16
14
13
18
12
13
19
18
11
8
12
13
9
10
17
14
21
9
9
13
17
12
10
19
5
10
14
10
13
18
17
19
14
15
8
12
13
11
16
12
10
12
14
17
13
19
14
15
16
17
21
18
20
19
17
17
9
12
13
23
14
5
17
18
11
16
11
11
14
15
10
14
19
13
13
10
21
10
8
14
16
15
14
12
16
15
12
9
19
7
19
20
17
22
12
10
12
12
8
12
16
11
14
13
11
15
18
14
14
9
9
11
10
11
12
16
20
20
9
8
17
13
16
12
19
20
9
10
18
18
14
10
7
21
12
16
12
8
18
7
12
19
17
12
9
14
6
11
10
12
20
10
10
18
9
19
14
14
23
15
16
14
17
10
14
16
13
9
21
17
7
11
12
12
11
11
12
17
12
12
14
20
7
12
11
7
12
14
14
20
20
17
11
14
18
11
10
12
11
16
10
11
21
6
19
15
15
14
13
16
15
12
16
11
14
15
8
15
12
12
11
16
17
17
15
14
17
11
18
6
14
23
17
16
14
14
25
12
13
12
10
23
16
17
12
15
12
17
11
17
13
12
21
16
12
13
14
12
13
19
17
16
15
20
14
7
19
18
17
17
12
19
17
10
12
12
13
10
16
20
19
16
20
12
16
7
10
17
17
19
21
15
16
13
12
7
14
13
12
16
16
13
14
14
15
15
14
12
14
7
16
12
14
10
15
10
12
16
14
18
8
11
16
25
6
9
20
15
9
17
15
12
7
14
12
12
14
18
13
21
15
16
9
15
12
18
21
12
15
26
19
18
11
19
16
21
11
14
10
12
17
15
16
18
16
13
11
19
15
17
14
19
20
15
18
11
14
18
27
15
11
16
14
27
15
12
17
16
16
15
15
18
14
17
13
12
14
12
13
21
17
14
15
17
19
13
13
17
14
22
19
14
21
12
24
12
20
17
19
14
14
13
20
19
9
13
11
12
15
17
11
17
17
17
14
10
13
22
17
21
15
14
17
18
21
10
14
14
15
13
9
19
13
19
17
24
15
16
12
16
15
12
15
15
19
11
24
16
12
21
14
15
23
18
22
10
18
15
18
13
8
11
21
9
12
9
16
16
22
9
16
17
13
8
19
21
14
11
20
11
18
16
14
10
22
13
10
12
12
10
19
14
12
10
14
21
7
10
10
13
20
25
15
14
9
19
21
20
9
15
13
21
13
13
11
16
21
16
14
16
21
15
15
19
18
12
14
19
14
17
20
12
18
19
18
15
17
16
16
19
10
17
14
13
13
18
15
14
20
18
10
20
22
18
24
13
8
13
12
16
16
23
13
12
12
21
7
13
21
10
18
16
15
18
17
12
11
14
18
11
15
18
10
30
16
18
13
27
22
17
18
11
14
20
13
19
18
22
18
18
13
17
25
17
23
17
16
16
15
23
16
16
12
11
20
17
24
13
19
13
15
17
17
11
16
12
17
21
13
15
14
15
10
12
16
25
13
18
17
18
15
13
25
14
21
14
18
13
21
12
13
16
26
14
15
17
15
23
13
24
20
18
21
12
14
22
10
17
16
18
18
18
16
8
16
11
23
16
19
19
12
15
23
19
13
19
25
17
21
23
20
11
14
16
30
16
26
17
19
17
15
20
19
17
17
19
15
20
8
21
21
16
17
19
22
19
17
23
22
18
25
21
11
18
12
12
15
18
18
15
11
16
18
16
18
11
15
18
13
18
13
20
15
24
16
19
18
17
13
21
17
17
13
16
20
23
16
14
12
12
28
21
18
21
18
27
17
19
10
30
25
21
23
25
15
18
22
18
14
14
15
16
26
31
20
21
21
14
22
22
13
18
31
10
8
21
20
22
21
18
14
21
17
26
24
22
24
15
26
11
22
23
18
16
12
14
24
15
25
19
17
17
20
24
15
19
18
20
23
15
17
16
19
20
20
17
28
19
24
19
20
15
24
20
15
17
20
20
11
20
24
27
22
21
35
19
22
19
16
23
17
17
22
19
18
26
23
20
17
21
21
17
17
17
27
17
25
19
25
22
11
17
24
19
22
21
19
24
17
26
17
17
17
24
18
15
25
24
22
24
26
28
18
17
24
22
20
27
22
16
21
20
23
20
21
19
21
25
23
19
32
23
22
20
14
24
22
27
19
15
21
15
23
20
22
20
18
23
21
22
21
28
20
17
21
25
27
22
20
17
10
16
22
17
23
33
19
23
26
27
28
17
19
25
17
26
24
31
21
18
32
34
33
28
21
28
26
17
29
18
29
25
25
26
20
32
28
28
27
25
22
18
22
35
24
28
19
27
25
20
28
17
25
23
24
30
19
24
29
44
24
29
28
25
20
25
25
35
24
25
24
25
23
26
25
22
27
36
24
28
35
22
26
28
24
22
33
23
27
19
35
25
23
36
30
30
16
19
23
23
26
33
31
35
33
32
29
26
31
33
30
41
29
30
30
27
19
24
35
28
36
33
35
22
27
40
35
27
33
29
42
24
23
30
21
18
29
27
29
31
37
27
33
23
24
36
29
38
26
22
36
30
22
34
25
25
28
23
32
26
36
31
29
44
34
34
29
33
25
29
24
40
35
24
33
36
40
32
34
43
40
57
34
52
47
50
40
53
41
34
55
52
63
57
71
70
80
84
80
88
89
79
85
84
88
76
85
82
77
83
85
77
81
99
74
78
85
73
91
97
89
93
75
76
67
80
98
86
77
74
56
59
65
64
71
62
72
73
58
60
60
57
65
72
55
72
54
39
57
56
46
36
54
48
58
43
60
47
43
41
60
59
44
45
59
52
45
55
46
50
44
37
46
36
40
45
47
58
42
40
45
52
58
54
55
59
47
40
51
42
52
52
37
55
43
43
53
44
52
58
53
50
45
53
55
64
58
55
60
41
41
41
38
58
45
46
48
58
48
59
53
58
50
50
41
53
49
53
53
50
56
70
50
52
47
58
53
46
41
51
60
48
46
56
57
31
43
47
44
59
66
51
57
46
57
49
61
55
49
48
59
57
49
51
58
53
48
41
52
53
56
56
58
53
47
43
44
60
58
46
45
57
44
58
50
45
51
47
53
51
55
42
54
40
40
46
52
43
45
52
57
55
37
40
49
52
44
47
39
43
44
35
37
40
35
32
52
43
38
46
33
55
45
38
34
41
41
43
33
33
34
36
39
50
43
46
36
31
42
30
51
54
40
38
31
39
41
46
35
43
46
42
40
45
41
57
53
62
58
54
61
68
64
61
73
82
73
76
57
60
75
82
72
67
85
72
65
62
62
54
73
85
84
63
67
66
80
69
81
78
74
88
67
58
69
68
52
54
63
55
66
67
55
53
51
44
63
49
55
57
41
44
40
37
31
33
23
35
42
35
33
40
36
37
32
39
36
24
27
41
33
28
33
32
30
32
40
34
38
28
37
39
38
48
36
39
47
40
39
38
34
41
43
39
37
39
44
48
36
39
34
35
44
34
44
41
35
40
38
34
44
43
29
50
28
41
37
36
45
31
52
39
37
59
31
38
43
52
40
46
45
29
46
46
41
40
49
30
45
42
31
35
42
40
36
45
41
40
49
34
33
50
43
38
49
42
40
41
44
34
35
39
37
45
35
38
39
37
30
35
31
35
35
33
27
33
34
22
25
35
33
33
35
29
30
37
33
24
29
33
31
31
29
27
28
27
36
30
23
16
34
24
23
24
30
30
24
26
22
14
32
22
22
24
25
22
19
17
22
17
24
16
24
17
14
17
13
16
17
23
22
17
19
16
16
10
6
11
20
4
11
17
11
10
17
16
6
19
22
15
18
23
22
21
15
29
19
19
30
28
27
29
36
25
31
24
27
27
45
29
36
34
42
42
50
35
42
36
39
36
57
45
36
48
45
57
37
48
51
38
45
53
48
43
47
28
45
30
40
38
43
32
49
34
22
26
31
27
29
28
24
12
29
23
22
17
17
22
11
15
16
17
10
14
12
15
14
9
9
10
12
8
8
5
11
9
7
6
8
2
6
6
8
11
7
5
9
10
7
7
4
5
7
7
5
5
9
6
10
5
6
3
10
11
12
8
8
5
5
5
8
10
5
5
8
8
12
5
8
8
9
6
8
11
4
7
5
8
5
8
7
9
9
8
5
8
6
5
11
9
7
10
14
11
9
6
10
8
7
7
7
9
14
13
4
10
12
11
10
12
10
16
10
12
12
9
8
13
13
11
11
8
10
12
18
12
15
18
10
5
8
8
6
8
5
5
8
10
4
6
11
11
7
7
6
6
6
5
4
9
11
7
9
8
6
8
10
9
7
4
4
10
5
4
4
6
5
2
7
1
4
2
4
7
2
10
6
6
4
4
4
3
7
5
5
4
5
4
5
5
2
7
4
11
3
8
9
2
5
1
12
6
5
5
6
4
5
6
7
12
6
6
9
3
10
11
12
9
9
8
5
5
2
3
5
6
6
3
14
5
1
12
7
9
3
6
7
4
5
8
7
2
4
8
5
4
9
4
4
9
3
3
5
4
3
2
9
5
4
2
10
5
11
5
6
4
3
5
5
6
1
8
5
3
4
9
2
6
6
6
5
1
1
4
0
1
2
3
1
2
5
4
3
3
0
3
4
1
5
5
2
2
3
4
1
1
5
0
0
5
3
3
4
4
5
4
3
4
4
3
2
4
1
2
3
1
0
6
2
2
3
0
2
4
2
2
1
3
3
1
1
3
4
1
2
4
0
6
5
1
2
2
2
0
3
6
4
5
5
2
6
3
2
3
2
3
4
0
4
5
7
6
4
4
2
2
5
3
2
3
1
4
3
3
6
3
3
2
5
6
3
4
6
3
6
0
0
3
3
2
1
2
2
4
3
3
3
2
4
2
1
1
3
3
1
2
1
2
2
2
3
0
2
1
2
1
0
1
2
1
1
0
2
0
0
1
0
0
2
3
2
0
0
3
0
2
1
2
0
0
0
1
0
1
1
1
2
1
1
0
0
2
0
1
3
0
1
0
0
2
0
2
1
1
2
1
2
3
4
1
2
1
3
0
5
1
0
2
0
2
0
1
1
2
1
1
1
0
2
0
1
2
1
2
2
0
0
1
1
1
0
0
1
1
1
1
0
1
2
1
0
0
0
0
0
1
0
2
2
0
0
0
1
0
0
0
1
1
0
1
0
0
0
0
0
0
0
0
0
0
0
0
0
0
0
0
0
1
0
0
0
0
0
0
0
0
0
0
0
0
0
0
0
0
0
0
0
0
0
0
0
0
0
0
0
0
0
0
0
2
0
0
0
0
0
0
0
0
0
0
0
0
1
0
0
0
0
0
0
0
0
0
0
0
0
0
0
0
1
0
0
0
0
0
0
0
0
0
0
0
0
0
0
0
0
1
0
0
0
0
0
0
0
0
1
0
0
0
0
0
0
0
0
0
0
0
0
0
0
0
0
0
0
0
0
0
0
0
0
0
0
0
0
0
0
0
1
0
0
0
0
0
0
0
0
0
0
0
1
0
0
0
1
0
0
0
0
0
0
0
0
0
0
0
0
0
0
0
0
0
0
0
0
0
0
0
0
0
0
0
0
0
1
0
0
0
0
0
0
0
1
1
1
0
0
0
0
0
0
0
0
0
0
0
0
0
0
0
0
1
0
1
0
0
0
0
1
0
1
1
0
0
0
0
0
0
0
0
0
0
0
0
0
0
1
1
0
0
0
0
0
0
0
0
0
0
0
0
0
0
1
0
0
0
0
0
0
0
0
0
0
0
1
0
0
0
0
0
0
0
0
0
0
0
0
0
0
0
0
0
0
0
0
0
0
0
1
0
1
0
0
0
0
0
0
1
1
0
0
0
0
0
0
0
0
0
0
0
0
0
0
0
0
0
0
0
0
0
0
0
0
0
0
0
0
0
0
0
0
0
0
0
0
0
0
0
0
0
1
0
0
1
0
0
0
0
0
0
0
0
0
0
0
0
0
0
0
0
0
0
0
1
0
0
0
1
0
0
0
0
0
0
0
1
0
0
0
1
0
0
0
0
0
0
0
0
0
0
0
0
0
0
0
0
0
0
0
0
0
0
0
0
0
0
0
1
0
0
0
0
0
0
0
0
0
0
0
0
0
0
0
0
1
0
0
0
0
0
0
0
0
0
0
0
0
0
0
0
0
1
0
0
0
0
0
0
0
0
0
0
0
0
0
0
0
0
0
1
0
0
0
0
1
0
0
0
0
0
1
0
0
0
0
0
0
0
0
0
0
0
0
0
0
0
0
0
0
0
0
0
0
0
0
0
1
0
0
0
0
0
0
0
0
0
0
0
0
0
0
0
0
1
0
0
0
0
0
0
0
0
0
0
0
0
0
0
0
0
0
0
0
0
0
0
0
1
0
0
1
0
0
0
0
0
1
1
0
0
0
0
0
0
1
1
0
0
0
0
0
0
0
0
0
0
0
0
0
0
0
0
0
0
0
0
0
0
1
0
0
0
0
0
0
0
0
0
0
0
0
0
0
0
0
0
0
0
0
0
0
1
0
0
1
0
0
1
0
0
0
0
0
0
0
0
0
0
2
0
0
0
0
0
0
0
0
0
0
0
0
0
0
0
1
0
0
0
0
0
0
0
0
0
0
0
0
0
0
0
0
1
1
0
0
0
0
0
0
0
0
0
1
0
0
0
0
0
0
0
0
0
0
1
0
0
0
0
0
0
0
0
0
0
0
0
0
0
0
1
0
2
0
0
0
0
0
0
0
0
0
0
0
0
0
0
0
0
0
0
0
0
0
1
0
0
0
0
0
0
0
0
0
0
0
0
0
0
1
1
0
0
0
0
0
0
0
0
0
0
0
0
0
0
0
0
0
0
0
0
0
0
0
0
0
0
0
0
0
0
0
2
0
0
0
0
0
0
0
0
0
0
0
0
0
0
1
0
0
0
0
0
0
0
0
0
1
0
1
0
0
0
0
0
0
0
0
0
0
0
0
0
0
0
0
0
0
0
0
0
0
0
0
0
0
0
0
0
0
0
0
0
0
0
0
0
0
0
0
0
0
0
0
0
1
1
0
0
0
0
0
0
0
0
0
0
0
1
0
0
0
0
0
0
0
1
0
0
0
0
0
0
0
0
0
0
0
0
0
0
0
0
0
0
0
0
0
0
0
0
0
0
0
0
0
0
0
0
0
0
0
0
0
0
0
0
0
0
0
0
0
0
0
0
1
0
0
0
0
0
1
0
0
0
0
0
0
0
0
0
1
1
1
1
0
0
0
0
0
0
0
0
0
0
0
0
0
0
0
0
0
0
0
0
0
0
0
0
0
0
0
0
0
0
0
0
0
0
0
0
0
0
0
0
0
0
0
0
1
0
0
0
1
0
0
0
0
0
0
0
0
0
0
0
0
1
1
0
0
0
0
0
0
0
0
1
1
0
0
0
0
0
0
0
0
0
0
0
0
0
1
0
0
0
0
0
0
0
0
0
0
0
0
0
0
0
0
0
0
0
0
0
0
0
0
0
0
0
0
0
0
0
0
0
0
0
0
0
0
0
0
0
0
0
0
0
0
0
0
0
0
0
0
0
0
0
0
0
0
0
0
0
0
0
0
0
0
0
0
0
0
0
0
0
0
0
0
0
0
0
0
1
0
1
0
0
0
0
0
0
0
0
0
0
0
0
0
0
1
0
0
0
0
0
0
0
0
0
0
0
0
1
0
1
0
0
0
0
0
0
0
0
0
0
0
0
0
0
0
0
0
0
0
0
0
0
0
0
0
0
0
0
0
0
0
0
0
0
0
0
0
0
0
0
0
0
0
0
0
0
0
0
0
0
0
0
0
0
0
0
0
0
0
0
0
0
0
1
0
0
0
0
0
0
0
0
0
0
0
0
0
0
0
0
0
0
1
0
0
0
0
0
0
0
1
0
0
0
0
0
0
0
0
0
0
0
0
0
0
0
0
0
0
0
0
0
0
0
0
0
0
0
0
0
1
0
0
0
0
0
0
0
0
0
0
0
0
0
0
0
0
0
0
0
0
1
0
0
0
0
0
0
0
0
0
0
0
0
0
0
0
0
0
0
0
0
0
0
0
0
0
0
0
0
0
0
0
1
0
0
0
0
0
0
0
0
0
0
0
0
0
0
0
0
0
0
0
0
0
0
0
0
0
0
0
0
0
0
0
0
0
0
0
0
0
0
0
0
0
0
0
0
0
0
0
0
0
0
0
0
0
0
0
0
0
1
0
0
0
0
1
0
0
0
0
0
0
0
0
0
0
0
0
0
0
0
0
0
0
0
1
0
0
0
0
0
0
0
0
0
0
0
0
0
0
0
0
0
0
0
0
0
0
0
0
0
0
0
0
0
0
0
0
1
0
0
0
0
0
1
0
0
0
0
0
0
0
0
0
0
0
0
0
0
0
0
1
0
0
0
0
0
1
0
0
0
0
0
0
0
0
0
0
0
0
0
0
0
0
0
0
0
0
0
0
0
0
0
0
0
0
0
0
0
0
0
0
0
0
1
0
0
1
0
0
0
0
0
0
0
0
0
0
0
0
0
0
0
0
0
0
0
1
0
0
0
0
0
0
0
0
0
0
0
0
0
0
0
0
0
0
0
0
0
0
0
0
0
0
0
0
0
0
0
0
0
1
0
0
0
0
0
0
0
0
0
0
0
0
0
0
0
0
0
1
0
0
0
0
0
0
0
0
0
0
0
0
0
0
0
0
0
0
0
0
0
0
0
0
0
0
0
0
0
1
0
0
0
0
0
0
1
0
1
0
1
0
0
0
0
0
0
0
0
0
0
0
0
0
0
0
0
0
0
0
0
0
0
0
0
0
0
1
0
0
0
0
0
0
0
0
0
0
1
0
0
0
0
0
0
0
0
0
0
0
0
0
0
0
0
0
0
0
0
0
0
0
0
0
0
0
0
0
1
0
0
0
0
0
0
0
0
0
1
0
0
0
0
0
1
1
0
0
0
0
0
0
0
0
0
0
0
0
0
0
0
0
0
0
0
0
0
0
0
0
0
0
0
0
0
0
1
0
0
0
1
0
0
0
0
0
0
0
0
0
0
0
0
0
0
0
0
0
0
0
0
0
0
0
0
0
0
0
0
0
0
0
0
0
0
0
0
0
0
0
0
0
0
0
0
0
0
0
0
0
0
0
0
0
0
0
0
1
0
0
0
0
0
0
0
0
0
0
0
0
0
0
0
0
0
0
0
0
0
0
1
0
0
0
0
0
0
0
0
0
0
0
0
0
0
0
0
0
1
0
0
0
0
0
0
0
0
0
0
0
0
0
0
0
0
0
0
0
0
0
0
0
0
0
0
0
0
0
0
0
0
0
0
1
0
0
0
0
0
0
0
0
1
0
0
0
0
0
0
0
0
0
0
0
0
0
0
0
0
0
0
0
0
0
0
0
0
0
0
0
0
0
0
0
0
0
0
0
0
0
0
0
0
0
0
0
0
0
0
0
0
0
0
0
0
0
0
0
0
0
0
0
0
0
0
0
0
0
0
0
0
0
0
1
0
0
0
0
1
1
0
0
0
0
0
0
0
1
0
0
0
0
0
0
1
0
0
0
0
0
0
0
0
0
0
0
0
0
0
0
0
0
0
0
0
0
0
0
0
0
0
0
0
1
0
0
1
0
0
0
0
0
0
0
0
0
0
0
0
0
0
0
0
0
0
0
0
0
1
0
0
0
0
0
0
0
0
0
0
0
0
0
0
0
0
0
0
0
0
0
0
0
0
0
1
0
0
0
0
0
0
0
0
0
0
0
0
0
0
0
0
0
0
0
0
0
0
0
1
0
0
0
0
0
0
0
0
0
0
0
0
0
0
0
0
0
0
0
0
0
0
0
0
0
0
0
0
0
0
0
0
0
0
0
0
0
0
0
1
0
0
0
0
0
0
0
0
0
0
0
0
0
0
0
0
0
0
0
0
0
0
0
0
0
0
0
0
0
0
0
0
0
0
0
0
0
0
0
0
0
0
0
0
1
0
0
0
0
0
0
0
0
0
0
0
1
0
0
0
0
0
0
0
0
0
0
0
1
0
0
0
0
0
0
0
0
0
0
0
0
1
0
0
0
0
1
0
0
0
0
0
0
0
0
0
0
0
0
0
0
0
0
0
0
0
0
0
0
0
0
0
0
0
0
1
0
0
0
0
0
0
0
0
0
0
0
0
0
0
0
0
0
0
0
0
0
0
0
0
0
0
0
0
0
0
0
0
0
0
0
0
0
0
0
0
0
0
0
0
0
0
0
0
0
0
0
0
0
1
0
0
0
0
0
0
0
0
0
0
0
0
0
0
0
0
0
0
0
0
0
0
0
0
0
0
0
0
0
1
0
0
0
0
0
0
0
0
0
0
0
0
0
0
0
0
0
0
0
0
0
0
0
0
0
0
0
0
0
0
0
0
0
0
0
0
0
0
0
0
1
0
0
0
0
0
0
0
0
1
0
0
0
0
0
0
0
1
0
0
0
0
0
0
0
0
0
0
0
0
1
0
0
0
0
0
0
0
0
0
0
1
0
0
0
0
0
0
0
0
0
0
0
1
0
0
0
0
0
0
0
0
0
0
0
0
0
0
0
0
0
0
0
0
0
0
0
0
0
1
0
0
0
1
0
0
0
0
0
0
0
0
0
0
0
0
0
1
0
0
0
0
1
0
0
0
0
0
1
0
0
0
0
0
0
0
0
1
0
0
0
0
0
0
0
0
0
0
0
0
0
0
0
0
0
0
0
0
0
0
0
0
0
1
0
1
0
0
0
0
0
0
1
0
0
0
1
0
0
0
0
0
0
0
0
0
0
0
0
0
0
0
0
0
0
0
0
0
0
0
0
1
0
0
0
0
0
0
0
0
0
0
1
0
0
0
0
0
0
0
1
0
0
0
0
0
0
0
0
0
0
0
0
0
1
0
0
0
0
0
0
0
0
0
0
0
0
0
0
0
0
0
0
0
0
0
0
0
0
0
0
0
0
0
1
0
0
0
0
0
0
0
0
0
0
0
0
0
0
0
0
0
0
0
0
0
0
0
0
0
1
0
0
0
0
0
0
0
0
0
0
0
0
0
0
0
0
0
0
0
0
0
1
0
0
0
0
0
0
0
0
0
0
0
0
0
0
0
0
0
1
0
0
0
0
0
0
0
0
0
0
0
0
0
0
0
0
0
0
0
0
1
0
0
0
0
0
0
0
0
0
0
0
0
0
0
0
0
1
0
1
0
0
0
0
0
0
0
0
0
0
0
0
0
0
0
0
1
0
0
0
0
0
0
0
0
0
0
0
0
0
0
0
0
0
0
0
0
0
0
0
0
0
0
0
0
0
0
0
0
0
0
0
1
0
0
1
0
0
0
0
0
0
0
0
0
0
0
0
0
0
0
0
0
0
0
0
0
0
0
0
0
0
0
0
0
0
0
0
0
0
0
0
0
0
0
0
0
0
0
0
0
0
0
0
0
0
0
0
0
0
0
0
0
0
0
3
0
0
0
1
0
0
0
0
0
0
0
0
0
0
0
1
0
0
1
0
0
0
0
0
0
1
0
1
0
0
0
0
0
0
0
0
0
0
1
0
0
1
0
0
0
0
0
0
0
0
0
0
0
0
0
0
0
0
0
0
0
0
0
0
0
0
0
0
0
0
0
0
0
0
0
0
0
0
0
0
0
0
0
0
0
0
0
0
0
0
0
0
0
0
0
0
0
0
0
0
0
0
1
0
0
0
0
0
0
0
0
0
0
0
0
0
0
0
0
0
0
1
0
0
0
1
0
0
0
0
0
0
0
0
0
0
0
0
0
0
0
0
0
0
0
0
0
0
0
0
0
0
0
0
0
0
0
0
0
0
0
0
0
0
0
0
0
0
0
0
0
0
0
0
0
0
0
0
0
0
0
0
0
0
0
0
0
0
0
0
0
0
0
0
0
0
0
0
0
0
0
0
0
0
0
0
0
0
0
0
0
0
0
0
0
0
0
0
0
0
0
0
0
0
0
0
0
1
0
0
0
0
0
0
0
0
0
0
0
0
1
1
0
0
0
0
0
0
0
0
0
0
0
0
0
0
0
0
0
0
1
0
0
0
0
0
0
0
0
0
0
0
0
1
0
0
0
0
0
0
0
0
0
0
0
0
0
0
0
0
0
1
0
0
0
0
0
0
0
0
0
0
0
0
0
0
0
0
0
0
0
0
0
0
0
0
0
0
0
0
0
0
0
0
0
0
0
1
0
0
0
0
0
0
0
0
0
0
0
0
0
0
0
0
0
0
0
0
1
0
0
2
0
0
0
0
0
0
0
0
0
0
0
0
0
0
0
0
1
0
0
0
0
0
0
0
0
0
0
0
1
0
0
0
0
0
0
1
0
0
0
0
0
0
0
0
0
0
0
0
0
0
0
0
0
0
0
0
0
0
0
1
0
1
0
0
0
0
0
0
0
0
0
0
0
0
0
0
0
0
0
0
0
0
0
0
0
0
0
0
1
0
0
0
0
0
0
0
0
0
0
0
0
0
0
0
0
0
1
0
0
0
1
0
0
1
0
0
0
0
0
0
0
0
0
0
0
0
0
0
0
0
0
1
0
0
0
0
0
0
0
0
0
0
0
0
0
0
0
0
0
0
0
0
0
1
0
0
0
0
0
0
0
0
0
0
0
0
0
0
0
0
0
0
0
0
1
0
0
0
0
0
0
0
1
0
0
0
0
0
0
0
0
0
0
0
0
0
0
0
0
0
0
0
0
0
0
0
0
1
0
0
0
0
0
1
0
0
0
0
0
1
1
0
0
0
0
0
0
0
0
0
0
0
0
0
0
0
0
0
0
0
0
0
0
0
0
0
0
0
0
0
0
0
0
0
0
0
0
0
0
0
0
0
0
0
1
0
0
0
0
0
0
1
0
0
0
0
0
0
0
0
0
0
0
0
0
0
0
0
0
0
0
0
0
0
0
0
0
0
0
0
1
0
0
0
0
0
0
0
0
0
0
1
1
0
0
0
0
0
0
0
0
0
0
0
0
0
0
0
0
0
0
0
0
0
0
0
0
0
0
0
0
0
1
0
0
1
0
0
0
0
0
0
0
0
0
0
0
0
0
0
0
0
0
0
0
0
0
0
0
1
0
0
0
0
0
0
0
0
0
0
0
0
0
0
0
0
0
0
0
0
0
1
0
0
0
0
0
0
0
0
0
0
0
0
0
0
0
0
0
0
0
0
0
0
0
0
1
0
0
0
0
0
0
0
0
0
0
0
0
0
0
0
0
0
0
0
0
1
0
0
0
0
0
0
0
0
0
0
0
0
0
0
0
0
0
0
0
0
0
0
0
0
0
0
0
0
0
0
0
0
0
0
0
0
0
0
1
0
0
0
0
0
0
0
0
0
0
0
0
0
0
0
0
0
0
0
0
0
0
0
0
0
0
1
0
0
0
0
0
0
0
0
0
0
0
0
0
0
0
0
0
0
0
0
0
0
0
0
0
0
0
0
1
0
0
0
0
0
0
0
0
0
0
0
0
0
0
0
0
0
0
1
0
0
0
0
0
0
0
1
0
0
0
0
0
0
0
0
0
0
0
1
0
0
0
0
0
0
0
0
0
1
0
0
0
0
0
0
0
0
0
0
0
0
0
0
0
0
0
0
0
0
1
0
0
0
0
0
0
0
0
0
0
0
0
0
0
0
1
0
0
0
0
0
0
0
0
0
0
0
0
0
0
0
0
0
0
0
0
0
0
0
0
0
0
0
0
0
0
0
0
0
0
0
0
0
0
0
0
0
0
0
0
0
0
0
0
0
0
0
0
0
0
0
0
0
0
0
0
0
0
0
1
0
0
0
0
0
0
0
0
0
0
0
2
0
0
0
0
0
0
0
0
0
0
0
0
0
0
0
0
0
0
0
0
0
0
0
0
0
0
0
0
0
0
0
0
1
0
0
0
0
0
0
0
0
0
0
0
0
0
0
0
0
0
0
0
0
0
0
0
0
0
0
0
0
0
0
0
0
0
0
0
0
0
0
0
0
0
0
0
0
0
0
0
0
0
0
0
1
0
0
0
0
0
0
0
0
0
0
0
0
0
0
0
0
0
0
0
0
0
0
1
0
0
0
0
0
0
0
0
0
0
0
0
0
0
0
0
0
0
0
0
0
0
0
0
0
0
0
0
0
0
0
0
0
0
0
0
0
0
0
0
0
0
0
0
0
0
0
0
0
0
0
0
0
0
0
0
0
0
0
0
1
0
0
0
0
0
0
0
0
0
0
0
0
1
0
0
0
0
1
0
0
0
0
0
0
0
0
0
0
0
0
0
0
0
1
0
0
0
0
0
0
0
0
0
0
0
0
0
0
0
0
0
0
0
0
1
0
0
0
0
0
0
0
0
0
0
0
0
0
0
0
0
0
0
0
0
0
0
0
0
0
0
0
0
0
0
0
0
0
0
0
0
1
0
0
0
0
0
0
0
0
0
0
0
0
0
1
0
0
0
0
0
0
0
0
0
0
0
0
0
0
0
0
0
0
0
0
0
0
0
0
0
0
0
0
0
0
0
0
0
0
0
0
0
0
0
0
0
0
0
0
0
0
0
0
1
0
0
0
0
0
0
0
0
0
0
0
0
0
0
1
0
0
0
0
0
0
1
0
0
0
0
0
0
0
0
0
0
0
0
0
0
0
0
0
0
0
0
0
0
0
0
0
0
0
0
0
0
0
0
0
0
0
0
0
0
0
0
0
0
0
0
0
0
0
0
0
0
0
0
0
0
0
0
0
0
0
1
0
0
0
0
0
0
0
2
0
0
0
0
0
0
0
0
1
0
1
0
0
0
0
0
0
0
0
0
0
0
0
0
0
0
0
0
0
0
0
0
0
0
0
2
3
4
4
5
5
1
3
5
5
4
3
2
3
3
3
0
6
5
3
3
1
4
3
1
3
2
3
4
2
5
2
2
4
5
4
4
10
2
1
3
5
3
3
5
1
2
2
7
2
1
5
2
4
1
5
1
2
2
5
1
2
4
2
5
3
4
5
3
3
2
1
1
3
1
3
2
3
4
4
1
3
6
6
1
2
2
7
0
3
3
0
5
4
0
5
6
3
2
4
6
3
4
2
5
3
4
6
5
4
2
2
1
3
2
1
3
2
5
4
3
5
3
2
7
2
1
5
0
