0
0
0
0
0
0
0
0
0
0
0
0
0
0
0
0
0
0
0
0
0
0
0
0
0
0
0
0
0
0
0
0
0
0
0
0
0
0
0
0
0
0
0
0
0
0
0
0
0
0
0
0
0
0
0
0
0
0
0
0
0
0
0
0
0
0
0
0
0
0
0
0
0
0
0
0
0
0
0
0
0
0
0
0
0
0
0
0
0
0
0
0
0
0
0
0
0
0
0
0
0
0
0
0
0
0
0
0
0
0
0
0
0
0
0
0
0
0
0
0
0
0
0
0
0
0
0
0
0
0
0
0
0
0
0
0
0
0
0
0
0
0
0
0
0
0
0
0
0
0
0
0
0
0
0
0
0
0
0
0
0
0
0
0
0
0
0
0
0
0
0
0
0
0
0
0
0
0
0
0
0
0
0
0
0
0
0
0
0
0
0
0
0
0
0
0
0
0
0
0
0
0
0
0
0
0
0
0
0
0
0
0
0
0
0
0
0
0
0
0
0
0
0
0
0
0
0
0
0
0
0
0
0
0
0
0
0
0
0
0
0
0
0
0
0
0
0
0
0
0
0
0
0
0
0
0
0
0
0
0
0
0
0
0
0
0
0
0
0
0
0
0
0
0
0
0
0
0
0
0
0
0
0
0
0
0
0
0
0
0
0
0
0
0
0
0
0
0
0
0
0
0
0
0
0
0
0
0
0
0
0
0
0
0
0
0
0
0
0
0
0
0
0
0
0
0
0
0
0
0
0
0
0
0
0
0
0
0
0
0
0
0
0
0
0
0
0
0
0
0
0
0
0
0
0
0
0
0
0
0
0
0
0
0
0
0
0
0
0
0
0
0
0
0
0
0
0
0
0
0
0
0
0
0
0
0
0
0
0
0
0
0
0
0
0
0
0
0
0
0
0
0
0
0
0
0
0
0
0
0
0
0
0
0
0
0
0
0
0
0
0
0
0
0
0
0
0
0
0
0
0
0
0
0
0
0
0
0
0
0
0
0
0
0
0
0
0
0
2
1
2
4
1
9
66
144
148
126
129
128
129
133
123
147
120
128
131
132
126
134
138
121
113
130
114
124
109
126
131
121
115
106
136
116
118
116
119
120
119
124
105
95
115
102
125
142
113
129
113
100
104
106
94
120
105
128
112
145
107
129
117
111
118
110
115
139
116
125
131
126
158
134
141
131
134
131
155
151
142
165
159
185
155
161
142
120
122
125
123
116
116
98
104
95
106
100
115
82
92
87
102
98
94
88
109
82
74
83
92
98
110
79
91
93
83
94
96
104
105
81
96
102
80
92
84
95
102
86
85
67
89
94
95
94
103
101
95
96
94
106
87
76
81
88
111
82
83
87
87
93
86
89
80
63
82
67
90
81
86
77
75
62
95
92
67
83
65
80
77
73
62
70
73
78
77
72
70
88
86
82
73
83
97
80
106
98
91
95
113
126
120
132
125
132
140
156
144
159
155
157
133
144
126
135
140
130
112
98
101
106
93
83
78
74
60
72
67
61
68
57
71
50
57
59
57
59
72
56
43
74
49
65
58
61
53
53
62
63
53
71
72
56
67
65
64
55
64
61
60
67
56
63
57
73
49
65
64
62
55
39
72
63
63
52
62
40
59
63
59
60
59
61
78
55
69
53
67
50
57
57
61
62
72
55
55
54
54
55
53
60
57
38
58
58
54
53
63
46
58
56
66
63
58
70
54
55
63
69
91
95
85
91
103
110
134
144
159
166
159
168
186
181
204
221
207
174
178
179
154
142
144
120
111
102
100
54
78
69
59
55
45
56
59
50
51
49
48
42
46
50
43
38
44
40
42
40
57
36
47
39
54
43
44
38
46
49
49
37
40
39
46
43
39
38
36
40
42
34
38
52
46
43
40
39
38
43
52
39
52
45
42
48
39
39
51
40
29
43
46
33
30
43
50
49
45
38
39
35
56
32
40
35
38
34
35
34
34
42
42
51
35
46
40
39
48
43
47
34
43
43
45
42
56
35
38
40
47
39
48
45
45
46
48
52
38
46
33
34
39
44
42
50
57
43
46
43
43
38
43
38
31
38
34
42
39
40
30
42
44
38
35
40
41
50
43
28
38
31
41
30
38
33
41
44
42
47
23
31
34
26
50
39
37
51
38
28
41
37
44
44
35
33
29
49
29
32
27
28
23
24
29
44
24
23
28
25
28
24
36
30
29
28
34
32
27
28
23
29
31
25
43
23
30
34
21
30
44
30
28
30
28
39
25
30
28
33
24
22
28
39
21
33
32
24
27
27
28
32
32
22
17
27
24
17
41
36
28
38
24
28
26
26
29
33
25
21
36
25
22
27
17
37
18
27
34
21
25
19
22
31
27
25
22
37
19
21
33
24
27
27
35
25
33
28
23
23
37
26
27
23
27
19
31
17
24
19
32
17
30
27
30
23
26
26
22
25
32
38
16
31
27
19
28
28
25
21
32
22
28
20
19
22
22
22
17
25
20
17
24
24
19
18
22
13
30
14
18
19
22
33
25
20
26
29
29
26
25
23
28
19
34
29
24
29
17
27
26
26
16
28
25
28
30
30
23
25
23
25
22
26
25
22
21
21
19
17
27
19
26
20
22
20
18
26
29
20
19
27
23
14
19
17
24
22
21
18
26
22
19
28
25
25
13
22
21
23
22
19
22
24
13
33
25
28
22
25
18
18
20
19
23
21
22
30
22
18
21
24
26
22
16
14
22
23
17
16
20
22
21
31
26
23
13
15
29
30
17
11
27
13
21
27
23
24
24
13
20
16
16
23
14
17
15
17
18
20
15
23
28
18
16
27
24
20
31
17
18
12
20
18
31
23
22
20
16
26
21
17
25
18
24
29
24
29
19
16
20
21
23
16
15
14
26
14
23
18
31
20
19
19
18
14
24
21
22
17
21
16
18
25
21
24
22
22
20
11
19
10
9
16
17
16
16
19
20
14
22
18
14
21
24
21
18
21
24
15
19
12
24
21
19
22
22
36
25
34
37
37
35
45
60
51
55
69
86
86
83
88
90
107
104
113
91
110
121
113
117
102
102
94
80
76
72
59
58
47
40
42
34
24
27
19
27
12
22
17
15
10
16
11
12
8
13
11
9
17
19
20
20
12
17
19
20
8
11
12
18
9
12
15
9
21
10
9
13
10
20
16
7
14
11
16
15
11
8
19
14
15
20
16
8
8
16
12
21
10
22
11
10
15
12
12
10
7
14
9
11
8
9
20
17
16
16
13
16
9
13
11
9
8
9
14
13
9
16
10
16
11
14
11
17
13
8
8
17
18
13
10
19
16
18
14
9
14
13
15
15
17
13
13
14
19
14
20
20
21
15
12
21
16
11
17
16
14
17
12
11
8
12
11
17
15
11
12
7
14
7
10
14
9
16
13
14
14
14
10
15
18
10
12
12
8
17
11
18
8
21
14
14
10
13
12
12
11
8
13
8
12
18
14
11
8
17
15
18
16
12
10
16
18
14
10
15
15
19
13
14
12
13
15
9
18
16
14
18
11
16
16
13
16
15
9
14
11
8
21
17
13
14
8
18
6
13
21
9
11
11
8
15
9
11
16
10
9
15
16
11
19
13
11
15
8
16
13
11
11
7
11
14
14
15
10
16
6
9
12
12
12
13
9
12
14
15
18
11
8
18
8
13
9
8
8
15
8
8
16
11
11
10
21
8
12
7
12
8
17
15
10
19
10
13
7
19
11
11
11
18
16
14
16
12
16
11
11
6
15
9
9
9
15
6
17
15
9
3
9
10
13
18
6
10
8
10
14
15
16
12
10
21
10
19
12
13
16
14
20
17
18
18
7
21
26
27
21
14
16
20
20
18
26
18
16
12
13
17
15
20
17
19
17
19
16
15
12
14
13
10
13
9
8
13
11
13
4
11
11
14
19
12
9
11
18
18
12
8
7
11
8
17
9
14
10
13
18
14
9
14
9
6
14
15
10
12
8
11
23
14
11
9
16
10
15
5
7
14
13
10
15
9
13
18
24
12
15
6
10
11
18
12
12
12
12
12
12
12
23
19
13
12
16
14
14
10
11
13
24
7
8
13
10
17
12
9
22
9
13
9
12
15
9
5
12
8
10
8
12
11
12
14
6
11
16
9
7
12
7
6
13
11
11
9
7
11
5
11
9
17
10
16
15
10
12
11
10
9
11
16
9
12
16
8
9
14
9
20
13
13
15
10
9
10
9
9
13
10
9
5
14
10
9
14
13
9
12
4
11
12
9
14
10
4
12
13
7
7
11
17
12
12
12
13
7
8
5
13
12
7
13
17
7
13
15
10
11
14
15
13
10
13
16
15
15
13
11
17
7
9
8
16
11
9
10
17
17
11
11
14
12
9
18
8
15
10
11
14
12
14
12
9
11
15
11
9
14
7
21
8
7
11
14
11
9
8
8
8
16
16
8
8
12
15
10
5
10
8
14
11
15
7
9
15
8
11
15
6
9
8
10
9
15
5
10
8
14
19
9
9
13
12
13
14
13
4
13
7
15
8
11
7
7
11
6
16
9
12
9
17
7
8
9
11
13
11
11
12
14
11
16
11
11
12
10
12
7
12
9
10
10
6
11
9
7
9
13
8
12
16
13
8
12
7
12
13
13
12
9
7
7
13
10
17
13
9
12
10
16
13
17
10
12
10
8
11
13
25
12
14
13
13
11
9
10
6
7
14
11
7
12
14
6
13
9
8
8
11
7
7
9
12
8
8
14
9
2
6
10
11
11
8
11
11
11
10
18
10
5
7
11
15
5
8
8
7
7
13
13
7
8
13
10
6
13
14
8
5
11
7
11
6
10
14
8
5
10
12
8
6
5
13
10
8
9
6
13
6
11
9
13
10
14
9
10
8
14
7
11
7
11
13
13
10
5
8
10
11
13
2
10
12
8
9
7
13
10
10
9
8
6
8
6
17
7
10
3
9
4
9
7
3
11
11
6
11
9
8
15
7
14
9
18
4
8
8
5
10
10
16
9
9
7
6
7
9
9
10
12
14
7
12
9
5
12
8
6
12
7
12
13
7
7
4
5
6
8
4
9
10
9
7
7
7
9
10
14
13
5
7
4
11
6
8
7
4
10
11
13
10
7
6
10
7
6
13
8
12
8
9
8
8
4
12
11
4
4
4
6
6
2
15
8
8
10
7
7
9
7
10
6
8
4
8
6
9
6
3
4
4
10
7
5
7
9
6
8
11
14
11
13
8
5
6
8
12
6
7
9
4
7
10
7
8
4
6
7
3
7
13
7
8
9
7
8
3
9
10
5
12
5
8
9
15
6
4
11
5
9
9
6
10
5
4
9
6
13
5
8
5
10
4
9
8
22
5
9
16
11
9
9
13
13
7
15
4
6
8
15
9
4
6
8
5
8
9
6
6
6
12
4
12
9
9
7
5
9
11
7
9
8
10
5
6
8
4
8
6
5
7
6
8
5
6
12
11
7
8
12
4
8
10
6
5
6
10
10
10
7
5
7
8
4
4
10
11
17
9
12
5
3
9
7
8
5
7
8
12
6
9
10
7
2
10
7
8
9
7
16
10
12
13
12
17
12
10
14
12
23
9
12
16
13
11
12
19
13
13
20
23
24
17
21
23
18
21
22
17
16
22
13
22
16
17
17
15
15
15
10
12
16
9
4
16
8
8
10
8
9
8
13
7
8
7
4
8
5
12
6
6
10
10
6
9
5
7
7
8
5
6
5
6
9
10
4
7
6
6
9
5
3
4
6
10
6
8
8
13
10
13
8
8
5
5
8
8
5
8
8
6
5
10
3
6
5
12
6
9
8
10
9
9
8
9
12
7
9
6
7
9
4
5
4
7
8
9
5
9
5
6
4
4
8
8
6
9
9
8
9
5
11
9
10
9
3
3
11
7
3
4
6
11
10
5
13
4
8
13
8
10
5
8
10
11
11
10
6
5
6
8
6
9
7
3
4
5
7
8
7
7
3
4
7
11
5
5
2
12
4
4
5
11
7
5
8
11
6
10
8
2
2
6
7
7
4
12
5
8
6
7
6
8
4
4
12
6
5
9
6
7
4
4
8
11
8
7
9
7
5
2
4
6
9
8
1
8
8
7
4
4
8
3
5
7
5
13
7
12
8
5
7
5
8
5
3
7
8
9
10
7
4
11
10
11
7
14
3
7
14
8
12
10
10
11
5
10
14
5
12
10
10
11
6
8
13
9
8
11
12
14
8
8
10
9
12
6
16
12
7
8
7
4
8
10
4
4
4
7
2
6
3
6
6
3
5
7
5
7
6
10
4
5
2
7
5
8
3
5
2
2
6
6
6
1
5
2
7
6
5
4
8
5
8
4
7
4
2
7
4
8
7
4
1
2
6
4
6
4
6
4
10
6
3
3
8
6
8
9
3
5
6
5
6
4
3
5
3
5
5
7
5
5
6
8
9
6
7
5
8
9
4
9
8
6
3
2
9
4
5
5
4
2
4
1
6
5
2
6
10
3
5
4
7
2
4
3
3
4
6
6
5
6
9
1
3
9
3
0
6
4
5
2
5
3
6
6
4
4
3
6
4
5
4
5
2
5
4
4
3
4
2
7
9
3
4
8
4
8
5
5
5
5
4
3
5
4
3
4
8
2
6
5
2
3
5
5
2
5
6
11
5
8
6
1
1
4
7
7
4
4
5
5
4
6
4
4
2
5
4
4
6
5
3
1
3
6
5
3
2
5
3
9
4
6
2
5
3
3
6
7
4
1
6
3
4
4
4
1
5
2
3
5
4
4
2
6
6
6
3
7
5
2
4
2
10
9
3
4
4
9
3
2
10
1
5
4
6
7
5
2
3
4
4
1
5
3
1
1
4
5
1
6
6
4
2
5
9
11
5
7
10
7
6
5
6
5
4
6
9
6
6
2
8
6
4
10
4
6
8
4
7
2
10
8
6
8
10
9
4
5
7
9
5
6
5
9
5
4
2
5
1
7
5
3
5
5
3
4
4
2
4
4
10
7
7
3
3
4
8
5
3
5
8
5
5
6
5
6
5
3
5
8
6
8
4
7
5
2
8
6
5
8
5
7
5
11
8
4
8
7
3
9
3
5
9
10
6
6
2
7
2
6
7
5
6
4
6
5
4
5
3
5
3
2
2
4
2
2
4
7
7
6
3
2
2
1
3
4
3
6
2
3
6
4
3
2
3
4
2
8
7
4
3
4
5
2
2
0
3
1
6
4
2
5
7
3
3
9
4
3
5
5
2
3
0
7
4
4
6
2
5
7
9
4
7
10
2
7
13
10
9
14
8
11
10
5
10
14
12
16
9
9
7
11
3
15
14
9
11
14
7
12
7
9
10
7
8
4
17
6
7
10
9
6
6
7
10
6
10
5
6
6
3
6
3
8
6
5
4
9
2
5
2
5
1
6
3
2
3
3
3
9
4
1
3
5
4
2
3
6
3
3
3
8
1
1
6
4
6
2
6
2
3
2
3
3
6
3
5
4
2
5
6
5
7
3
3
1
4
1
2
7
5
3
0
3
2
2
10
4
5
4
5
7
4
6
5
2
6
10
1
9
1
6
5
6
5
5
7
5
3
3
4
5
3
3
6
3
8
4
5
2
4
9
5
8
9
2
4
6
1
5
6
3
1
6
5
4
5
3
3
6
1
3
4
3
3
2
4
5
3
2
2
6
3
3
2
3
4
1
5
4
0
4
6
4
0
7
2
5
5
0
3
0
2
2
5
4
5
1
8
2
6
2
1
3
5
5
3
1
2
3
3
6
4
2
6
2
3
0
1
1
1
2
4
1
4
3
3
2
0
1
2
1
3
3
3
4
4
1
5
4
3
2
1
3
1
0
4
2
3
4
3
1
1
5
4
4
2
4
1
5
3
2
3
4
5
2
6
2
2
2
3
3
4
0
1
2
3
1
3
1
3
3
2
3
7
5
7
4
3
1
4
5
1
4
4
3
5
1
5
5
6
5
1
7
4
2
2
5
2
2
3
3
5
4
2
3
2
3
4
5
3
3
1
3
4
5
6
2
3
2
1
1
5
3
2
0
4
0
3
3
5
5
2
0
5
3
2
4
2
2
2
4
0
2
2
0
2
1
1
1
0
5
2
1
3
1
1
2
2
2
5
2
4
2
5
2
1
3
3
3
1
4
1
0
2
5
0
2
3
2
2
3
1
0
0
1
1
1
3
0
2
1
2
2
1
6
2
3
3
3
2
1
3
6
3
0
3
2
2
2
0
2
2
1
2
3
1
0
3
2
1
2
2
5
1
1
1
1
1
3
1
2
1
3
4
4
0
2
0
2
2
4
0
1
4
3
4
0
1
3
3
1
4
1
0
2
2
1
2
1
2
1
1
0
2
2
0
1
0
1
3
1
2
2
2
1
1
1
1
2
3
2
1
2
2
3
2
2
1
0
3
0
0
1
1
1
2
0
1
0
2
0
2
3
4
1
2
0
1
1
1
4
3
1
0
2
1
0
2
1
2
1
1
0
2
0
2
1
2
2
1
2
2
1
0
3
1
4
1
2
3
0
1
1
6
0
3
1
1
3
2
3
1
2
3
0
0
2
1
3
1
1
0
0
1
1
0
1
2
1
1
2
3
1
2
0
0
4
1
0
0
2
3
2
3
4
1
3
2
5
2
4
4
2
1
2
0
2
1
3
3
2
2
4
2
4
5
3
5
1
3
1
2
2
4
0
3
5
4
2
2
3
4
0
1
1
1
1
2
0
2
1
2
2
0
3
2
2
1
2
1
0
2
2
2
3
2
2
2
1
3
3
3
3
5
3
2
6
3
5
8
6
6
8
4
5
9
5
11
10
6
3
6
8
6
9
7
7
4
6
4
4
7
10
8
6
8
12
9
8
14
7
5
8
7
6
12
10
13
8
7
4
5
7
11
3
5
2
3
1
1
1
0
1
0
0
0
2
0
1
0
2
1
1
3
1
1
1
2
0
0
0
0
0
1
1
0
0
0
0
0
1
3
2
0
1
1
1
2
0
0
0
1
5
0
1
0
0
1
1
2
3
0
1
0
0
0
0
0
1
1
2
0
3
3
0
0
0
1
0
0
0
1
1
0
0
1
0
0
1
4
4
1
1
0
0
1
0
1
1
1
1
0
2
2
1
0
2
0
1
3
0
0
0
0
0
0
0
1
0
0
0
1
0
1
0
0
2
0
0
1
1
2
3
3
1
4
2
2
3
0
5
2
4
2
0
2
3
2
2
1
3
2
1
3
1
4
2
2
1
0
0
2
0
1
0
1
1
4
3
1
2
1
1
2
1
1
1
1
3
2
2
0
2
1
2
1
0
0
4
1
0
1
0
1
1
0
1
1
0
1
1
1
1
2
1
0
0
1
2
0
2
1
1
2
0
0
0
0
4
2
0
2
1
2
1
3
0
0
0
3
1
1
1
0
1
0
3
0
1
1
3
0
1
2
1
1
1
0
0
0
0
1
0
2
1
2
0
1
2
3
1
1
2
2
2
1
0
2
0
2
0
0
1
2
1
0
1
2
1
3
0
0
0
2
2
0
1
0
1
1
1
0
0
0
1
0
2
2
0
1
2
2
5
3
0
0
0
0
1
0
1
0
0
0
1
2
1
1
0
0
0
1
1
3
1
0
0
0
2
0
0
1
1
1
1
1
1
0
1
0
1
0
2
0
0
0
1
0
0
0
0
1
2
2
1
0
2
1
1
1
1
1
3
2
2
1
0
1
2
1
0
0
0
1
1
1
1
2
1
2
2
2
1
0
0
0
0
0
0
1
1
2
2
1
0
1
0
0
1
1
3
1
0
0
2
3
1
0
2
1
1
2
0
2
1
0
1
0
2
0
0
0
0
0
0
1
3
1
1
3
2
0
0
1
0
1
0
1
2
2
1
0
0
1
0
1
0
3
1
1
2
0
0
1
1
1
0
2
1
0
1
0
0
0
0
2
0
2
1
0
2
0
0
0
0
0
1
1
2
0
0
1
0
0
0
1
1
1
1
0
1
4
2
0
2
0
0
0
0
1
0
0
0
2
0
2
2
0
0
1
0
1
3
1
0
0
1
0
0
0
0
0
1
1
2
1
0
1
1
2
0
2
1
0
0
0
0
0
0
0
0
3
1
0
1
0
0
0
0
1
1
2
0
1
0
1
0
1
1
1
3
1
0
1
2
0
0
1
0
3
1
0
1
1
1
1
2
2
0
0
1
1
2
1
0
0
0
0
1
0
0
0
0
0
0
0
0
0
2
0
0
0
2
0
0
0
0
1
0
0
2
0
1
1
0
0
0
1
0
0
0
1
1
1
0
0
0
0
0
0
1
1
0
1
0
0
0
0
1
0
1
0
0
0
0
0
0
2
1
0
0
0
2
1
1
1
0
0
0
0
0
1
1
1
0
0
0
0
1
2
2
1
0
0
0
0
1
0
1
0
0
0
1
0
1
0
1
1
0
0
1
0
0
0
0
2
2
1
0
0
0
0
1
0
1
1
0
2
2
1
1
0
1
0
0
0
1
0
1
0
0
0
1
0
0
0
1
0
1
0
0
1
0
0
1
0
1
0
0
1
1
0
0
0
2
0
3
1
2
1
1
1
1
1
1
2
0
0
0
0
2
1
2
0
2
0
1
1
2
2
0
0
1
0
0
0
2
0
1
1
0
1
0
0
1
1
2
0
1
0
1
2
0
0
2
1
1
1
1
0
0
1
0
0
1
0
4
2
0
1
0
0
0
0
0
0
0
1
0
0
1
1
0
0
0
1
0
0
0
0
1
0
0
0
0
0
0
0
2
0
0
2
0
1
0
1
0
0
0
0
0
0
0
1
2
0
0
1
0
1
0
0
0
0
0
0
0
0
0
2
0
0
0
0
2
1
0
1
1
0
1
0
0
0
0
0
0
0
0
2
1
0
0
0
1
0
0
0
0
1
1
0
0
4
0
0
1
2
0
0
0
0
1
1
1
2
1
0
1
1
0
5
0
0
0
0
0
2
2
2
0
1
2
1
0
1
1
0
0
2
2
1
1
2
1
1
0
3
2
2
0
2
1
2
3
1
1
1
3
2
1
0
1
0
2
2
1
3
2
3
0
2
3
2
2
2
2
2
2
0
0
1
3
0
1
2
1
2
0
1
1
0
0
2
0
0
0
1
1
0
0
0
1
0
1
3
1
0
0
0
0
0
0
0
0
1
1
0
0
1
0
1
0
0
0
0
3
1
0
0
1
0
0
0
0
0
1
0
0
0
0
0
0
0
0
0
1
0
0
0
1
0
0
0
0
0
0
0
0
1
0
0
0
0
0
0
0
0
0
0
0
2
0
0
0
0
2
1
0
0
0
1
1
0
1
0
1
0
0
1
0
1
0
1
0
0
0
0
1
0
1
0
1
0
0
0
0
0
0
0
0
0
0
0
0
0
1
0
2
0
0
0
0
0
0
0
1
0
0
0
0
1
0
0
2
0
0
0
1
1
0
1
0
0
0
0
1
1
0
1
1
0
1
0
3
1
0
0
0
0
1
0
0
1
1
0
0
1
0
0
0
0
0
0
0
4
0
0
1
0
0
0
0
0
0
1
0
0
0
1
0
0
1
0
0
1
1
0
0
0
0
0
1
0
0
0
0
1
0
0
0
0
0
0
0
0
1
0
0
0
1
0
0
1
0
0
0
0
0
0
0
0
0
0
0
0
0
1
0
1
1
0
0
0
0
0
2
0
0
0
0
1
0
0
1
0
0
0
0
0
0
0
0
0
0
0
1
0
0
0
2
0
1
0
0
1
0
0
0
0
0
0
1
0
1
0
0
0
0
0
0
0
1
0
1
0
0
0
0
0
0
0
0
0
0
0
0
1
0
0
0
0
0
1
0
2
1
0
0
1
0
0
0
0
0
0
0
0
0
0
0
0
0
1
0
0
0
0
0
0
0
0
0
0
1
0
0
0
1
0
0
0
0
0
0
0
0
0
0
0
0
0
0
1
0
0
2
0
0
0
0
0
0
1
1
0
0
0
0
0
0
0
1
0
1
0
0
0
0
0
0
0
0
0
0
0
0
0
2
0
0
0
0
0
0
0
0
0
0
0
0
0
0
2
0
0
1
1
0
0
1
0
0
0
0
0
0
0
0
0
0
0
0
0
0
0
0
0
0
0
0
0
0
0
0
0
0
0
0
0
1
0
0
1
0
1
0
1
0
1
0
0
0
0
1
0
1
0
0
0
0
0
0
0
2
0
1
1
0
0
0
0
1
0
2
1
0
0
1
1
1
0
0
0
0
0
0
0
0
1
1
0
0
0
0
1
0
0
1
1
1
0
0
2
3
2
0
0
1
1
2
0
2
1
1
0
0
0
0
1
0
1
0
0
0
1
0
1
0
0
0
0
0
1
0
0
0
0
0
0
0
0
0
0
0
0
0
0
0
0
0
0
0
0
0
0
0
0
0
0
0
0
0
0
0
0
1
0
0
0
0
0
0
0
0
0
0
0
0
0
0
0
0
0
0
0
0
0
0
0
0
0
0
1
0
1
1
0
0
0
1
1
0
0
0
0
0
0
0
0
0
0
0
0
0
0
0
0
0
0
0
0
0
0
0
0
0
0
0
1
0
0
0
0
0
0
0
0
0
0
0
0
0
1
0
0
0
0
0
0
0
0
0
0
0
0
0
0
0
0
0
0
0
0
0
0
0
0
0
0
0
0
0
0
1
0
0
0
0
0
0
0
0
0
0
0
0
0
0
0
0
0
0
0
1
0
0
0
0
0
0
0
0
0
0
0
0
0
0
0
0
0
0
0
0
0
0
0
0
0
0
0
0
0
0
0
0
0
0
0
0
0
0
0
0
0
0
0
0
0
0
0
0
0
0
0
0
0
0
0
0
0
0
0
0
0
0
0
0
0
0
0
0
0
0
0
0
0
0
0
1
0
0
0
0
0
0
0
0
0
0
0
0
0
0
0
0
0
0
0
0
0
0
0
0
0
0
0
0
0
0
0
0
0
0
0
0
0
0
0
0
0
0
0
0
0
0
0
0
0
0
0
1
0
0
0
0
0
0
0
0
1
0
0
0
0
0
0
0
1
0
0
0
1
0
0
0
2
1
0
2
0
0
0
0
0
0
0
0
0
1
0
1
2
0
0
0
1
0
0
0
0
1
0
0
1
1
0
0
0
2
0
0
0
1
1
0
1
0
2
0
1
0
0
1
0
0
0
1
0
0
0
2
0
0
0
0
0
0
0
0
0
0
0
0
0
0
0
0
0
0
0
0
0
0
0
0
0
0
0
0
0
0
0
0
0
0
1
0
0
0
0
0
0
0
0
0
0
0
0
0
0
0
0
0
0
0
0
0
0
0
0
1
0
0
0
0
0
0
0
0
0
0
0
0
0
0
0
0
0
0
0
0
0
0
0
0
0
0
1
0
0
0
0
0
0
0
0
0
0
0
0
0
0
0
0
0
0
0
0
0
0
0
0
0
0
0
0
0
0
0
0
0
0
0
0
0
0
0
0
0
0
0
0
0
0
1
0
0
0
0
0
0
0
0
0
0
0
0
0
0
0
0
0
0
0
0
0
0
0
0
0
0
0
0
0
0
0
0
0
0
0
0
0
0
0
0
0
0
0
0
0
0
0
0
0
0
0
0
0
0
0
0
0
0
0
0
0
0
0
0
0
0
0
0
0
0
0
0
0
0
0
0
1
0
0
0
0
0
0
0
0
0
0
0
0
0
0
0
0
0
0
0
0
0
0
0
0
0
0
0
0
0
0
0
0
0
0
0
0
0
0
0
0
0
0
0
0
0
0
0
0
0
0
0
0
0
1
0
0
0
0
0
0
0
0
0
0
0
0
0
0
0
0
0
0
1
0
0
0
0
0
0
0
0
0
0
0
0
0
0
0
0
0
0
0
0
0
0
0
0
0
0
0
0
0
0
0
0
0
0
0
0
0
0
0
0
0
0
0
0
0
0
0
0
0
1
0
0
0
0
0
0
0
0
0
0
0
0
0
0
0
0
0
0
0
0
0
0
0
0
0
0
0
0
0
0
0
0
0
0
0
0
0
0
0
0
0
0
0
0
0
0
0
0
0
0
0
0
0
0
0
0
0
0
0
0
0
0
0
0
0
0
0
0
0
0
0
0
0
0
0
0
0
0
0
0
0
0
0
0
1
0
0
0
0
0
0
0
0
0
0
0
0
0
0
0
0
0
0
0
0
0
1
0
0
0
0
0
0
0
0
0
0
0
0
0
0
0
0
0
0
0
0
0
0
0
0
0
0
0
0
0
0
0
0
0
0
0
0
0
0
0
0
0
0
0
0
0
0
0
0
0
0
0
0
0
0
0
0
1
0
0
0
0
0
0
0
0
0
0
0
0
0
0
0
0
0
0
0
0
0
0
0
0
0
0
0
0
0
0
0
0
0
0
0
0
0
0
0
0
0
0
0
0
0
0
0
0
0
0
0
0
0
0
0
0
0
0
0
0
0
0
0
0
0
0
0
0
0
0
0
0
0
0
0
0
0
0
0
0
0
1
0
0
0
0
0
0
0
0
0
0
0
0
0
0
0
0
0
0
0
0
0
0
0
0
0
0
0
0
0
0
0
0
0
0
0
0
0
0
0
0
0
1
0
0
0
0
0
0
0
0
0
0
0
0
0
0
0
0
0
0
0
0
0
0
0
0
0
0
0
0
0
0
0
0
0
0
0
0
0
0
0
0
0
0
0
0
0
0
0
0
0
0
0
1
0
0
0
0
0
0
0
0
0
0
0
0
0
0
0
0
0
0
0
0
0
1
0
0
0
0
0
0
0
0
0
0
0
0
0
0
0
0
0
0
0
0
0
0
0
0
0
0
0
0
0
0
0
0
0
0
0
0
0
0
0
0
0
0
0
0
0
0
0
0
0
0
0
0
0
0
0
0
0
0
0
0
0
0
0
0
0
0
0
0
0
0
0
0
0
0
0
0
0
0
0
0
0
0
0
0
0
0
0
0
0
0
0
0
0
0
0
0
0
0
0
0
0
0
1
0
0
0
0
0
0
0
0
0
0
0
0
0
0
0
0
0
0
0
0
0
0
0
0
0
0
0
0
0
0
0
0
0
0
0
0
0
0
0
0
0
0
0
0
0
1
0
0
0
1
0
0
0
0
0
0
0
0
0
0
0
0
0
0
0
0
0
0
0
0
0
0
0
0
0
0
0
0
0
0
0
0
0
0
0
0
0
0
0
0
0
0
0
0
0
0
0
0
0
0
0
0
0
0
0
0
0
0
0
0
0
0
0
0
0
0
0
0
0
0
0
0
0
0
0
0
0
0
0
0
0
0
0
0
0
0
0
0
0
0
0
0
0
0
0
0
0
0
0
0
0
0
0
0
0
0
0
0
0
0
0
0
0
0
0
0
0
0
0
0
0
0
0
0
0
0
0
0
0
0
0
0
0
0
0
0
0
0
0
0
0
0
0
0
0
0
0
0
0
0
0
0
0
0
0
0
0
0
0
0
0
0
0
0
0
0
0
0
0
0
0
0
0
0
0
0
0
0
0
0
0
1
0
0
0
0
0
0
0
0
0
0
0
0
0
0
0
0
0
0
0
0
0
0
0
0
0
0
0
0
0
0
0
0
0
0
0
0
0
0
0
0
0
0
0
0
0
0
0
0
0
0
0
0
0
0
0
0
0
0
0
0
0
0
0
0
0
0
0
0
0
0
0
0
0
0
0
0
0
0
0
0
0
0
0
0
0
0
0
0
0
0
0
0
0
0
0
0
0
0
0
0
0
0
1
0
0
0
0
0
0
0
0
0
0
1
0
0
0
0
0
0
0
0
0
0
0
0
0
0
0
0
0
0
0
0
0
0
0
0
0
1
0
0
0
0
0
0
0
0
0
0
0
0
0
0
0
0
0
0
0
0
0
0
0
0
0
0
0
1
0
0
0
0
0
0
0
0
0
0
0
0
0
0
0
0
0
0
0
0
0
0
0
0
0
0
0
0
0
0
0
0
0
0
0
0
0
0
0
0
0
0
0
0
0
0
0
0
0
0
0
0
0
0
0
0
0
0
0
0
0
0
0
0
0
0
0
0
0
0
0
0
0
0
0
0
0
0
0
0
0
0
0
0
0
0
0
0
0
0
0
0
0
0
0
0
0
0
0
0
0
0
0
0
0
0
0
0
0
0
0
0
0
0
0
0
0
0
0
0
0
0
0
0
0
0
0
0
0
0
0
0
0
0
0
0
0
0
0
0
0
0
0
0
0
0
0
0
0
0
0
0
0
0
0
0
0
0
0
0
0
0
0
0
0
0
0
0
0
0
0
0
0
0
0
0
0
0
0
0
0
0
0
0
0
0
0
0
0
0
0
0
0
0
0
0
0
0
0
0
0
0
0
0
0
0
0
0
0
0
0
0
0
0
0
0
0
0
1
0
0
0
0
0
0
0
0
0
0
0
0
0
0
0
0
0
0
0
0
0
0
0
0
0
0
0
0
0
0
0
1
0
0
0
0
0
0
0
0
0
0
0
0
0
0
0
0
0
0
0
0
0
0
0
0
0
0
0
0
0
0
0
0
0
0
0
0
0
0
0
0
0
0
0
0
0
0
0
0
0
0
0
1
0
0
0
0
0
0
0
0
0
0
0
0
0
0
0
0
0
0
0
0
0
0
0
0
0
0
0
0
0
0
0
0
0
0
0
0
0
0
0
0
0
0
0
0
0
0
0
0
0
0
0
0
0
0
0
0
0
0
0
0
0
0
0
0
0
0
0
0
0
0
0
0
0
0
0
1
0
0
0
0
0
0
0
0
0
0
0
0
0
0
0
0
0
0
0
0
0
0
0
0
0
0
0
0
0
0
0
0
0
0
0
0
0
0
0
0
0
0
0
0
0
0
0
0
0
0
0
0
0
0
0
0
0
0
0
0
0
0
0
0
0
0
0
0
0
0
0
0
0
0
0
0
0
0
0
0
0
0
0
0
0
0
0
0
0
0
0
0
0
0
0
0
0
0
0
0
0
0
0
0
0
0
0
0
0
1
0
0
0
0
0
0
0
0
0
0
0
0
0
0
0
0
0
0
0
0
0
0
0
0
0
0
0
0
1
0
0
0
0
0
0
0
0
0
0
0
0
0
0
0
0
0
0
0
0
0
0
0
0
0
0
0
0
0
0
0
0
0
0
0
0
0
0
0
0
0
0
1
0
0
0
0
0
0
0
0
0
0
0
0
0
0
0
0
0
0
0
0
0
0
0
0
0
0
0
0
0
0
0
0
0
0
0
0
0
0
0
0
0
0
0
0
0
0
0
0
0
0
0
0
0
0
0
0
0
0
0
0
0
0
0
0
0
0
0
0
0
0
0
0
0
0
0
0
0
0
0
0
0
0
0
0
0
0
0
0
0
0
0
0
0
0
0
0
0
0
0
0
0
0
0
0
0
0
0
0
0
0
0
0
0
0
0
0
0
0
0
0
0
0
0
0
0
0
0
0
0
0
0
0
0
0
0
0
0
0
0
0
0
0
0
0
0
0
0
0
0
0
0
0
0
0
0
0
0
0
0
0
0
0
0
0
0
0
0
0
0
0
0
0
0
0
0
0
0
0
0
0
0
0
0
0
0
0
0
0
0
0
0
0
0
0
0
0
0
0
0
0
0
0
0
0
0
0
0
0
0
0
0
0
0
0
0
0
0
0
1
0
0
0
0
0
0
0
0
0
0
0
0
0
0
0
0
0
0
0
0
0
0
0
0
0
0
0
0
0
0
0
0
0
0
0
0
0
0
0
0
0
0
0
0
0
0
0
0
0
0
0
0
0
0
0
0
0
0
0
0
0
0
0
0
0
0
0
0
0
0
0
0
0
0
0
0
0
0
0
0
0
0
0
0
0
0
0
0
0
0
0
0
0
0
0
0
0
0
0
0
0
0
0
0
0
0
0
0
0
0
0
0
0
0
0
0
0
0
0
0
0
0
0
0
0
0
0
0
0
0
0
0
0
0
0
0
0
0
0
0
0
0
0
0
0
0
0
0
0
0
0
0
0
0
0
0
0
0
0
0
0
0
0
0
0
0
0
0
0
0
0
0
0
0
0
0
0
0
0
0
0
0
0
0
0
0
0
0
0
0
0
0
0
0
0
0
0
0
0
0
0
0
0
0
0
0
0
0
0
0
0
0
0
0
0
0
0
0
0
0
0
0
0
0
0
0
0
0
0
0
0
0
0
0
0
0
0
0
0
0
0
5
3
2
3
5
2
4
7
6
4
4
5
1
0
7
8
3
9
4
3
3
8
4
1
1
3
6
1
5
1
3
1
5
6
4
6
2
3
7
2
5
1
1
1
2
4
1
2
4
10
5
5
6
6
3
3
5
5
2
5
5
4
4
5
6
4
3
4
1
3
2
4
3
6
3
3
5
3
2
5
3
5
2
3
7
2
4
2
1
5
2
8
2
2
3
8
3
6
1
3
3
5
4
3
2
4
4
1
7
3
6
4
2
4
3
5
1
4
4
4
2
4
10
1
7
1
2
6
0
