0
0
0
0
0
0
0
0
0
0
0
0
0
0
0
0
0
0
0
0
0
0
0
0
0
0
0
0
0
0
0
0
0
0
0
0
0
0
0
0
0
0
0
0
0
0
0
0
0
0
0
0
0
0
0
0
0
0
0
0
0
0
0
0
0
0
0
0
0
0
0
0
0
0
0
0
0
0
0
0
0
0
0
0
0
0
0
0
0
0
0
0
0
0
0
0
0
0
0
0
0
0
0
0
0
0
0
0
0
0
0
0
0
0
0
0
0
0
0
0
0
0
0
0
0
0
0
0
0
0
0
0
0
0
0
0
0
0
0
0
0
0
0
0
0
0
0
0
0
0
0
0
0
0
0
0
0
0
0
0
0
0
0
0
0
0
0
0
0
0
0
0
0
0
0
0
0
0
0
0
0
0
0
0
0
0
0
0
0
0
0
0
0
0
0
0
0
0
0
0
0
0
0
0
0
0
0
0
0
0
0
0
0
0
0
0
0
0
0
0
0
0
0
0
0
0
0
0
0
0
0
0
0
0
0
0
0
0
0
0
0
0
0
0
0
0
0
0
0
0
0
0
0
0
0
0
0
0
0
0
0
0
0
0
0
0
0
0
0
0
0
0
0
0
0
0
0
0
0
0
0
0
0
0
0
0
0
0
0
0
0
0
0
0
0
0
0
0
0
0
0
0
0
0
0
0
0
0
0
0
0
0
0
0
0
0
0
0
0
0
0
0
0
0
0
0
0
0
0
0
0
0
0
0
0
0
0
0
0
0
0
0
0
0
0
0
0
0
0
0
0
0
0
0
0
0
0
0
0
0
0
0
0
0
0
0
0
0
0
0
0
0
0
0
0
0
0
0
0
0
0
0
0
0
0
0
0
0
0
0
0
0
0
0
0
0
0
0
0
0
0
0
0
0
0
0
0
0
0
0
0
0
0
0
0
0
0
0
0
0
0
0
0
0
0
0
0
0
0
0
0
0
0
0
0
0
0
0
0
0
0
0
0
1
1
0
1
3
1
1
3
2
1
3
3
3
0
0
1
2
2
2
2
5
2
3
3
2
3
2
3
4
3
1
0
1
5
0
2
2
2
1
2
0
1
1
4
1
2
4
5
1
1
2
1
1
0
2
1
0
1
2
4
2
2
1
6
1
3
2
2
3
2
4
2
1
0
3
0
3
4
2
2
3
3
2
1
4
1
1
2
2
0
1
3
1
1
0
2
1
1
1
1
1
1
0
2
0
1
3
0
2
4
4
2
3
2
2
0
0
1
3
1
5
3
2
2
0
2
0
2
0
0
0
2
1
2
3
3
1
2
1
0
1
1
2
3
2
3
2
2
0
2
1
1
2
1
1
3
1
1
2
0
2
1
0
0
1
0
2
1
2
6
0
2
1
3
1
1
3
2
2
2
2
4
1
0
2
2
2
1
1
1
4
0
0
2
1
3
1
1
2
1
5
2
0
0
1
1
1
1
2
1
1
0
0
0
0
4
2
3
1
0
3
0
1
4
0
0
2
2
1
1
2
0
0
0
3
0
2
1
1
2
3
1
2
0
0
2
2
0
2
4
0
1
0
4
2
0
0
1
3
3
0
2
0
2
2
0
1
0
1
3
2
1
0
2
3
1
2
0
3
3
1
1
0
1
2
1
1
0
3
2
1
2
3
2
1
0
1
1
2
4
1
0
0
1
1
1
2
3
2
1
1
0
0
1
2
3
0
3
1
2
3
0
0
0
1
1
3
1
2
2
2
1
1
3
2
3
0
4
1
0
0
0
0
1
1
4
0
0
1
3
3
3
0
0
2
3
1
1
1
1
1
1
0
3
1
0
0
1
1
1
1
0
0
3
0
1
1
1
1
1
1
4
2
2
1
0
3
1
1
0
4
1
2
4
0
0
2
1
2
2
0
1
0
0
1
0
2
1
2
1
1
0
2
2
0
3
1
0
2
1
2
1
2
0
0
1
1
0
1
2
0
0
3
0
1
2
1
1
2
0
0
0
2
2
2
3
0
3
2
0
4
1
1
1
3
0
2
1
2
1
2
1
0
1
3
2
1
3
2
1
0
3
1
2
1
2
1
1
0
4
2
2
1
2
0
0
0
0
0
0
0
1
0
2
0
2
1
0
1
0
0
2
4
3
4
2
0
0
0
1
2
0
0
2
3
2
0
0
0
2
0
3
1
1
2
1
1
1
0
1
2
2
2
2
1
2
1
2
1
2
2
0
4
0
0
0
2
2
1
1
0
2
2
4
0
1
2
2
1
0
2
0
1
2
0
0
1
1
1
1
4
3
0
2
2
1
2
2
1
2
1
1
0
3
0
2
2
1
3
1
0
1
0
3
0
1
1
1
4
3
0
2
2
1
0
2
0
1
2
1
3
0
3
2
1
5
3
3
0
1
1
0
3
2
1
0
4
6
0
0
1
1
3
3
4
0
0
0
0
0
0
4
1
0
1
4
1
2
2
3
1
0
1
5
5
5
2
1
1
1
2
1
0
1
1
3
0
4
3
3
2
1
1
3
0
1
1
2
2
1
1
1
0
2
3
3
1
4
1
1
2
1
2
0
1
2
2
1
3
1
0
0
2
3
0
3
1
3
1
0
1
0
1
3
2
1
4
4
1
1
1
3
5
0
2
1
0
4
3
2
0
4
3
5
3
2
1
2
4
1
4
3
1
1
4
3
1
3
2
2
3
2
3
1
3
0
3
1
2
1
3
1
3
2
0
5
1
4
1
5
2
1
1
6
2
1
3
4
1
1
1
1
3
2
3
6
2
2
3
1
1
2
2
2
2
1
2
2
5
1
3
3
5
5
1
3
9
4
1
2
1
2
1
5
3
2
0
1
3
4
1
3
2
3
2
1
3
5
2
1
5
4
3
2
2
1
3
3
1
5
4
4
3
6
2
1
4
2
4
1
2
5
2
1
2
5
4
2
4
3
7
4
4
0
6
1
1
3
7
4
5
3
7
4
1
2
2
3
3
3
2
3
2
3
8
1
4
9
5
3
5
3
3
4
1
2
3
1
4
7
4
2
4
4
4
6
2
4
10
5
3
3
5
3
8
6
3
6
4
5
7
5
10
4
10
5
4
6
3
9
5
6
6
8
7
7
5
4
7
7
2
9
8
6
1
5
10
7
6
4
7
4
9
8
5
7
7
15
9
7
11
4
5
4
9
4
6
7
7
10
3
5
7
6
8
9
13
8
11
6
20
8
13
6
10
9
5
8
7
8
11
6
7
2
8
8
10
9
6
3
9
10
8
10
7
9
15
7
11
11
12
8
6
5
4
9
8
8
3
3
10
7
14
6
11
13
12
12
9
11
8
16
8
12
13
13
13
15
11
15
11
11
6
12
10
8
12
11
8
10
6
12
11
16
12
8
10
12
11
9
4
10
10
13
13
13
15
8
8
10
10
11
5
11
4
11
12
13
7
7
12
5
12
6
11
12
11
9
12
1
11
6
13
10
9
7
6
11
10
5
6
9
6
10
12
11
9
17
11
12
7
12
6
10
1
6
11
6
3
6
6
6
10
6
5
13
7
8
5
6
4
9
5
4
8
8
7
7
8
6
9
3
6
5
6
3
6
4
4
4
7
4
7
4
3
2
6
2
9
0
6
3
5
2
4
1
8
3
5
3
2
6
4
2
1
1
4
4
4
4
2
5
3
3
1
3
0
1
6
4
0
2
2
1
3
1
2
0
0
1
1
1
1
0
2
0
0
2
4
1
1
1
1
1
1
1
1
3
3
1
1
3
2
1
1
1
2
0
1
1
0
0
2
1
1
0
1
1
1
1
0
0
0
0
0
1
0
1
0
0
0
1
0
0
0
1
0
2
0
2
0
0
0
0
0
1
0
0
1
0
2
0
1
0
0
0
0
0
0
1
1
0
1
0
0
0
1
1
0
0
0
0
0
0
0
1
1
0
0
1
1
0
0
0
0
1
1
0
0
0
0
1
0
0
2
1
0
1
0
0
0
0
0
1
0
0
1
0
1
1
1
0
2
0
0
1
1
0
1
0
0
0
0
0
0
0
1
1
0
0
0
0
0
1
0
0
1
0
0
0
1
0
0
2
0
0
0
0
0
0
1
1
0
1
1
0
0
0
0
0
0
0
0
0
2
1
0
0
1
2
0
0
0
0
0
0
0
0
0
0
1
0
1
0
1
0
0
2
2
2
2
0
0
2
1
0
0
0
0
0
0
1
0
0
1
1
0
0
0
1
1
0
0
1
0
2
0
0
1
0
1
0
1
1
0
1
2
0
0
2
0
0
0
0
1
0
1
1
0
0
0
0
1
0
2
0
1
1
0
1
0
0
0
0
1
0
0
2
0
0
0
0
0
0
0
1
0
0
0
0
0
0
0
1
0
0
0
1
0
1
2
0
0
0
0
1
0
0
0
0
0
0
0
0
0
0
0
1
0
0
0
0
0
1
0
0
0
0
0
1
1
3
0
1
1
1
1
1
0
0
0
1
0
0
0
0
0
0
2
0
1
0
2
0
0
0
0
0
0
0
0
0
0
0
0
0
0
0
0
0
0
0
0
0
0
0
2
1
0
0
0
0
0
0
1
0
0
1
0
1
0
0
0
0
0
1
0
1
0
0
1
0
0
0
0
0
0
0
1
0
0
0
0
0
0
0
0
0
0
1
0
2
0
0
0
0
1
0
0
0
0
0
0
0
0
0
2
2
0
2
1
0
1
0
1
0
0
0
0
1
2
0
1
0
0
0
0
2
0
0
2
0
0
0
0
0
0
0
0
0
0
1
0
1
0
1
0
0
0
0
1
0
1
0
0
1
0
0
0
1
1
0
0
0
1
0
0
0
1
0
0
0
2
0
1
0
1
1
0
0
0
0
1
0
0
0
0
3
0
1
0
0
1
0
0
0
1
0
0
1
1
0
2
0
0
0
0
1
0
0
0
0
0
1
0
0
0
1
0
0
0
0
1
1
0
2
0
0
0
1
0
0
0
0
0
0
0
0
1
0
0
0
0
0
0
0
0
0
1
0
1
1
0
0
0
0
0
0
0
0
1
0
0
0
1
1
0
0
0
1
1
0
1
0
0
0
0
0
0
0
1
0
0
0
0
0
0
0
0
0
0
0
0
0
0
1
1
0
1
0
1
2
0
1
1
1
0
0
0
0
1
0
1
0
0
0
1
1
1
0
0
0
0
1
0
1
0
0
0
0
1
0
0
1
0
1
1
2
0
1
0
0
1
2
0
0
2
0
0
0
0
0
1
1
0
0
0
0
1
0
0
1
1
0
1
0
0
0
0
1
1
1
1
0
0
0
0
0
0
0
0
1
0
0
0
0
0
1
0
0
0
1
1
1
1
2
0
0
1
0
0
0
2
0
0
0
0
1
0
0
0
1
0
1
0
1
0
0
1
1
0
0
0
0
0
0
0
1
0
0
1
0
0
1
0
1
0
0
1
0
0
0
0
1
0
2
0
0
1
1
0
0
1
1
1
2
1
0
0
1
0
1
0
0
0
1
0
0
0
0
0
1
0
0
1
1
1
0
1
1
1
0
1
2
0
0
0
0
0
0
0
0
1
1
0
0
0
0
0
0
1
0
1
0
1
0
2
0
2
0
0
0
0
0
0
0
0
0
0
1
2
0
1
1
2
1
0
0
0
1
1
0
0
0
1
0
1
0
1
0
0
0
0
0
0
0
0
2
0
0
0
0
0
1
0
0
1
0
0
0
0
0
0
0
0
0
0
0
1
1
1
1
1
1
2
0
1
1
0
0
0
1
1
1
0
0
0
1
0
0
0
2
0
0
2
0
1
1
0
1
1
0
0
0
0
0
0
1
0
1
0
2
0
0
0
0
0
0
1
1
0
0
1
0
0
1
0
0
0
0
1
0
0
1
0
0
0
0
0
0
1
0
0
1
0
0
0
0
0
1
0
0
0
2
1
0
0
0
0
0
0
0
0
0
0
0
0
0
0
0
0
0
0
1
0
0
1
0
0
0
0
2
1
0
0
1
0
2
0
0
0
0
0
0
0
0
1
0
1
0
1
2
0
0
0
0
0
1
2
0
0
0
2
1
0
1
0
1
0
1
0
1
0
0
0
0
1
0
1
0
1
0
0
0
0
0
0
0
0
0
0
0
0
1
0
0
0
0
0
1
0
0
0
0
0
1
0
0
0
0
1
1
0
0
0
0
1
0
0
0
1
0
1
1
0
0
0
0
0
0
0
0
1
0
0
0
1
0
0
0
0
0
1
1
0
2
0
0
3
0
0
0
0
0
0
0
1
0
0
1
0
0
3
0
2
1
1
1
0
0
0
0
0
2
0
0
1
0
0
1
0
0
1
1
0
0
1
0
1
0
0
0
0
2
0
0
0
0
0
0
0
2
0
0
0
1
0
0
0
1
1
0
0
0
1
0
0
0
1
0
1
0
0
1
0
2
2
0
0
1
2
0
1
0
0
0
0
0
2
1
0
0
0
0
0
0
1
1
0
1
1
0
1
0
0
1
1
1
1
1
0
0
1
0
0
1
0
0
2
1
0
0
0
0
0
0
1
0
0
0
0
0
0
0
0
0
0
0
0
0
0
1
0
0
1
0
0
0
0
0
0
1
0
0
0
1
1
1
1
0
0
3
1
1
1
0
0
0
1
0
0
1
2
1
0
1
1
1
0
0
0
2
0
1
0
0
0
0
1
0
0
0
0
0
0
0
0
0
0
0
0
1
0
0
0
0
0
1
0
1
1
2
1
0
0
0
1
0
0
1
0
1
0
0
0
0
1
0
0
1
0
1
0
1
0
0
0
0
0
0
1
4
0
0
0
1
1
0
0
0
0
0
3
0
1
2
1
0
0
0
0
0
0
1
0
1
0
1
0
0
0
0
0
0
0
1
0
1
0
0
1
1
0
0
0
1
1
0
0
0
2
1
0
0
1
0
1
1
1
0
0
0
0
0
0
1
0
1
2
1
0
0
0
0
2
0
1
0
0
0
0
0
2
1
0
0
0
0
1
0
0
0
1
1
1
0
0
1
0
0
2
0
1
0
0
0
1
1
0
0
0
3
0
0
0
3
0
0
1
0
1
1
0
1
1
1
0
0
0
0
1
0
1
0
1
1
0
0
1
1
0
0
1
0
1
0
0
0
0
1
1
1
1
0
0
0
0
1
0
1
0
2
0
1
2
2
0
0
0
3
0
0
0
0
0
1
1
1
1
1
0
1
0
1
1
2
1
0
1
0
0
0
0
1
0
0
0
1
0
0
0
1
0
0
2
0
0
0
0
1
1
0
1
0
2
0
0
1
0
2
2
3
0
2
0
0
1
0
0
0
1
1
0
1
1
0
0
0
0
0
0
1
0
0
1
1
1
0
2
1
3
1
0
0
0
1
1
0
1
1
0
0
1
1
1
3
0
0
1
0
0
0
0
0
0
0
2
0
2
0
0
0
0
0
1
0
0
2
2
0
0
0
0
2
1
0
0
1
1
2
0
0
1
0
1
0
0
1
1
0
2
0
1
0
0
0
0
0
1
0
1
0
2
0
0
1
0
1
1
0
2
0
1
1
1
0
1
1
2
0
1
1
0
1
1
1
1
0
0
1
0
0
1
1
2
1
1
0
1
1
1
0
0
0
0
0
0
0
0
0
0
0
0
0
0
0
0
0
0
0
1
1
0
0
1
0
1
0
0
0
0
1
0
0
0
0
1
0
1
1
0
0
1
0
0
1
0
2
0
1
1
1
1
1
1
1
1
0
1
1
1
1
1
2
1
2
1
1
1
1
1
1
0
0
0
3
0
2
1
1
1
1
3
0
0
0
2
0
1
1
1
1
1
0
1
1
0
2
1
1
0
1
0
2
1
1
1
0
0
4
0
0
1
1
0
1
1
0
1
0
0
0
1
2
0
2
1
0
1
0
0
0
0
0
0
2
2
0
2
0
0
1
0
0
0
0
0
0
1
0
1
0
0
1
0
3
1
0
1
2
1
0
0
0
1
1
1
1
1
0
1
1
2
0
2
0
3
0
1
0
3
2
3
0
2
1
1
0
0
2
0
2
3
1
1
1
0
3
0
0
2
2
2
2
1
1
0
0
0
0
1
2
0
0
0
1
3
0
2
1
0
1
0
2
1
1
1
0
0
0
1
1
0
0
0
2
0
1
1
1
1
1
3
2
0
1
1
0
1
2
1
1
1
1
2
1
0
3
3
0
1
2
0
1
1
0
0
1
0
2
1
3
1
2
1
1
1
1
3
0
1
1
0
0
1
3
2
2
0
1
0
2
1
2
3
2
2
0
1
1
2
1
4
2
0
1
2
0
1
2
1
1
0
0
1
0
1
0
0
1
0
1
0
0
2
1
0
1
1
2
0
2
0
1
0
0
4
1
2
4
0
1
2
1
1
2
2
0
1
1
0
3
0
1
3
1
2
0
1
2
0
0
1
4
2
2
2
0
3
0
0
1
1
2
3
0
3
1
3
4
0
1
0
1
2
3
4
2
1
3
1
0
2
0
2
0
0
2
4
2
1
3
1
0
1
2
0
1
0
3
0
1
2
0
2
3
1
0
3
2
4
2
4
0
2
0
0
2
0
1
1
1
4
0
1
1
2
2
1
2
1
1
0
0
0
1
0
2
1
2
1
3
2
1
1
3
4
3
3
4
4
1
2
4
3
5
3
1
2
0
3
2
2
3
3
1
5
3
3
1
2
3
4
2
3
0
4
2
4
5
4
4
6
2
2
1
4
2
1
1
1
4
2
2
3
4
2
4
3
2
2
5
5
3
5
2
3
2
5
1
2
1
2
1
2
6
4
2
3
2
6
3
2
2
6
3
5
1
5
8
8
0
4
7
5
2
3
4
5
2
4
2
5
4
8
3
5
3
1
6
7
3
7
6
3
3
7
2
11
3
2
5
2
2
3
3
6
8
10
4
5
2
10
3
3
7
4
4
7
8
6
6
10
8
7
9
6
9
5
8
11
4
5
5
11
12
11
9
6
7
6
9
10
8
11
5
12
10
10
8
11
14
12
8
11
14
11
16
13
7
20
16
9
13
15
15
15
14
21
18
18
12
11
16
17
16
21
14
12
9
22
17
13
8
13
14
16
20
24
23
19
19
27
20
17
16
24
17
13
21
26
22
25
32
26
30
42
33
40
36
35
41
34
29
34
29
30
35
37
40
42
43
40
26
33
30
41
42
42
36
42
49
42
44
48
59
57
44
52
50
60
69
50
59
53
51
43
57
43
61
54
62
67
63
61
69
64
61
55
62
72
56
61
46
50
61
52
64
54
60
60
40
56
56
52
41
41
41
48
34
44
38
37
33
32
38
45
35
26
21
31
18
23
26
26
19
28
15
13
12
15
13
17
15
11
13
13
13
13
6
12
8
8
3
7
8
8
5
3
4
3
4
4
3
5
4
6
2
4
0
5
3
7
3
2
4
0
1
0
1
5
1
1
0
1
0
0
0
1
1
6
1
1
1
1
0
1
2
3
1
1
4
4
0
2
6
2
0
2
3
3
2
0
3
1
1
4
0
0
2
0
1
1
3
2
0
2
3
1
3
1
1
1
3
1
2
2
2
2
1
2
1
1
0
5
1
3
0
1
2
2
1
0
4
0
1
2
2
3
0
1
2
1
2
2
0
1
0
0
1
0
1
2
1
3
4
0
1
5
0
4
2
1
1
2
1
0
0
2
0
0
0
0
2
2
3
1
1
1
1
0
0
1
1
2
3
0
0
0
1
0
0
1
0
0
0
0
0
0
0
0
1
1
0
1
0
0
0
0
0
0
0
0
0
1
0
0
0
0
1
0
0
0
0
1
0
0
0
0
0
1
0
0
0
2
0
0
1
0
0
0
0
0
0
1
0
1
0
1
0
1
0
1
0
0
2
0
0
0
1
0
2
0
0
1
0
0
1
0
0
1
1
2
2
0
0
0
1
0
2
0
0
1
0
1
0
0
0
0
0
0
0
0
0
0
1
0
0
0
1
0
0
1
1
1
0
0
1
0
2
0
0
0
0
1
0
0
1
0
1
0
1
2
1
1
0
0
1
0
1
2
0
0
0
0
0
2
0
0
0
0
1
0
1
1
0
0
1
0
1
1
0
0
2
2
0
0
0
2
1
1
0
1
1
0
0
1
0
0
2
0
0
0
0
0
1
0
0
1
2
0
0
0
0
1
0
0
0
0
1
0
1
2
1
1
2
0
0
0
0
0
2
1
2
2
1
2
0
1
3
0
1
2
1
0
2
1
2
2
1
0
0
0
2
1
3
1
0
0
0
4
1
2
0
0
3
0
0
2
3
4
1
0
2
0
1
1
0
4
2
3
3
1
0
3
1
0
0
1
1
0
0
2
2
1
1
2
1
1
1
3
2
0
1
0
1
2
2
0
0
1
4
4
1
4
1
0
3
1
1
0
1
1
1
1
1
0
0
1
1
0
2
4
2
0
1
1
1
4
1
2
0
5
1
1
1
1
0
0
1
2
0
3
2
1
0
1
1
3
0
1
0
1
0
5
2
1
0
2
2
0
2
1
1
0
0
2
0
1
1
1
3
0
0
0
1
2
1
0
0
1
0
0
2
2
0
0
1
1
3
1
0
0
2
3
0
2
2
2
4
2
1
2
1
0
3
0
2
1
1
1
1
4
2
0
0
1
3
0
5
1
3
2
1
2
3
3
3
1
3
2
2
3
3
2
1
0
0
2
2
2
2
3
2
3
1
0
3
0
4
0
3
1
0
4
1
2
2
3
3
0
0
2
2
3
3
2
1
2
2
1
0
2
2
3
2
3
1
2
1
2
1
1
7
2
5
0
0
1
4
4
3
4
3
3
3
4
1
5
4
3
2
1
4
4
3
0
5
4
5
4
4
6
9
3
6
5
5
7
6
3
9
5
6
3
8
3
5
10
9
9
7
6
4
8
6
8
8
8
10
7
10
10
9
9
13
5
7
7
5
7
11
8
12
11
9
16
7
9
18
3
10
10
8
15
14
8
6
17
9
12
11
9
10
9
12
7
9
10
10
7
6
9
10
7
12
11
7
4
9
10
8
5
9
5
9
3
3
9
6
7
7
8
2
9
3
5
6
2
5
3
4
2
3
6
1
1
2
2
1
2
4
2
2
0
2
0
1
2
1
2
0
2
0
1
0
0
0
1
0
1
0
0
0
0
0
0
0
0
0
0
0
0
0
0
0
0
0
0
0
0
0
0
0
0
0
0
0
0
0
0
0
0
0
0
0
0
0
0
0
0
0
0
0
0
0
0
0
0
0
0
0
0
0
0
0
0
0
0
0
0
0
0
0
0
0
0
0
0
0
0
0
0
0
0
0
0
0
0
0
0
0
0
0
0
0
0
0
0
0
0
0
0
0
0
0
0
0
0
0
0
0
0
0
0
0
0
0
0
0
0
0
0
0
0
0
0
0
0
0
0
0
0
0
0
0
0
0
0
0
0
0
0
0
0
0
0
0
0
0
0
0
0
0
0
0
0
0
0
0
0
0
0
0
0
0
0
0
0
0
0
0
0
0
0
0
0
0
0
0
0
0
0
0
0
0
0
0
0
0
0
0
0
0
0
0
0
0
0
0
0
0
0
0
0
0
0
0
0
0
0
0
0
0
0
0
0
0
0
0
0
0
0
0
0
0
0
0
0
0
0
0
0
0
0
0
0
0
0
0
0
0
0
0
0
0
0
0
0
0
0
0
0
0
0
0
0
0
0
0
0
0
0
0
0
0
0
0
0
0
0
0
0
0
0
0
0
0
0
0
0
0
0
0
0
0
0
0
0
0
0
0
0
0
0
0
0
0
0
0
0
0
0
0
0
0
0
0
0
0
0
0
0
0
0
0
0
0
0
0
0
0
0
0
0
0
0
0
0
0
0
0
0
0
0
0
0
0
0
0
0
0
0
0
0
0
0
0
0
0
0
0
0
0
0
0
0
0
0
0
0
0
0
0
0
0
0
0
0
0
0
0
0
0
0
0
0
0
0
0
0
0
0
0
0
0
0
0
0
0
0
0
0
0
0
0
0
0
0
0
0
0
0
0
0
0
0
0
0
0
0
0
0
0
0
0
0
0
0
0
0
0
0
0
0
0
0
0
0
0
0
0
0
0
0
0
0
0
0
0
0
0
0
0
0
0
0
0
0
0
0
0
0
0
0
0
0
0
0
0
0
0
0
0
0
0
0
0
0
0
0
0
0
0
0
0
0
0
0
0
0
0
0
0
0
0
0
0
0
0
0
0
0
0
0
0
0
0
0
0
0
0
0
0
0
0
0
0
0
0
0
0
0
0
0
0
0
0
0
0
0
0
0
0
0
0
0
0
0
0
0
0
0
0
0
0
0
0
0
0
0
0
0
0
0
0
0
0
0
0
0
0
0
0
0
0
0
0
0
0
0
0
0
0
0
0
0
0
0
0
0
0
0
0
0
0
0
0
0
0
0
0
0
0
0
0
0
0
0
0
0
0
0
0
0
0
0
0
0
0
0
0
0
0
0
0
0
0
0
0
0
0
0
0
0
0
0
0
0
0
0
0
0
0
0
0
0
0
0
0
0
0
0
0
0
0
0
0
0
0
0
0
0
0
0
0
0
0
0
0
0
0
0
0
0
0
0
0
0
0
0
0
0
0
0
0
0
0
0
0
0
0
0
0
0
0
0
0
0
0
0
0
0
0
0
0
0
0
0
0
0
0
0
0
0
0
0
0
0
0
0
0
0
0
0
0
0
0
0
0
0
0
0
0
0
0
0
0
0
0
0
0
0
0
0
0
0
0
0
0
0
0
0
0
0
0
0
0
0
0
0
0
0
0
0
0
0
0
0
0
0
0
0
0
0
0
0
0
0
0
0
0
0
0
0
0
0
0
0
0
0
0
0
0
0
0
0
0
0
0
0
0
0
0
0
0
0
0
0
0
0
0
0
0
0
0
0
0
0
0
0
0
0
0
0
0
0
0
0
0
0
0
0
0
0
0
0
0
0
0
0
0
0
0
0
0
0
0
0
0
0
0
0
0
0
0
0
0
0
0
0
0
0
0
0
0
0
0
0
0
0
0
0
0
0
0
0
0
0
0
0
0
0
0
0
0
0
0
0
0
0
0
0
0
0
0
0
0
0
0
0
0
0
0
0
0
0
0
0
0
0
0
0
0
0
0
0
0
0
0
0
0
0
0
0
0
0
0
0
0
0
0
0
0
0
0
0
0
0
0
0
0
0
0
0
0
0
0
0
0
0
0
0
0
0
0
0
0
0
0
0
0
0
0
0
0
0
0
0
0
0
0
0
0
0
0
0
0
0
0
0
0
0
0
0
0
0
0
0
0
0
0
0
0
0
0
0
0
0
0
0
0
0
0
0
0
0
0
0
0
0
0
0
0
0
0
0
0
0
0
0
0
0
0
0
0
0
0
0
0
0
0
0
0
0
0
0
0
0
0
0
0
0
0
0
0
0
0
0
0
0
0
0
0
0
0
0
0
0
0
0
0
0
0
0
0
0
0
0
0
0
0
0
0
0
0
0
0
0
0
0
0
0
0
0
0
0
0
0
0
0
0
0
0
0
0
0
0
0
0
0
0
0
0
0
0
0
0
0
0
0
0
0
0
0
0
0
0
0
0
0
0
0
0
0
0
0
0
0
0
0
0
0
0
0
0
0
0
0
0
0
0
0
0
0
0
0
0
0
0
0
0
0
0
0
0
0
0
0
0
0
0
0
0
0
0
0
0
0
0
0
0
0
0
0
0
0
0
0
0
0
0
0
0
0
0
0
0
0
0
0
0
0
0
0
0
0
0
0
0
0
0
0
0
0
0
0
0
0
0
0
0
0
0
0
0
0
0
0
0
0
0
0
0
0
0
0
0
0
0
0
0
0
0
0
0
0
0
0
0
0
0
0
0
0
0
0
0
0
0
0
0
0
0
0
0
0
0
0
0
0
0
0
0
0
0
0
0
0
0
0
0
0
0
0
0
0
0
0
0
0
0
0
0
0
0
0
0
0
0
0
0
0
0
0
0
0
0
0
0
0
0
0
0
0
0
0
0
0
0
0
0
0
0
0
0
0
0
0
0
0
0
0
0
0
0
0
0
0
0
0
0
0
0
0
0
0
0
0
0
0
0
0
0
0
0
0
0
0
0
0
0
0
0
0
0
0
0
0
0
0
0
0
0
0
0
0
0
0
0
0
0
0
0
0
0
0
0
0
0
0
0
0
0
0
0
0
0
0
0
0
0
0
0
0
0
0
0
0
0
0
0
0
0
0
0
0
0
0
0
0
0
0
0
0
0
0
0
0
0
0
0
0
0
0
0
0
0
0
0
0
0
0
0
0
0
0
0
0
0
0
0
0
0
0
0
0
0
0
0
0
0
0
0
0
0
0
0
0
0
0
0
0
0
0
0
0
0
0
0
0
0
0
0
0
0
0
0
0
0
0
0
0
0
0
0
0
0
0
0
0
0
0
0
0
0
0
0
0
0
0
0
0
0
0
0
0
0
0
0
0
0
0
0
0
0
0
0
0
0
0
0
0
0
0
0
0
0
0
0
0
0
0
0
0
0
0
0
0
0
0
0
0
0
0
0
0
0
0
0
0
0
0
0
0
0
0
0
0
0
0
0
0
0
0
0
0
0
0
0
0
0
0
0
0
0
0
0
0
0
0
0
0
0
0
0
0
0
0
0
0
0
0
0
0
0
0
0
0
0
0
0
0
0
0
0
0
0
0
0
0
0
0
0
0
0
0
0
0
0
0
0
0
0
0
0
0
0
0
0
0
0
0
0
0
0
0
0
0
0
0
0
0
0
0
0
0
0
0
0
0
0
0
0
0
0
0
0
0
0
0
0
0
0
0
0
0
0
0
0
0
0
0
0
0
0
0
0
0
0
0
0
0
0
0
0
0
0
0
0
0
0
0
0
0
0
0
0
0
0
0
0
0
0
0
0
0
0
0
0
0
0
0
0
0
0
0
0
0
0
0
0
0
0
0
0
0
0
0
0
0
0
0
0
0
0
0
0
0
0
0
0
0
0
0
0
0
0
0
0
0
0
0
0
0
0
0
0
0
0
0
0
0
0
0
0
0
0
0
0
0
0
0
0
0
0
0
0
0
0
0
0
0
0
0
0
0
0
0
0
0
0
0
0
0
0
0
0
0
0
0
0
0
0
0
0
0
0
0
0
0
0
0
0
0
0
0
0
0
0
0
0
0
0
0
0
0
0
0
0
0
0
0
0
0
0
0
0
0
0
0
0
0
0
0
0
0
0
0
0
0
0
0
0
0
0
0
0
0
0
0
0
0
0
0
0
0
0
0
0
0
0
0
0
0
0
0
0
0
0
0
0
0
0
0
0
0
0
0
0
0
0
0
0
0
0
0
0
0
0
0
0
0
0
0
0
0
0
0
0
0
0
0
0
0
0
0
0
0
0
0
0
0
0
0
0
0
0
0
0
0
0
0
0
0
0
0
0
0
0
0
0
0
0
0
0
0
0
0
0
0
0
0
0
0
0
0
0
0
0
0
0
0
0
0
0
0
0
0
0
0
0
0
0
0
0
0
0
0
0
0
0
0
0
0
0
0
0
0
0
0
0
0
0
0
0
0
0
0
0
0
0
0
0
0
0
0
0
0
0
0
0
0
0
0
0
0
0
0
0
0
0
0
0
0
0
0
0
0
0
0
0
0
0
0
0
0
0
0
0
0
0
0
0
0
0
0
0
0
0
0
0
0
0
0
0
0
0
0
0
0
0
0
0
0
0
0
0
0
0
0
0
0
0
0
0
0
0
0
0
0
0
0
0
0
0
0
0
0
0
0
0
0
0
0
0
0
0
0
0
0
0
0
0
0
0
0
0
0
0
0
0
0
0
0
0
0
0
0
0
0
0
0
0
0
0
0
0
0
0
0
0
0
0
0
0
0
0
0
0
0
0
0
0
0
0
0
0
0
0
0
0
0
0
0
0
0
0
0
0
0
0
0
0
0
0
0
0
0
0
0
0
0
0
0
0
0
0
0
0
0
0
0
0
0
0
0
0
0
0
0
0
0
0
0
0
0
0
0
0
0
0
0
0
0
0
0
0
0
0
0
0
0
0
0
0
0
0
0
0
0
0
0
0
0
0
0
0
0
0
0
0
0
0
0
0
0
0
0
0
0
0
0
0
0
0
0
0
0
0
0
0
0
0
0
0
0
0
0
0
0
0
0
0
0
0
0
0
0
0
0
0
0
0
0
0
0
0
0
0
0
0
0
0
0
0
0
0
0
0
0
0
0
0
0
0
0
0
0
0
0
0
0
0
0
0
0
0
0
0
0
0
0
0
0
0
0
0
0
0
0
0
0
0
0
0
0
0
0
0
0
0
0
0
0
0
0
0
0
0
0
0
0
0
0
0
0
0
0
0
0
0
0
0
0
0
0
0
0
0
0
0
0
0
0
0
0
0
0
0
0
0
0
0
0
0
0
0
0
0
0
0
0
0
0
0
0
0
0
0
0
0
0
0
0
0
0
0
0
0
0
0
0
0
0
0
0
0
0
0
0
0
0
0
0
0
0
0
0
0
0
0
0
0
0
0
0
0
0
0
0
0
0
0
0
0
0
0
0
0
0
0
0
0
0
0
0
0
0
0
0
0
0
0
0
0
0
0
0
0
0
0
0
0
0
0
0
0
0
0
0
0
0
0
0
0
0
0
0
0
0
0
0
0
0
0
0
0
0
0
0
0
0
0
0
0
0
0
0
0
0
0
0
0
0
0
0
0
0
0
0
0
0
0
0
0
0
0
0
0
0
0
0
0
0
0
0
0
0
0
0
0
0
0
0
0
0
0
0
0
0
0
0
0
0
0
0
0
0
0
0
0
0
0
0
0
0
0
0
0
0
0
0
0
0
0
0
0
0
0
0
0
0
0
0
0
0
0
0
0
0
0
0
0
0
0
0
0
0
0
0
0
0
0
0
0
0
0
0
0
0
0
0
0
0
0
0
0
0
0
0
0
0
0
0
0
0
0
0
0
0
0
0
0
0
0
0
0
0
0
0
0
0
0
0
0
0
0
0
0
0
0
0
0
0
0
0
0
0
0
0
0
0
0
0
0
0
0
0
0
0
0
0
0
0
0
0
0
0
0
0
0
0
0
0
0
0
0
0
0
0
0
0
0
0
0
0
0
0
0
0
0
0
0
0
0
0
0
0
0
0
0
0
0
0
0
0
0
0
0
0
0
0
0
0
0
0
0
0
0
0
0
0
0
0
0
0
0
0
0
0
0
0
0
0
0
0
0
0
0
0
0
0
0
0
0
0
0
0
0
0
0
0
0
0
0
0
0
0
0
0
0
0
0
0
0
0
0
0
0
0
0
0
0
0
0
0
0
0
0
0
0
0
0
0
0
0
0
0
0
0
0
0
0
0
0
0
0
0
0
0
0
0
0
0
0
0
0
0
0
0
0
0
0
0
0
0
0
0
0
0
0
0
0
0
0
0
0
0
0
0
0
0
0
0
0
0
0
0
0
0
0
0
0
0
0
0
0
0
0
0
0
0
0
0
0
0
0
0
0
0
0
0
0
0
0
0
0
0
0
0
0
0
0
0
0
0
0
0
0
0
0
0
0
0
0
0
0
0
0
0
0
0
0
0
0
0
0
0
0
0
0
0
0
0
0
0
0
0
0
0
0
0
0
0
0
0
0
0
0
0
0
0
0
0
0
0
0
0
0
0
0
0
0
0
0
0
0
0
0
0
0
0
0
0
0
0
0
0
0
0
0
0
0
0
0
0
0
0
0
0
0
0
0
0
0
0
0
0
0
0
0
0
0
0
0
0
0
0
0
0
0
0
0
0
0
0
0
0
0
0
0
0
0
0
0
0
0
0
0
0
0
0
0
0
0
0
0
0
0
0
0
0
0
0
0
0
0
0
0
0
0
0
0
0
0
0
0
0
0
0
0
0
0
0
0
0
0
0
0
0
0
0
0
0
0
0
0
0
0
0
0
0
0
0
0
0
0
0
0
0
0
0
0
0
0
0
0
0
0
0
0
0
0
0
0
0
0
0
0
0
0
0
0
0
0
0
0
0
0
0
0
0
0
0
0
0
0
0
0
0
0
0
0
0
0
0
0
0
0
0
0
0
0
0
0
0
0
0
0
0
0
0
0
0
0
0
0
0
0
0
0
0
0
0
0
0
0
0
0
0
0
0
0
0
0
0
0
0
0
0
0
0
0
0
0
0
0
0
0
0
0
0
0
0
0
0
0
0
0
0
0
0
0
0
0
0
0
0
0
0
0
0
0
0
0
0
0
0
0
0
0
0
0
0
0
0
0
0
0
0
0
0
0
0
0
0
0
0
0
0
0
0
0
0
0
0
0
0
0
0
0
0
0
0
0
0
0
0
0
0
0
0
0
0
0
0
0
0
0
0
0
0
0
0
0
0
0
0
0
0
0
0
0
0
0
0
0
0
0
0
0
0
0
0
0
0
0
0
0
0
0
0
0
0
0
0
0
0
