0
0
0
0
0
0
0
0
0
0
0
0
0
0
0
0
0
0
0
0
0
0
0
0
0
0
0
0
0
0
0
0
0
0
0
0
0
0
0
0
0
0
0
0
0
0
0
0
0
0
0
0
0
0
0
0
0
0
0
0
0
0
0
0
0
0
0
0
0
0
0
0
0
0
0
0
0
0
0
0
0
0
0
0
0
0
0
0
0
0
0
0
0
0
0
0
0
0
0
0
0
0
0
0
0
0
0
0
0
0
0
0
0
0
0
0
0
0
0
0
0
0
0
0
0
0
0
0
0
0
0
0
0
0
0
0
0
0
0
0
0
0
0
0
0
0
0
0
0
0
0
0
0
0
0
0
0
0
0
0
0
0
0
0
0
0
0
0
0
0
0
0
0
0
0
0
0
0
0
0
0
0
0
0
0
0
0
0
0
0
0
0
0
0
0
0
0
0
0
0
0
0
0
0
0
0
0
0
0
0
0
0
0
0
0
0
0
0
0
0
0
0
0
0
0
0
0
0
0
0
0
0
0
0
0
0
0
0
0
0
0
0
0
0
0
0
0
0
0
0
0
0
0
0
0
0
0
0
0
0
0
0
0
0
0
0
0
0
0
0
0
0
0
0
0
0
0
0
0
0
0
0
0
0
0
0
0
0
0
0
0
0
0
0
0
0
0
0
0
0
0
0
0
0
0
0
0
0
0
0
0
0
0
0
0
0
0
0
0
0
0
0
0
0
0
0
0
0
0
0
0
0
0
0
0
0
0
0
0
0
0
0
0
0
0
0
0
0
0
0
0
0
0
0
0
0
0
0
0
0
0
0
0
0
0
0
0
0
0
0
0
0
0
0
0
0
0
0
0
0
0
0
0
0
0
0
0
0
0
0
0
0
0
0
0
0
0
0
0
0
0
0
0
0
0
0
0
0
0
0
0
0
0
0
0
0
0
0
0
0
0
0
0
0
0
0
0
0
0
0
0
0
0
0
0
0
0
0
0
0
0
0
1
11
10
20
16
8
9
14
5
10
8
11
10
21
15
14
16
10
20
17
12
17
16
19
10
23
18
17
15
19
11
12
14
14
12
18
13
15
16
14
16
13
17
13
12
15
26
23
23
17
15
14
19
18
17
20
18
15
16
25
12
16
19
15
11
16
21
22
11
17
21
16
19
16
12
11
11
9
8
9
16
23
7
14
13
12
17
7
13
13
9
9
8
14
10
11
10
5
18
14
9
8
9
4
10
9
11
7
8
9
15
6
11
6
9
8
6
6
7
3
5
11
4
7
6
5
4
5
6
5
9
10
5
8
8
10
2
3
4
5
5
3
6
2
7
4
3
6
6
6
1
6
6
4
3
4
5
4
2
4
1
2
1
0
2
4
1
6
3
2
2
3
4
4
3
0
2
6
1
2
2
2
1
2
3
2
1
1
0
1
2
1
4
0
1
2
4
2
4
1
5
3
0
2
1
3
1
5
0
1
1
0
1
4
1
1
2
4
0
1
0
0
0
1
2
1
1
2
5
0
1
2
4
1
4
0
2
1
3
1
2
0
4
3
1
3
0
1
3
5
3
0
1
2
1
1
2
3
1
2
1
1
3
0
0
0
0
1
1
0
2
3
1
0
3
3
2
3
0
0
3
0
1
0
0
1
2
1
2
0
0
1
0
3
2
1
1
2
2
5
0
1
1
4
1
4
0
0
0
0
1
1
1
1
3
2
3
0
2
4
1
1
2
1
2
2
0
1
3
2
1
1
1
0
1
0
1
2
2
3
0
1
1
0
0
0
1
0
2
1
2
2
1
2
2
1
1
0
2
3
3
0
2
0
1
0
0
2
0
1
1
1
1
3
2
1
0
1
3
2
1
2
1
0
2
3
2
2
2
1
2
1
2
2
0
1
1
0
1
3
1
0
1
1
0
2
0
0
0
0
1
3
1
0
3
3
0
1
3
3
2
3
0
0
0
2
1
0
0
1
2
3
0
3
0
0
0
0
2
4
2
2
2
1
1
1
1
2
3
3
0
1
1
1
0
0
1
2
2
0
1
1
0
2
1
3
2
1
2
2
1
0
0
1
1
3
1
2
1
2
1
1
4
1
1
0
3
0
3
1
2
1
1
1
1
3
1
2
0
3
2
2
0
2
2
1
1
0
0
0
0
0
2
2
3
3
1
1
1
2
1
0
1
3
2
3
3
1
1
1
2
1
0
1
2
2
1
2
0
2
2
1
0
3
0
2
0
0
2
3
1
2
2
1
2
2
0
1
3
5
2
1
0
1
0
1
2
1
2
1
1
2
2
1
3
1
2
0
2
1
3
5
0
1
0
0
2
0
2
0
1
3
0
2
2
0
4
0
1
0
1
1
2
0
0
2
0
1
1
1
0
2
2
1
2
2
0
2
0
0
0
1
1
2
1
1
1
2
0
2
0
1
1
0
0
0
1
2
1
4
1
1
1
1
1
2
1
2
0
2
0
0
1
2
1
1
0
4
1
1
2
3
1
2
0
2
1
0
2
0
0
2
2
0
0
0
1
1
0
2
1
2
0
0
0
1
0
1
1
0
2
1
2
1
1
1
2
1
0
2
1
2
2
0
0
2
1
2
0
0
1
0
0
0
1
0
1
1
1
0
2
1
1
1
0
3
2
1
3
2
2
4
0
1
2
1
0
2
3
2
0
1
1
1
3
1
1
0
1
0
1
0
1
4
3
1
0
0
0
2
1
1
0
4
0
0
2
3
1
0
0
4
0
1
3
0
2
1
3
2
0
0
1
1
0
2
1
3
1
2
0
1
0
1
1
2
1
3
2
0
2
1
0
4
0
2
0
2
1
0
0
2
1
1
0
0
1
2
1
1
1
0
0
1
1
0
0
1
2
0
1
0
0
1
1
0
0
0
1
2
1
0
3
0
1
1
1
2
0
1
1
0
1
1
0
0
2
0
2
1
2
1
2
1
1
1
3
0
0
0
1
0
0
0
1
1
0
1
0
0
1
2
3
1
0
1
1
4
0
0
3
2
0
3
0
2
1
1
0
1
1
1
0
0
0
2
1
1
0
2
0
1
0
3
0
3
3
3
3
2
1
2
0
1
1
1
2
3
1
0
0
0
1
0
1
1
1
1
2
1
1
5
2
0
2
0
1
2
1
0
0
1
0
2
0
0
0
0
0
0
1
1
1
0
2
2
2
1
0
3
2
0
0
2
0
1
2
0
0
1
2
1
0
2
0
1
0
0
0
1
0
0
1
0
2
1
2
2
1
3
1
2
0
0
3
1
0
1
1
1
1
0
1
0
1
0
2
1
1
0
2
1
0
1
1
4
3
1
1
2
3
1
0
0
3
0
0
1
0
3
1
2
0
0
2
0
1
3
1
2
1
0
1
0
1
1
0
3
1
0
1
3
0
1
0
1
1
0
0
0
1
1
0
2
4
1
0
2
1
0
0
0
1
0
0
1
1
0
0
0
0
0
0
1
1
3
1
1
1
0
2
1
2
1
0
1
1
0
2
3
3
2
3
0
0
1
0
3
0
2
1
1
1
2
0
0
2
2
1
0
2
0
4
1
0
4
0
0
1
0
3
1
0
0
0
2
0
3
1
0
0
1
3
2
0
1
1
0
0
1
2
1
0
0
1
2
3
1
2
1
2
0
1
1
0
2
2
0
2
1
2
0
2
1
0
1
1
1
0
1
0
2
1
1
3
1
1
1
1
0
0
0
0
0
0
1
2
3
2
1
1
0
1
0
1
0
1
0
1
2
0
2
0
0
1
2
1
0
0
0
1
3
1
1
0
1
0
1
1
2
0
2
1
1
2
0
0
0
0
0
0
0
0
1
1
0
2
0
2
2
0
0
1
1
0
1
0
0
0
1
3
0
2
1
1
0
0
3
0
0
0
1
2
0
3
2
0
2
1
2
1
1
0
0
1
0
2
3
1
1
1
1
0
1
2
0
0
1
0
0
0
1
1
2
0
0
1
1
0
1
0
0
1
1
1
1
0
0
1
0
0
2
1
1
2
0
0
1
0
0
0
0
1
1
0
0
4
1
0
0
0
0
2
0
2
1
0
2
1
0
1
0
0
1
2
0
0
0
1
0
0
1
0
1
0
1
1
1
2
0
2
0
2
0
1
2
1
0
2
0
0
0
2
1
1
0
2
0
2
1
1
0
0
0
0
1
0
1
1
2
2
0
0
1
0
0
0
1
2
1
3
2
0
1
0
0
0
1
0
0
0
0
1
2
0
1
1
0
1
0
0
1
1
2
2
1
1
0
2
0
1
2
3
2
0
0
2
0
0
1
0
1
2
2
0
0
0
0
1
1
0
1
1
1
1
1
0
0
1
1
0
1
0
0
2
1
1
1
0
0
0
1
0
1
0
2
0
1
0
0
1
0
1
0
1
1
0
0
2
0
1
1
0
0
0
1
1
2
1
0
1
1
2
2
0
0
0
3
0
1
0
1
1
0
0
2
0
0
1
0
1
1
0
0
2
0
1
1
1
1
1
0
0
0
1
1
2
1
0
2
3
1
0
0
1
0
0
1
0
2
0
0
0
1
0
0
1
1
0
2
0
3
0
1
1
1
2
1
0
0
1
0
1
1
0
0
1
1
0
2
0
0
0
0
1
1
3
0
0
0
1
0
1
1
2
0
1
0
0
0
1
1
0
0
0
1
1
0
1
1
2
1
0
0
0
0
1
1
1
2
0
1
2
1
1
0
1
0
1
3
0
1
1
0
0
3
2
1
0
0
0
0
1
0
0
1
0
0
1
0
1
0
2
1
3
0
1
1
0
0
0
1
2
0
1
1
1
1
2
2
1
0
1
0
0
2
0
2
1
0
0
0
1
1
1
1
1
0
0
0
1
0
0
0
1
0
0
1
1
0
0
2
1
0
1
0
0
0
1
1
1
0
2
1
0
0
0
0
0
0
0
0
0
1
0
0
0
1
0
0
2
0
0
0
0
1
1
0
0
0
0
1
2
1
1
0
1
1
1
0
0
0
1
0
1
0
0
1
0
2
2
1
3
1
1
1
0
0
2
0
1
3
1
2
0
0
1
1
1
2
0
2
2
0
0
1
0
0
1
0
1
1
1
0
2
1
1
0
0
1
2
1
3
2
0
2
0
2
0
1
0
2
2
3
2
0
0
0
0
1
0
0
2
0
0
1
0
0
0
1
2
0
1
1
0
0
0
0
0
1
1
0
3
2
1
1
0
1
0
1
0
0
1
2
3
2
1
0
0
2
1
1
0
1
2
0
0
2
1
1
1
0
3
0
0
1
0
0
1
0
0
0
2
0
0
1
1
1
2
1
1
3
1
0
1
1
1
0
2
0
0
0
1
1
0
1
2
2
1
0
0
1
1
0
0
0
2
0
0
0
2
1
0
0
2
0
2
0
0
0
1
0
0
1
1
1
0
1
0
1
0
1
0
1
0
1
1
0
1
0
2
0
2
0
3
0
2
1
3
2
0
3
0
0
0
0
0
1
3
0
2
0
0
0
1
0
0
0
0
0
0
0
0
2
1
2
0
0
1
0
1
1
3
4
1
0
1
0
0
0
2
0
1
0
1
1
2
0
1
2
1
1
0
3
2
0
1
4
0
1
1
0
2
0
0
0
0
1
2
1
2
2
1
2
2
1
1
1
3
1
2
0
1
1
2
0
0
1
1
3
5
1
2
2
1
3
2
2
3
1
3
3
3
1
2
2
4
5
2
6
4
5
3
3
3
2
3
5
5
4
4
4
4
4
8
3
8
4
6
3
2
9
4
8
2
9
6
7
5
7
7
6
5
13
5
6
8
7
5
3
12
8
6
6
5
6
5
7
6
7
5
1
6
11
3
2
9
10
8
9
6
5
3
6
4
7
7
7
6
8
5
6
4
6
5
2
4
7
5
3
7
3
7
6
6
3
6
3
7
2
6
2
1
1
3
3
5
1
2
3
3
4
3
2
2
0
2
4
2
3
0
2
2
1
4
3
2
3
1
3
2
2
1
2
0
3
2
0
4
0
1
3
0
2
0
3
0
0
0
2
1
1
0
0
1
1
1
0
0
0
0
1
1
0
1
3
1
0
2
1
1
0
1
2
1
0
1
0
1
1
0
0
1
1
1
1
0
0
3
3
0
1
1
1
0
1
0
0
1
0
3
0
1
0
0
1
0
0
0
1
1
0
1
0
0
1
0
0
0
0
2
0
1
0
0
1
1
0
0
0
0
1
0
1
1
0
0
0
0
0
0
0
2
1
2
0
1
0
1
1
1
0
1
0
2
0
1
0
1
1
1
2
0
0
0
2
2
0
1
0
1
0
0
0
0
0
0
0
1
0
2
1
0
0
1
1
1
1
0
0
0
0
2
0
1
0
0
2
1
1
1
0
0
0
0
1
1
0
1
1
1
0
0
2
0
1
0
0
0
2
0
3
0
0
1
0
1
1
1
0
1
0
0
0
1
0
0
0
0
0
0
0
0
0
0
1
0
1
1
1
1
0
1
1
0
2
0
0
1
2
0
3
1
1
0
1
0
1
1
1
0
1
0
1
0
3
1
0
0
0
0
1
0
0
2
0
2
1
1
2
1
0
3
1
1
0
0
2
1
1
0
0
0
2
0
1
0
1
0
1
1
2
1
2
0
1
0
1
2
2
1
0
0
0
1
1
0
0
0
1
2
2
0
0
0
0
0
0
1
1
0
2
0
1
0
0
1
1
0
2
1
2
0
0
1
0
0
0
2
0
0
0
0
4
1
0
1
0
0
0
0
1
0
0
0
1
1
1
0
1
0
0
0
1
1
0
1
0
0
1
0
2
0
0
1
0
0
1
1
0
2
0
0
0
2
0
0
0
2
2
0
0
1
0
0
1
1
0
1
0
0
1
0
0
0
0
0
0
1
1
0
0
1
0
1
0
0
0
0
0
1
1
0
0
0
0
1
0
0
1
1
1
1
1
4
0
1
1
3
0
0
1
1
0
1
1
0
1
3
0
0
1
0
0
2
1
1
2
0
0
0
0
0
2
0
1
1
1
2
0
1
0
1
0
0
1
0
5
0
2
3
0
0
0
1
0
0
0
1
0
0
0
2
0
0
0
0
0
0
0
0
0
0
2
0
0
0
0
0
0
1
0
0
0
0
0
2
1
1
0
3
0
2
1
1
0
1
0
0
0
0
1
0
0
0
1
0
0
0
1
1
0
0
1
0
0
1
0
1
0
0
1
0
1
1
1
0
1
2
0
0
0
0
0
0
0
0
0
1
2
0
1
2
0
1
0
2
0
1
1
0
1
0
0
1
1
0
0
0
1
0
0
0
0
1
1
0
0
0
0
0
0
1
0
0
1
1
2
0
1
0
0
0
1
2
0
0
1
1
2
0
1
0
0
0
0
0
0
2
2
1
2
1
0
0
0
0
0
0
0
1
0
0
0
2
0
0
2
0
0
0
0
0
0
0
1
0
0
0
1
1
1
2
1
0
0
0
0
0
1
1
0
0
0
1
0
1
1
1
1
0
0
2
0
1
1
0
0
0
1
0
0
0
0
0
1
3
0
0
0
0
0
0
0
0
0
1
0
0
0
0
1
0
0
0
1
2
0
1
1
0
0
0
1
0
1
1
0
0
0
0
0
0
0
0
0
1
0
2
0
0
0
0
0
0
0
0
1
2
0
1
1
1
0
0
0
0
1
2
0
1
0
0
1
0
0
1
1
0
2
0
0
0
1
0
1
2
0
1
0
0
1
0
1
0
0
1
1
0
1
2
0
1
0
1
0
0
1
1
0
1
0
1
0
0
0
2
0
0
0
0
0
0
0
0
0
0
1
1
0
0
0
0
1
0
0
0
1
0
0
1
0
0
0
0
1
2
2
0
1
1
0
1
0
0
0
0
0
0
0
0
2
1
1
1
0
0
1
2
2
0
0
0
0
0
0
0
1
1
1
0
1
0
1
0
0
1
0
0
2
0
0
0
0
0
0
3
0
0
1
0
2
0
1
0
1
0
1
2
1
0
0
0
1
2
0
0
1
0
0
0
1
1
1
0
0
0
0
0
0
0
0
0
0
0
0
0
0
0
0
1
2
1
2
0
1
0
0
0
1
2
0
2
0
0
0
1
1
0
1
0
0
0
1
0
2
0
1
0
0
0
0
0
1
1
2
1
0
0
1
2
0
0
1
1
0
2
0
0
2
0
2
0
1
0
1
0
2
0
0
0
0
0
0
0
0
0
0
0
0
2
1
0
0
2
1
0
0
1
0
0
0
0
1
1
0
1
0
0
0
0
0
2
2
1
1
2
0
0
1
0
0
2
0
0
0
1
0
1
1
0
0
1
1
0
0
1
0
0
0
0
1
2
0
0
1
2
1
0
0
0
2
0
0
0
1
0
1
1
1
2
0
1
0
1
1
1
1
1
0
0
0
0
1
0
0
0
3
1
3
0
0
1
0
0
0
1
0
1
2
1
1
1
2
0
1
1
0
0
2
0
1
1
0
2
1
0
0
0
0
2
0
0
2
1
2
0
0
0
0
1
0
1
0
0
1
2
0
0
0
1
1
0
0
0
1
1
1
1
0
0
0
1
1
0
1
0
1
1
2
1
0
1
3
0
1
2
1
1
0
1
2
4
0
1
0
0
0
1
1
0
1
0
0
0
1
3
1
0
1
3
3
1
1
0
0
0
0
2
2
0
1
1
1
1
0
0
1
0
1
0
1
0
0
2
1
1
0
1
0
0
1
2
0
1
0
1
0
1
2
1
2
1
0
2
2
0
2
0
2
0
0
1
0
1
2
0
0
2
0
1
1
3
1
1
2
3
1
1
0
0
0
4
0
0
2
0
1
2
2
1
3
2
3
2
0
1
0
1
2
2
2
1
1
0
1
0
3
2
2
1
2
0
2
4
1
0
3
1
1
0
1
2
0
1
1
1
1
2
1
0
1
2
1
1
2
1
1
4
1
0
1
0
3
0
1
0
2
0
1
0
0
1
0
0
0
1
1
1
0
2
2
2
1
6
1
2
2
1
0
2
1
1
0
2
4
0
1
0
2
1
2
0
2
0
0
0
1
2
1
4
3
0
0
4
0
0
0
0
0
0
1
2
2
2
1
0
0
3
1
3
4
1
1
1
0
1
0
3
2
1
2
1
2
0
0
2
0
1
2
1
2
1
0
2
2
1
1
2
2
2
4
2
2
0
1
2
1
3
1
2
1
1
2
3
3
2
1
2
2
0
0
3
6
1
0
2
1
2
0
3
4
1
2
2
1
3
5
4
3
3
2
1
3
4
4
6
1
1
1
2
1
2
5
0
4
0
2
8
4
3
1
2
3
2
3
3
2
1
5
4
2
3
5
3
6
2
9
1
1
5
2
4
5
2
6
4
4
10
7
6
3
7
5
6
4
10
6
7
5
4
5
11
7
5
11
16
10
9
12
9
9
11
8
13
8
14
15
19
29
19
22
17
22
26
27
31
33
26
32
42
29
48
54
39
57
53
51
61
46
63
61
76
55
84
77
92
79
80
100
74
99
109
88
102
110
98
101
112
103
109
101
116
89
98
125
90
86
90
93
76
75
79
83
69
66
83
70
56
59
56
50
51
33
44
49
40
37
29
32
25
20
24
19
12
19
12
19
8
10
7
10
10
5
8
6
7
10
10
3
11
9
6
5
7
5
11
5
8
10
5
6
7
12
7
10
15
4
10
10
9
10
17
12
22
10
10
16
17
12
13
14
13
21
17
17
17
20
18
19
11
23
23
28
18
31
30
29
30
21
28
18
37
38
38
31
28
37
48
47
50
57
65
58
68
61
78
88
92
100
84
111
130
137
128
168
152
175
197
224
211
224
245
247
6
16777222
16777276
16777293
16777255
16777281
16777272
16777344
16777299
16777291
16777317
16777320
16777317
16777314
16777287
16777301
16777274
16777298
16777281
16777290
16777286
16777262
16777258
16777224
16777463
231
216
190
205
177
163
167
130
120
107
118
91
75
74
61
59
51
43
33
34
24
20
16
18
11
7
11
7
7
5
4
4
4
2
2
2
1
0
1
0
0
0
1
1
0
0
0
0
0
0
0
0
0
0
0
0
0
0
0
0
0
0
0
0
0
0
0
0
0
0
0
0
0
0
0
0
0
0
0
0
0
0
0
0
0
0
0
0
0
0
0
0
0
0
0
0
0
0
0
0
0
0
0
0
0
0
0
0
0
0
0
0
0
0
0
0
0
0
0
0
0
0
0
0
0
0
0
0
0
0
0
0
0
0
0
0
0
0
0
0
0
0
0
0
0
0
0
0
0
0
0
0
0
0
0
0
0
0
0
0
0
0
0
0
0
0
0
0
0
0
0
0
0
0
0
0
0
0
0
0
0
0
0
0
0
1
0
0
0
0
0
0
0
0
0
0
0
0
0
0
0
0
0
0
0
0
0
0
0
0
0
0
0
0
0
0
0
0
0
0
0
0
0
0
0
0
0
0
0
0
0
0
0
0
0
0
0
0
0
0
0
0
0
0
0
0
0
0
0
0
0
0
0
0
0
0
0
0
0
0
0
0
0
0
0
0
0
0
0
0
0
0
0
0
0
0
0
0
0
0
0
0
0
0
0
0
0
0
0
0
0
0
0
0
0
0
0
0
0
0
0
0
0
0
0
0
0
0
0
0
0
0
0
0
0
0
0
0
0
0
0
0
0
0
0
0
0
0
0
0
0
0
0
0
0
0
0
0
0
0
0
0
0
0
0
0
0
0
0
0
0
0
0
0
0
0
0
0
0
0
0
0
0
0
0
0
0
0
0
0
0
0
0
0
0
0
0
0
0
0
0
0
0
0
0
0
0
0
0
0
0
0
0
0
0
0
0
0
0
0
0
1
0
0
0
0
0
0
0
0
0
0
0
0
0
0
0
0
0
0
0
0
0
0
0
0
0
0
0
0
0
0
0
0
0
0
0
0
0
0
0
0
0
0
0
0
0
0
0
0
0
0
0
0
0
0
0
0
0
0
0
0
0
0
0
0
0
0
0
0
0
0
0
0
0
0
0
0
0
0
0
0
0
0
0
0
0
0
0
0
0
0
0
0
0
0
0
0
0
1
0
0
0
0
0
0
0
0
0
0
0
0
0
0
0
0
0
0
0
0
0
0
0
0
0
0
0
0
0
0
0
0
0
0
0
0
0
0
0
0
0
0
0
0
0
0
0
0
0
0
0
0
0
0
0
0
0
0
0
0
0
0
0
0
0
0
0
0
0
0
0
0
0
0
0
0
0
0
0
0
0
0
0
0
0
0
0
0
0
0
0
0
0
0
0
0
0
0
1
0
0
0
0
0
0
0
0
0
0
0
0
0
0
0
0
0
0
0
0
0
0
0
0
0
0
0
0
0
0
0
0
0
0
0
0
0
0
0
0
0
0
0
1
0
0
0
0
0
0
0
0
0
0
0
0
0
0
0
0
0
0
0
0
0
0
0
0
0
0
0
0
0
0
0
0
0
0
0
0
0
0
0
0
0
0
0
0
0
0
0
0
0
0
0
0
0
0
0
0
0
0
0
0
0
0
0
0
0
0
0
0
0
0
0
0
0
0
0
0
0
0
0
0
0
0
0
0
0
0
0
0
0
0
0
0
0
0
0
0
0
0
0
0
0
0
0
0
0
0
0
0
0
0
0
0
0
0
0
0
0
0
0
0
0
0
0
0
0
0
0
0
0
0
0
0
0
0
0
0
0
0
0
0
0
0
0
0
0
0
0
0
0
0
0
0
0
0
0
0
0
0
0
0
0
0
0
0
0
0
0
0
0
0
0
0
0
0
0
0
0
0
0
0
0
0
0
0
0
0
0
0
0
0
0
0
0
0
0
0
0
0
0
0
0
0
0
0
0
0
0
0
0
0
0
0
0
0
0
0
0
0
0
0
0
0
0
0
0
0
0
0
0
0
0
0
0
0
0
0
0
0
0
0
0
0
0
0
0
0
0
0
0
0
0
0
0
0
0
0
0
0
0
0
0
0
0
0
0
0
0
0
0
0
0
0
0
0
0
0
0
0
0
0
0
0
0
0
0
0
0
0
0
0
0
0
0
0
0
0
0
0
0
0
0
0
0
0
0
0
0
0
0
0
0
0
0
0
0
0
0
0
0
0
0
0
0
0
0
0
0
0
0
0
0
0
0
0
0
0
0
0
0
0
0
0
0
0
0
0
0
0
0
0
0
0
0
0
0
0
0
0
0
0
0
0
0
0
0
0
0
0
0
0
0
0
0
0
0
0
0
0
0
0
0
0
0
0
0
0
0
0
0
0
0
0
0
0
0
0
0
0
0
0
0
0
0
0
0
0
0
0
0
0
0
0
0
0
0
0
0
0
0
0
0
0
0
0
0
0
0
0
0
0
0
0
0
0
0
0
0
0
0
0
0
0
0
0
0
0
0
0
0
0
0
0
0
0
0
0
0
0
0
0
0
0
0
0
0
0
0
0
0
0
0
0
0
0
0
0
0
0
0
0
0
0
0
0
0
0
0
0
0
0
0
0
0
0
0
0
0
0
0
0
0
0
0
0
0
0
0
0
0
0
0
0
0
0
0
0
0
0
0
0
0
0
0
0
0
0
0
0
0
0
0
0
0
0
0
0
0
0
0
0
0
0
0
0
0
0
0
0
0
0
0
0
0
0
0
0
0
0
0
0
0
0
0
0
0
0
0
0
0
0
0
0
0
0
0
0
0
0
0
0
0
0
0
0
0
0
0
0
0
0
0
0
0
0
0
0
0
0
0
0
0
0
0
0
0
0
0
0
0
0
0
0
0
0
0
0
0
0
0
0
0
0
0
0
0
0
0
0
0
0
0
0
0
0
0
0
0
0
0
0
0
0
0
0
0
0
0
0
0
0
0
0
0
0
0
0
0
0
0
0
0
0
0
0
0
0
0
0
0
0
0
0
0
0
0
0
0
0
0
0
0
0
0
0
0
0
0
0
0
0
0
0
0
0
0
0
0
0
0
0
0
0
0
0
0
0
0
0
0
0
0
0
0
0
0
0
0
0
0
0
0
0
0
0
0
0
0
0
0
0
0
0
0
0
0
0
0
0
0
0
0
0
0
0
0
0
0
0
0
0
0
0
0
0
0
0
0
0
0
0
0
0
0
0
0
0
0
0
0
0
0
0
0
0
0
0
0
0
0
0
0
0
0
0
0
0
0
0
0
0
0
0
0
0
0
0
0
0
0
0
0
0
0
0
0
0
0
0
0
0
0
0
0
0
0
0
0
0
0
0
0
0
0
0
0
0
0
0
0
0
0
0
0
0
0
0
0
0
0
0
0
0
0
0
0
0
0
0
0
0
0
0
0
0
0
0
0
0
0
0
0
0
0
0
0
0
0
0
0
0
0
0
0
0
0
0
0
0
0
0
0
0
0
0
0
0
0
0
0
0
0
0
0
0
0
0
0
0
0
0
0
0
0
0
0
0
0
0
0
0
0
0
0
0
0
0
0
0
0
0
0
0
0
0
0
0
0
0
0
0
0
0
0
0
0
0
0
0
0
0
0
0
0
0
0
0
0
0
0
0
0
0
0
0
0
0
0
0
0
0
0
0
0
0
0
0
0
0
0
0
0
0
0
0
0
0
0
0
0
0
0
0
0
0
0
0
0
0
0
0
0
0
0
0
0
0
0
0
0
0
0
0
0
0
0
0
0
0
0
0
0
0
0
0
0
0
0
0
0
0
0
0
0
0
0
0
0
0
0
0
0
0
0
0
0
0
0
0
0
0
0
0
0
0
0
0
0
0
0
0
0
0
0
0
0
0
0
0
0
0
0
0
0
1
0
0
0
0
0
0
0
0
0
0
0
0
0
0
0
0
0
0
0
0
0
0
0
0
0
0
0
0
0
0
0
0
0
0
0
0
0
0
0
0
0
0
0
0
0
0
0
0
0
0
0
0
0
0
0
0
0
0
0
0
0
0
0
0
0
0
0
0
0
0
0
0
0
0
0
0
0
0
0
0
0
0
0
0
0
0
0
0
0
0
0
0
0
0
0
0
0
0
0
0
0
0
0
0
0
0
0
0
0
0
0
0
0
0
0
0
0
0
0
0
0
0
0
0
0
0
0
0
0
0
0
0
0
0
0
0
0
0
0
0
0
0
0
0
0
0
0
0
0
0
0
0
0
0
0
0
0
0
0
0
0
0
0
0
0
0
0
0
0
0
0
0
0
0
0
0
0
0
0
0
0
0
0
0
0
0
0
0
0
0
0
0
0
0
0
0
0
0
0
0
0
0
0
0
0
0
0
0
0
0
0
0
0
0
0
0
0
0
0
0
0
0
0
0
0
0
0
0
0
0
0
0
0
0
0
0
0
0
0
0
0
0
0
0
0
0
0
0
0
0
0
0
0
0
0
0
0
0
0
0
0
0
0
0
0
0
0
0
0
0
0
0
0
0
0
0
0
0
0
0
0
0
0
0
0
0
0
0
0
0
0
0
0
0
0
0
0
0
0
0
0
0
0
0
0
0
0
0
0
0
0
0
0
0
0
0
0
0
0
0
0
0
0
0
0
0
0
0
0
0
0
0
0
0
0
0
0
0
0
0
0
0
0
0
0
0
0
0
0
0
0
0
0
0
0
0
0
0
0
0
0
0
0
0
0
0
0
0
0
0
0
0
0
0
0
0
0
0
0
0
0
0
0
0
0
0
0
0
0
0
0
0
0
0
0
0
0
0
0
0
0
0
0
0
0
0
0
0
0
0
0
0
0
0
0
0
0
0
0
0
0
0
0
0
0
0
0
0
0
0
0
0
0
0
0
0
0
0
0
0
0
0
0
0
0
0
0
0
0
0
0
0
0
0
0
0
0
0
0
0
0
0
0
0
0
0
0
0
0
0
0
0
0
0
0
0
0
0
0
0
0
0
0
0
0
0
0
1
0
0
0
0
0
0
0
0
0
0
0
0
0
0
0
0
0
0
0
0
0
0
0
0
0
0
0
0
0
0
0
0
0
0
0
0
0
0
0
0
0
0
0
0
0
0
0
0
0
0
0
0
0
0
0
0
0
0
0
0
0
0
0
0
0
0
0
0
0
0
0
0
0
0
0
0
0
0
0
0
0
0
0
0
0
0
0
0
0
0
0
0
0
0
0
0
0
0
0
0
0
0
0
0
0
0
0
0
0
0
0
0
0
0
0
0
0
0
0
0
0
0
0
0
0
0
0
0
0
0
0
0
0
0
0
0
0
0
0
0
0
0
0
0
0
0
0
0
0
0
0
0
0
0
0
0
0
0
0
0
0
0
0
0
0
0
0
0
0
0
0
0
0
0
0
0
0
0
0
0
0
0
0
0
0
0
0
0
0
0
0
0
0
0
0
0
0
0
0
0
0
0
0
0
0
0
0
0
0
0
0
0
0
0
0
0
0
0
0
0
0
0
0
0
0
0
0
0
0
0
0
0
0
0
0
0
0
0
0
0
0
0
0
0
0
0
0
0
0
0
0
0
0
0
0
0
0
0
0
0
0
0
0
0
0
0
0
0
0
0
0
0
0
0
0
0
0
0
0
0
0
0
0
0
0
0
0
0
0
0
0
0
0
0
0
0
0
0
0
0
0
0
0
0
0
0
0
0
0
0
0
0
0
0
0
0
0
0
0
0
0
0
0
0
0
0
0
0
0
0
0
0
0
0
0
0
0
0
0
0
0
0
0
0
0
0
1
0
0
0
0
0
0
0
0
0
0
0
0
0
0
0
0
0
0
0
0
0
0
0
0
0
0
0
0
0
0
0
0
0
0
0
0
0
0
0
0
0
0
0
0
0
0
0
0
0
0
0
0
0
0
0
0
0
0
0
0
0
0
0
0
0
0
0
0
0
0
0
0
0
0
0
0
0
0
0
0
0
0
0
0
0
0
0
0
0
0
0
0
0
0
0
0
0
0
0
0
0
0
0
0
0
0
0
0
0
0
0
0
0
0
0
0
0
0
0
0
0
0
0
0
0
0
0
0
0
0
0
0
0
0
0
0
0
0
0
0
0
0
0
0
0
0
0
0
0
0
0
0
0
0
0
0
0
0
0
0
0
0
0
0
0
0
0
0
0
0
0
0
0
0
0
0
0
0
0
0
0
0
0
0
0
0
0
0
0
0
0
0
0
0
0
0
0
0
0
0
0
0
0
0
0
0
0
0
0
0
0
0
0
0
0
0
0
0
0
0
0
0
0
0
0
0
0
0
0
0
0
0
0
0
0
0
0
0
0
0
0
0
0
0
0
0
0
0
0
0
0
0
0
0
0
0
0
0
0
0
0
0
0
0
0
0
0
0
0
0
0
0
0
0
0
0
0
0
0
0
0
0
0
0
0
0
0
0
0
0
0
0
0
0
0
0
0
0
0
0
0
0
0
0
0
0
0
0
1
0
0
0
0
0
0
0
0
0
0
0
0
0
0
0
0
0
0
0
0
0
0
0
0
0
0
0
0
0
0
0
0
0
0
0
0
0
0
0
0
0
0
0
0
0
0
0
0
0
0
0
0
0
0
0
0
0
0
0
0
0
0
0
0
0
0
0
0
0
0
0
0
0
0
0
0
0
0
0
0
0
0
0
0
0
0
0
0
0
0
0
0
0
0
0
0
0
0
0
0
0
0
0
0
0
0
0
0
0
0
0
0
0
0
0
0
0
0
0
0
0
0
0
0
0
0
0
0
0
0
0
0
0
0
0
0
0
0
0
0
0
0
0
0
0
0
0
0
0
0
0
0
0
0
0
0
0
0
0
0
0
0
0
0
0
0
0
0
0
0
0
0
0
0
0
0
0
0
0
0
0
0
0
0
0
0
0
0
0
0
0
0
0
0
0
0
0
0
0
0
0
0
0
0
0
0
0
0
0
0
0
0
0
0
0
0
0
0
0
0
0
0
0
0
0
0
0
0
0
0
0
0
0
0
0
0
0
0
0
0
0
0
0
0
0
0
0
0
0
0
0
0
0
0
0
0
0
0
0
0
0
0
0
0
0
0
0
0
0
0
0
0
0
0
0
0
0
0
0
0
0
0
0
0
0
0
0
0
0
0
0
0
0
0
0
0
0
0
0
0
0
0
0
0
0
0
0
0
0
0
0
0
0
0
0
0
0
0
0
0
0
0
0
0
0
0
0
0
0
0
0
0
0
0
0
0
0
0
0
0
0
0
0
0
0
0
0
0
0
0
0
0
0
0
0
0
0
0
0
0
0
0
0
0
0
0
0
0
0
0
0
0
0
0
0
0
0
0
0
0
0
0
0
0
0
0
0
0
0
0
0
0
0
0
0
0
0
0
0
0
0
0
0
0
0
0
0
0
0
0
0
0
0
0
0
0
0
0
0
0
0
0
0
0
0
0
0
0
0
0
0
0
0
0
0
0
0
0
0
0
0
0
0
0
0
0
0
0
0
0
0
0
0
0
0
0
0
0
0
0
0
0
0
0
0
0
0
0
0
0
0
0
0
0
0
0
0
0
0
0
0
0
0
0
0
0
0
0
0
0
0
0
0
0
0
0
0
0
0
0
0
0
0
0
0
0
0
0
0
0
0
0
0
0
0
0
0
0
0
0
0
0
0
0
0
0
0
0
0
0
0
0
0
0
0
0
0
0
0
0
0
0
0
0
0
0
0
0
0
0
0
0
0
0
0
0
0
0
0
0
0
0
0
0
0
0
0
0
0
0
0
0
0
0
0
0
0
0
0
0
0
0
0
0
0
0
0
0
0
0
0
0
0
0
0
0
0
0
0
0
0
0
0
0
0
0
0
0
0
0
0
0
0
0
0
0
0
0
0
0
0
0
0
0
0
0
0
0
0
0
0
0
0
0
0
0
0
0
0
0
0
0
0
0
0
0
0
0
0
0
0
0
0
0
0
0
0
0
0
0
0
0
0
0
0
0
0
0
0
0
0
0
0
0
0
0
0
0
0
0
0
0
0
0
0
0
0
0
0
0
0
0
0
0
0
0
0
0
0
0
0
0
0
0
0
0
0
0
0
0
0
0
0
0
0
0
0
0
0
0
0
0
0
0
0
0
0
0
0
0
0
0
0
0
0
0
0
0
0
0
0
0
0
0
0
0
0
0
0
0
0
0
0
0
0
0
0
0
0
0
0
0
0
0
0
0
0
0
0
0
0
0
0
0
0
0
0
0
0
0
0
0
0
0
0
0
0
0
0
0
0
0
0
0
0
0
0
0
0
0
0
0
0
0
0
0
0
0
0
0
0
0
0
0
0
0
0
0
0
0
0
0
0
0
0
0
0
0
0
0
0
0
0
0
0
0
0
0
0
0
0
0
0
0
0
0
0
0
0
0
0
0
0
0
0
0
0
0
0
0
0
0
0
0
0
0
0
0
0
0
0
0
0
0
0
0
0
0
0
0
0
0
0
0
0
0
0
0
0
0
0
0
0
0
0
0
0
0
0
0
0
0
0
0
0
0
0
0
0
0
0
0
0
0
0
0
0
0
0
0
0
0
0
0
0
0
0
0
0
0
0
0
0
0
0
0
0
0
0
0
0
0
0
0
0
0
1
0
0
0
0
0
0
0
0
0
0
0
0
0
