0
0
0
0
0
0
0
0
0
0
0
0
0
0
0
0
0
0
0
0
0
0
0
0
0
0
0
0
0
0
0
0
0
0
0
0
0
0
0
0
0
0
0
0
0
0
0
0
0
0
0
0
0
0
0
0
0
0
0
0
0
0
0
0
0
0
0
0
0
0
0
0
0
0
0
0
0
0
0
0
0
0
0
0
0
0
0
0
0
0
0
0
0
0
0
0
0
0
0
0
0
0
0
0
0
0
0
0
0
0
0
0
0
0
0
0
0
0
0
0
0
0
0
0
0
0
0
0
0
0
0
0
0
0
0
0
0
0
0
0
0
0
0
0
0
0
0
0
0
0
0
0
0
0
0
0
0
0
0
0
0
0
0
0
0
0
0
0
0
0
0
0
0
0
0
0
0
0
0
0
0
0
0
0
0
0
0
0
0
0
0
0
0
0
0
0
0
0
0
0
0
0
0
0
0
0
0
0
0
0
0
0
0
0
0
0
0
0
0
0
0
0
0
0
0
0
0
0
0
0
0
0
0
0
0
0
0
0
0
0
0
0
0
0
0
0
0
0
0
0
0
0
0
0
0
0
0
0
0
0
0
0
0
0
0
0
0
0
0
0
0
0
0
0
0
0
0
0
0
0
0
0
0
0
0
0
0
0
0
0
0
0
0
0
0
0
0
0
0
0
0
0
0
0
0
0
0
0
0
0
0
0
0
0
0
0
0
0
0
0
0
0
0
0
0
0
0
0
0
0
0
0
0
0
0
0
0
0
0
0
0
0
0
0
0
0
0
0
0
0
0
0
0
0
0
0
0
0
0
0
0
0
0
0
0
0
0
0
0
0
0
0
0
0
0
0
0
0
0
0
0
0
0
0
0
0
0
0
0
0
0
0
0
0
0
0
0
0
0
0
0
0
0
0
0
0
0
0
0
0
0
0
0
0
0
0
0
0
0
0
0
0
0
0
0
0
0
0
0
0
0
0
0
0
0
0
0
0
0
0
0
0
0
0
1
1
2
0
0
0
0
1
2
0
1
0
1
1
0
1
0
0
0
0
2
1
0
0
0
0
0
1
0
0
0
1
0
0
1
0
1
1
0
3
0
0
0
2
0
0
0
1
0
1
1
0
3
0
0
0
1
0
1
0
1
0
0
0
1
1
3
0
0
1
1
2
1
0
2
0
0
2
0
1
0
1
1
3
0
1
0
2
0
1
1
1
0
2
2
1
1
0
0
1
0
0
0
1
1
2
0
1
0
0
1
0
1
0
1
0
1
3
0
0
0
2
0
0
1
0
0
0
2
0
0
0
1
1
1
0
0
2
1
0
1
0
0
2
1
0
1
0
2
0
2
1
2
2
1
1
0
0
0
1
1
1
2
2
1
1
0
0
2
0
1
2
1
0
2
1
0
1
1
2
0
1
3
3
1
1
1
0
2
0
1
1
0
2
2
2
0
1
1
1
1
0
0
2
0
0
1
0
2
0
1
0
0
0
0
0
1
0
0
0
0
0
1
1
2
1
0
3
0
0
0
0
1
0
1
1
1
1
0
1
2
1
0
0
1
0
2
1
1
0
0
0
1
1
1
1
0
1
2
2
1
1
0
1
0
0
0
0
1
0
0
0
3
1
0
0
0
0
0
0
0
1
0
1
0
1
1
1
3
1
1
0
0
1
1
1
2
0
1
0
0
0
2
0
2
3
2
1
0
0
0
0
1
1
1
0
0
0
1
1
2
1
0
0
1
0
0
0
1
1
0
1
3
0
0
0
1
0
0
0
0
0
0
1
1
1
1
1
5
0
1
2
0
0
1
2
0
1
0
2
0
0
1
2
4
0
0
0
0
2
0
1
0
0
0
0
0
0
1
1
0
1
1
1
1
0
1
1
3
0
3
0
0
1
3
0
0
1
0
0
0
0
0
2
2
1
0
0
0
1
0
1
0
2
1
1
1
0
0
0
0
3
1
0
1
0
1
0
3
0
0
0
0
0
0
0
1
0
0
1
0
0
0
1
2
0
2
2
0
0
0
0
1
0
0
2
0
0
1
0
1
0
1
1
0
1
2
0
0
1
1
0
1
1
0
0
0
0
0
0
0
1
1
0
1
0
1
2
1
0
1
0
2
3
1
0
0
0
1
0
1
0
2
1
1
0
2
0
1
0
1
0
1
0
0
1
0
0
0
2
1
0
1
1
0
0
0
0
1
1
0
0
0
1
0
1
1
0
0
0
1
0
1
2
0
1
0
0
3
1
0
0
2
0
1
0
0
0
0
0
0
0
0
1
0
2
1
1
1
0
1
1
1
1
1
1
0
0
0
0
0
1
2
0
0
0
1
0
1
0
0
0
1
2
0
0
1
1
0
0
1
1
0
3
1
0
2
0
1
0
0
0
0
0
0
1
1
0
0
0
0
0
0
0
0
0
0
1
1
0
0
0
1
1
0
0
0
0
0
0
0
1
1
1
1
0
2
1
0
0
0
1
0
0
0
2
1
0
1
1
1
0
0
0
0
0
0
0
0
0
1
0
0
2
1
1
1
0
0
1
0
1
0
1
0
0
1
0
1
1
2
0
1
0
1
0
1
0
0
0
1
0
1
1
1
1
1
1
1
1
0
0
1
0
1
2
0
0
0
0
0
0
1
1
0
0
0
1
0
0
0
0
2
1
0
1
1
0
1
1
2
0
0
0
0
0
0
1
0
0
0
0
1
0
1
1
0
0
0
1
0
1
0
0
0
2
0
1
1
0
0
0
0
0
1
1
0
0
1
1
0
0
0
0
1
1
1
0
0
0
0
1
0
0
0
0
1
0
1
0
0
0
0
0
0
0
0
1
0
0
1
0
0
0
0
1
1
0
1
2
1
0
1
1
0
1
0
0
0
0
1
0
0
1
0
0
1
1
0
0
2
0
1
0
0
2
0
1
1
0
1
0
0
0
0
0
0
0
2
1
0
1
1
0
1
1
0
0
0
0
0
1
0
1
1
0
0
1
0
0
0
0
0
0
1
0
0
0
2
0
0
0
0
0
0
0
0
0
0
0
0
1
0
0
1
0
0
0
2
0
1
0
0
0
0
1
0
0
2
1
1
0
0
1
1
0
0
0
0
2
0
1
1
0
0
0
0
0
0
0
0
0
0
0
0
0
0
0
1
0
0
0
0
1
1
0
1
1
0
2
2
1
1
1
1
1
0
0
0
0
1
0
1
1
1
1
2
0
1
0
0
0
1
0
0
0
1
0
1
1
0
0
0
0
0
0
0
0
1
1
0
1
0
0
1
1
2
1
0
0
0
0
0
0
0
0
2
0
0
1
1
0
1
1
1
0
2
2
2
1
1
1
0
0
0
2
1
1
0
0
0
1
0
1
0
1
2
0
0
3
0
1
0
0
1
2
1
0
0
0
0
1
1
0
1
1
0
1
0
0
0
1
0
0
0
0
0
0
1
0
0
0
0
1
0
0
2
0
0
0
0
0
1
0
0
2
0
0
1
1
2
0
0
0
0
0
2
2
0
2
0
0
1
0
1
0
0
0
1
0
0
0
0
0
1
0
3
0
0
1
0
0
2
2
0
0
2
0
0
0
0
0
0
0
0
1
0
1
0
0
0
0
0
0
0
1
0
0
0
0
0
2
1
0
1
0
0
0
1
0
0
0
0
0
0
1
0
1
2
1
0
1
0
0
1
0
0
1
0
0
0
0
1
1
0
2
1
0
1
0
2
0
0
0
0
2
0
0
0
0
1
1
1
0
2
0
0
0
1
1
0
1
1
1
2
0
1
1
1
0
0
0
0
1
0
1
0
1
0
1
1
0
0
1
0
0
1
0
0
0
0
0
0
1
0
0
0
0
1
0
1
0
1
2
0
2
0
0
0
0
0
0
0
0
1
0
2
0
1
0
1
1
1
0
0
0
1
1
1
1
0
0
0
0
0
0
0
0
0
0
0
0
0
2
0
1
0
0
0
0
1
0
0
1
0
0
0
0
0
2
0
0
0
0
0
0
0
0
2
2
0
0
0
0
0
1
1
2
1
1
0
0
0
1
0
0
0
0
1
0
0
0
0
3
0
1
1
0
0
0
0
0
0
0
3
1
0
0
1
1
1
1
1
0
1
1
0
0
0
0
1
1
0
0
0
0
0
1
1
0
1
1
0
0
0
1
0
0
1
1
0
0
0
0
0
1
0
0
0
1
0
1
0
0
1
0
1
0
0
0
0
0
1
0
1
1
1
0
0
0
0
0
1
2
2
0
1
1
1
0
0
1
0
2
0
0
1
0
0
2
0
1
0
0
0
0
0
0
1
0
0
0
1
2
0
1
1
1
1
0
0
1
0
0
1
2
1
0
0
1
0
0
2
0
1
1
0
0
0
1
0
1
0
1
1
0
1
0
0
1
0
0
0
0
1
0
1
0
0
0
0
1
0
0
0
0
0
0
0
0
0
0
1
1
0
0
0
0
0
0
1
0
0
2
1
0
0
1
0
1
0
1
0
0
0
1
0
1
2
1
2
0
0
0
0
0
0
0
0
0
0
1
0
2
1
0
0
0
0
0
0
0
0
0
0
0
0
0
1
1
0
0
1
0
0
0
2
0
0
1
0
1
1
0
1
0
0
0
0
1
1
0
0
1
0
0
0
0
1
0
0
1
0
0
1
0
0
1
0
0
0
2
0
1
1
0
0
0
0
0
1
1
0
0
0
0
0
0
0
0
0
1
0
1
0
0
0
0
1
0
1
0
0
0
0
0
0
0
2
0
0
0
1
1
2
0
0
0
1
0
2
1
0
0
1
1
2
0
2
0
0
0
1
0
1
0
0
1
0
1
0
0
0
0
0
0
0
0
0
1
0
0
1
0
0
0
0
1
0
0
1
0
0
2
0
0
2
0
0
0
2
0
0
1
0
0
0
0
0
0
0
0
1
1
1
0
0
0
0
0
1
0
0
1
0
0
2
1
0
0
0
0
2
0
1
0
0
2
0
2
0
0
0
1
1
0
0
0
0
0
0
1
0
0
0
1
0
1
0
0
1
1
0
0
0
1
0
0
0
1
2
0
0
1
1
0
0
1
0
0
1
2
0
1
0
1
0
0
1
1
0
0
0
0
0
0
0
1
0
1
2
0
0
0
1
0
0
0
0
0
0
0
2
0
0
0
0
0
0
1
1
0
0
0
0
0
0
0
0
0
0
0
0
1
0
0
0
0
1
0
0
1
0
0
1
0
0
0
0
0
0
1
1
0
0
1
0
2
0
1
0
1
0
0
1
0
0
0
0
0
0
0
0
0
0
1
1
0
0
0
2
0
1
0
1
0
0
0
0
0
0
0
1
0
2
0
1
1
1
0
0
0
2
0
0
0
0
0
0
0
0
0
0
0
0
0
1
1
0
1
1
1
0
0
0
0
0
0
1
0
0
2
0
0
0
0
1
0
0
0
1
0
0
0
0
0
0
0
1
0
0
1
0
0
0
1
0
1
0
0
1
0
1
0
0
2
0
0
0
0
0
0
0
0
1
2
0
1
0
0
0
1
0
1
1
0
0
0
1
0
1
2
0
2
1
0
1
0
0
0
0
0
0
0
0
1
0
0
1
0
0
1
0
0
0
0
0
2
0
0
0
0
1
1
0
0
1
1
0
0
0
0
1
1
0
1
0
0
1
1
0
0
0
0
0
0
0
0
1
0
1
0
1
0
1
2
0
2
0
0
0
0
1
0
1
0
0
0
0
2
0
0
0
1
1
1
0
1
0
0
0
0
0
1
0
1
0
0
1
0
1
0
0
0
0
0
0
0
1
1
2
1
1
0
0
0
1
0
1
0
0
0
0
0
0
2
0
0
0
0
2
0
0
0
0
1
0
1
0
0
0
0
1
0
1
0
0
0
1
0
1
1
0
1
1
0
0
1
0
0
0
1
0
0
0
0
0
1
0
1
1
0
0
0
0
0
1
0
0
0
1
0
0
0
0
0
1
0
0
0
2
1
0
1
0
0
0
0
1
0
0
0
0
0
1
0
1
2
1
0
0
2
1
1
0
0
1
1
0
0
0
0
0
1
0
0
0
0
0
1
1
0
1
0
0
0
0
0
0
0
0
0
1
0
0
0
0
1
0
0
1
1
0
0
0
0
0
0
1
0
0
0
0
0
0
0
1
1
0
0
0
0
1
1
0
0
0
0
0
0
0
0
0
0
0
0
0
0
1
0
0
0
1
0
0
0
0
0
2
0
0
1
0
1
0
0
0
2
0
0
1
0
0
0
0
1
3
0
1
1
0
1
1
0
0
0
0
0
1
0
0
0
1
0
1
0
0
1
0
0
0
0
1
0
0
0
1
0
0
0
0
0
0
0
0
1
1
1
0
0
0
1
1
0
2
0
0
0
0
1
0
0
1
1
0
0
0
1
1
0
0
0
0
0
0
0
1
0
0
0
1
1
0
0
0
0
0
1
0
0
0
1
0
0
0
1
0
0
0
0
1
0
0
0
0
0
0
0
0
2
0
0
0
2
0
0
2
0
0
0
0
0
1
0
0
0
0
0
0
0
0
0
0
0
0
0
1
1
2
0
0
0
2
0
0
0
0
0
0
0
0
1
0
1
0
0
0
0
0
0
1
1
0
0
2
0
0
0
0
0
0
0
0
1
0
0
0
1
0
0
0
0
0
1
0
1
0
0
0
0
0
1
0
0
1
0
0
0
1
0
1
0
0
0
1
0
0
1
0
1
0
0
1
0
0
1
0
1
1
0
1
0
0
0
0
0
0
0
1
0
0
1
1
0
0
0
1
0
1
1
1
0
1
1
0
0
0
0
0
0
2
0
2
2
0
0
0
0
0
0
0
0
1
1
0
0
1
1
1
0
0
1
0
0
0
0
0
1
0
0
0
2
0
1
0
1
1
0
0
1
0
1
0
0
0
0
0
0
0
0
0
0
1
0
0
1
0
0
0
0
0
0
0
0
0
0
0
0
1
0
0
0
0
0
0
1
0
1
0
0
0
0
0
1
0
0
0
0
1
0
1
2
0
0
1
0
0
0
0
0
2
0
1
0
0
0
0
0
0
1
0
0
0
1
0
0
0
0
0
1
1
0
1
0
0
1
1
0
0
0
1
1
0
0
0
0
0
1
0
1
0
0
0
0
0
1
0
0
0
1
0
0
0
0
2
1
1
1
1
0
0
0
0
0
0
1
0
1
0
0
0
0
2
0
1
0
1
0
0
0
1
0
0
0
1
0
0
0
1
0
0
1
0
1
0
0
2
0
0
0
0
0
0
1
0
0
0
0
0
0
1
0
1
0
0
0
1
0
0
1
0
0
1
0
0
0
1
0
0
0
0
1
0
0
1
0
0
0
0
0
1
0
0
1
0
0
0
1
0
1
0
1
0
0
0
0
1
2
0
1
1
0
0
1
1
0
1
0
1
1
0
0
0
0
0
2
1
0
0
0
1
1
0
0
2
0
0
0
0
0
1
1
0
1
0
1
0
0
1
0
0
1
1
0
0
0
4
1
0
0
0
0
0
0
1
0
0
0
0
1
2
1
1
1
1
0
0
0
1
0
0
1
2
0
1
0
1
0
0
0
1
1
1
0
2
0
0
1
0
1
0
0
0
2
0
0
0
1
0
0
0
2
2
0
0
0
2
0
1
1
0
1
0
2
1
0
0
2
1
0
0
0
2
1
0
0
1
2
0
0
1
1
1
2
1
0
2
1
0
0
0
0
4
0
1
2
2
1
1
2
2
2
6
1
1
2
1
7
1
3
2
3
4
6
3
5
4
3
6
4
8
4
6
8
10
10
7
9
7
11
11
14
13
18
11
12
13
8
18
14
12
11
10
16
11
9
13
9
19
20
17
11
10
14
17
22
10
7
11
10
15
30
8
17
18
18
8
14
8
10
7
11
10
14
8
14
8
5
7
8
8
12
11
15
16
11
13
5
8
10
10
9
18
9
8
6
11
11
13
11
24
24
20
15
18
21
25
21
17
23
26
35
24
16
29
22
29
34
34
24
20
21
22
22
15
18
18
24
23
20
17
26
16
16
14
21
18
17
19
13
14
13
11
14
12
9
11
9
7
4
1
11
6
3
2
3
8
2
3
3
4
1
2
0
1
2
0
1
2
3
1
0
0
1
0
0
2
0
2
0
2
0
0
0
0
1
1
0
2
0
0
0
0
0
2
1
0
1
0
0
0
0
0
0
0
0
0
2
0
0
0
0
0
0
0
2
0
0
1
0
0
0
0
0
0
0
0
1
0
0
0
0
2
1
2
0
0
0
0
0
1
0
0
0
0
0
0
1
0
0
0
4
1
0
1
0
1
1
1
1
0
0
0
0
0
0
0
0
1
2
0
0
0
0
1
0
0
0
0
0
0
0
0
0
0
0
0
0
0
0
0
0
0
0
0
0
0
0
0
1
1
1
0
0
0
0
0
0
0
0
0
0
0
0
0
0
0
0
1
1
0
0
0
0
0
0
0
0
0
0
1
0
0
0
0
0
0
0
0
0
0
0
0
0
0
0
0
1
0
0
0
0
0
0
0
0
0
0
0
0
0
0
0
0
0
0
0
0
0
1
0
0
0
1
0
0
0
0
0
0
0
0
0
0
0
0
0
0
0
0
0
0
0
0
0
0
0
0
0
0
0
0
0
0
0
0
0
0
0
0
0
0
0
0
0
0
0
0
0
1
0
0
1
0
0
0
1
0
0
1
0
0
0
0
0
0
0
0
0
0
0
0
0
0
0
0
0
0
0
0
1
0
0
0
0
0
0
0
0
0
0
0
0
0
0
0
1
0
0
0
0
0
0
0
0
0
0
0
1
0
0
0
0
0
0
0
0
0
0
0
0
0
0
0
0
0
0
0
0
0
0
0
0
0
1
0
1
0
0
0
0
0
0
0
1
0
0
0
0
0
0
0
0
0
1
0
0
0
0
0
2
0
0
0
1
0
0
0
1
0
0
0
0
0
0
0
0
0
1
0
0
0
0
0
1
0
0
0
0
1
0
0
0
0
0
0
0
0
0
0
0
0
0
0
0
1
1
2
0
2
0
1
0
0
1
1
0
2
0
0
0
1
0
0
1
1
2
2
1
0
1
0
1
0
2
1
1
0
1
0
0
1
2
0
0
0
1
1
3
0
0
0
0
1
0
2
0
0
0
2
0
0
0
0
0
1
0
0
0
0
0
0
0
0
0
0
0
0
0
0
1
0
1
0
0
0
0
0
0
0
0
0
0
0
0
0
0
1
0
0
0
0
0
1
0
0
0
0
0
0
0
0
0
0
0
0
0
0
0
0
0
0
0
0
1
0
0
0
0
0
0
0
0
0
0
0
0
0
0
0
0
0
0
0
0
0
0
0
0
0
0
0
0
0
0
0
0
0
0
0
0
0
1
0
0
0
0
0
0
0
0
0
0
0
0
0
0
0
0
0
0
0
0
0
0
1
1
0
0
0
0
0
0
0
0
0
0
1
0
1
0
0
0
1
0
0
0
1
0
0
0
0
0
1
0
0
0
0
0
1
0
0
0
0
0
1
0
1
0
0
1
1
1
0
0
0
2
0
0
2
1
0
1
1
0
1
1
1
0
0
0
2
0
0
1
0
1
0
0
0
2
0
0
0
1
0
1
4
1
2
3
3
2
2
1
1
5
0
2
4
9
4
3
4
4
6
5
2
7
4
6
4
8
2
5
11
13
12
9
15
10
17
7
18
15
18
25
12
17
20
18
13
22
16
19
22
22
32
30
18
19
26
23
26
22
32
29
21
21
19
21
21
25
13
20
14
20
19
22
27
14
17
15
11
13
5
15
9
10
7
15
7
3
5
4
4
3
5
4
1
8
3
2
1
2
1
1
4
3
0
1
1
0
0
1
1
0
0
0
0
0
0
0
1
0
0
0
0
0
0
0
0
0
0
0
0
0
0
0
0
0
0
0
0
0
0
0
0
0
0
0
0
0
0
0
0
0
0
0
0
0
0
0
0
0
0
0
0
0
0
0
0
0
0
0
0
0
0
0
0
0
0
0
0
0
0
0
0
0
0
0
0
0
0
0
0
0
0
0
0
0
0
0
0
0
0
0
0
0
0
0
0
0
0
0
0
0
0
0
0
0
0
0
0
0
0
0
0
0
0
0
0
0
0
0
0
0
0
0
0
0
0
0
0
0
0
0
0
0
0
0
0
0
0
0
0
0
0
0
0
0
0
0
0
0
0
0
0
0
0
0
0
0
0
0
0
0
0
0
0
0
0
0
0
0
0
0
0
0
0
0
0
0
0
0
0
0
0
0
0
0
0
0
0
0
0
0
0
0
0
0
0
0
0
0
0
0
0
0
0
0
0
0
0
0
0
0
0
0
0
0
0
0
0
0
0
0
0
0
0
0
0
0
0
0
0
0
0
0
0
0
0
0
0
0
0
0
0
0
0
0
0
0
0
0
0
0
0
0
0
0
0
0
0
0
0
0
0
0
0
0
0
0
0
0
0
0
0
0
0
0
0
0
0
0
0
0
0
0
0
0
0
0
0
0
0
0
0
0
0
0
0
0
0
0
0
0
0
0
0
0
0
0
0
0
0
0
0
0
0
0
0
0
0
0
0
0
0
0
0
0
0
0
0
0
0
0
0
0
0
0
0
0
0
0
0
0
0
0
0
0
0
0
0
0
0
0
0
0
0
0
0
0
0
0
0
0
0
0
0
0
0
0
0
0
0
0
0
0
0
0
0
0
0
0
0
0
0
0
0
0
0
0
0
0
0
0
0
0
0
0
0
0
0
0
0
0
0
0
0
0
0
0
0
0
0
0
0
0
0
0
0
0
0
0
0
0
0
0
0
0
0
0
0
0
0
0
0
0
0
0
0
0
0
0
0
0
0
0
0
0
0
0
0
0
0
0
0
0
0
0
0
0
0
0
0
0
0
0
0
0
0
0
0
0
0
0
0
0
0
0
0
0
0
0
0
0
0
0
0
0
0
0
0
0
0
0
0
0
0
0
0
0
0
0
0
0
0
0
0
0
0
0
0
0
0
0
0
0
0
0
0
0
0
0
0
0
0
0
0
0
0
0
0
0
0
0
0
0
0
0
0
0
0
0
0
0
0
0
0
0
0
0
0
0
0
0
0
0
0
0
0
0
0
0
0
0
0
0
0
0
0
0
0
0
0
0
0
0
0
0
0
0
0
0
0
0
0
0
0
0
0
0
0
0
0
0
0
0
0
0
0
0
0
0
0
0
0
0
0
0
0
0
0
0
0
0
0
0
0
0
0
0
0
0
0
0
0
0
0
0
0
0
0
0
0
0
0
0
0
0
0
0
0
0
0
0
0
0
0
0
0
0
0
0
0
0
0
0
0
0
0
0
0
0
0
0
0
0
0
0
0
0
0
0
0
0
0
0
0
0
0
0
0
0
0
0
0
0
0
0
0
0
0
0
0
0
0
0
0
0
0
0
0
0
0
0
0
0
0
0
0
0
0
0
0
0
0
0
0
0
0
0
0
0
0
0
0
0
0
0
0
0
0
0
0
0
0
0
0
0
0
0
0
0
0
0
0
0
0
0
0
0
0
0
0
0
0
0
0
0
0
0
0
0
0
0
0
0
0
0
0
0
0
0
0
0
0
0
0
0
0
0
0
0
0
0
0
0
0
0
0
0
0
0
0
0
0
0
0
0
0
0
0
0
0
0
0
0
0
0
0
0
0
0
0
0
0
0
0
0
0
0
0
0
0
0
0
0
0
0
0
0
0
0
0
0
0
0
0
0
0
0
0
0
0
0
0
0
0
0
0
0
0
0
0
0
0
0
0
0
0
0
0
0
0
0
0
0
0
0
0
0
0
0
0
0
0
0
0
0
0
0
0
0
0
0
0
0
0
0
0
0
0
0
0
0
0
0
0
0
0
0
0
0
0
0
0
0
0
0
0
0
0
0
0
0
0
0
0
0
0
0
0
0
0
0
0
0
0
0
0
0
0
0
0
0
0
0
0
0
0
0
0
0
0
0
0
0
0
0
0
0
0
0
0
0
0
0
0
0
0
0
0
0
0
0
0
0
0
0
0
0
0
0
0
0
0
0
0
0
0
0
0
0
0
0
0
0
0
0
0
0
0
0
0
0
0
0
0
0
0
0
0
0
0
0
0
0
0
0
0
0
0
0
0
0
0
0
0
0
0
0
0
0
0
0
0
0
0
0
0
0
0
0
0
0
0
0
0
0
0
0
0
0
0
0
0
0
0
0
0
0
0
0
0
0
0
0
0
0
0
0
0
0
0
0
0
0
0
0
0
0
0
0
0
0
0
0
0
0
0
0
0
0
0
0
0
0
0
0
0
0
0
0
0
0
0
0
0
0
0
0
0
0
0
0
0
0
0
0
0
0
0
0
0
0
0
0
0
0
0
0
0
0
0
0
0
0
0
0
0
0
0
0
0
0
0
0
0
0
0
0
0
0
0
0
0
0
0
0
0
0
0
0
0
0
0
0
0
0
0
0
0
0
0
0
0
0
0
0
0
0
0
0
0
0
0
0
0
0
0
0
0
0
0
0
0
0
0
0
0
0
0
0
0
0
0
0
0
0
0
0
0
0
0
0
0
0
0
0
0
0
0
0
0
0
0
0
0
0
0
0
0
0
0
0
0
0
0
0
0
0
0
0
0
0
0
0
0
0
0
0
0
0
0
0
0
0
0
0
0
0
0
0
0
0
0
0
0
0
0
0
0
0
0
0
0
0
0
0
0
0
0
0
0
0
0
0
0
0
0
0
0
0
0
0
0
0
0
0
0
0
0
0
0
0
0
0
0
0
0
0
0
0
0
0
0
0
0
0
0
0
0
0
0
0
0
0
0
0
0
0
0
0
0
0
0
0
0
0
0
0
0
0
0
0
0
0
0
0
0
0
0
0
0
0
0
0
0
0
0
0
0
0
0
0
0
0
0
0
0
0
0
0
0
0
0
0
0
0
0
0
0
0
0
0
0
0
0
0
0
0
0
0
0
0
0
0
0
0
0
0
0
0
0
0
0
0
0
0
0
0
0
0
0
0
0
0
0
0
0
0
0
0
0
0
0
0
0
0
0
0
0
0
0
0
0
0
0
0
0
0
0
0
0
0
0
0
0
0
0
0
0
0
0
0
0
0
0
0
0
0
0
0
0
0
0
0
0
0
0
0
0
0
0
0
0
0
0
0
0
0
0
0
0
0
0
0
0
0
0
0
0
0
0
0
0
0
0
0
0
0
0
0
0
0
0
0
0
0
0
0
0
0
0
0
0
0
0
0
0
0
0
0
0
0
0
0
0
0
0
0
0
0
0
0
0
0
0
0
0
0
0
0
0
0
0
0
0
0
0
0
0
0
0
0
0
0
0
0
0
0
0
0
0
0
0
0
0
0
0
0
0
0
0
0
0
0
0
0
0
0
0
0
0
0
0
0
0
0
0
0
0
0
0
0
0
0
0
0
0
0
0
0
0
0
0
0
0
0
0
0
0
0
0
0
0
0
0
0
0
0
0
0
0
0
0
0
0
0
0
0
0
0
0
0
0
0
0
0
0
0
0
0
0
0
0
0
0
0
0
0
0
0
0
0
0
0
0
0
0
0
0
0
0
0
0
0
0
0
0
0
0
0
0
0
0
0
0
0
0
0
0
0
0
0
0
0
0
0
0
0
0
0
0
0
0
0
0
0
0
0
0
0
0
0
0
0
0
0
0
0
0
0
0
0
0
0
0
0
0
0
0
0
0
0
0
0
0
0
0
0
0
0
0
0
0
0
0
0
0
0
0
0
0
0
0
0
0
0
0
0
0
0
0
0
0
0
0
0
0
0
0
0
0
0
0
0
0
0
0
0
0
0
0
0
0
0
0
0
0
0
0
0
0
0
0
0
0
0
0
0
0
0
0
0
0
0
0
0
0
0
0
0
0
0
0
0
0
0
0
0
0
0
0
0
0
0
0
0
0
0
0
0
0
0
0
0
0
0
0
0
0
0
0
0
0
0
0
0
0
0
0
0
0
0
0
0
0
0
0
0
0
0
0
0
0
0
0
0
0
0
0
0
0
0
0
0
0
0
0
0
0
0
0
0
0
0
0
0
0
0
0
0
0
0
0
0
0
0
0
0
0
0
0
0
0
0
0
0
0
0
0
0
0
0
0
0
0
0
0
0
0
0
0
0
0
0
0
0
0
0
0
0
0
0
0
0
0
0
0
0
0
0
0
0
0
0
0
0
0
0
0
0
0
0
0
0
0
0
0
0
0
0
0
0
0
0
0
0
0
0
0
0
0
0
0
0
0
0
0
0
0
0
0
0
0
0
0
0
0
0
0
0
0
0
0
0
0
0
0
0
0
0
0
0
0
0
0
0
0
0
0
0
0
0
0
0
0
0
0
0
0
0
0
0
0
0
0
0
0
0
0
0
0
0
0
0
0
0
0
0
0
0
0
0
0
0
0
0
0
0
0
0
0
0
0
0
0
0
0
0
0
0
0
0
0
0
0
0
0
0
0
0
0
0
0
0
0
0
0
0
0
0
0
0
0
0
0
0
0
0
0
0
0
0
0
0
0
0
0
0
0
0
0
0
0
0
0
0
0
0
0
0
0
0
0
0
0
0
0
0
0
0
0
0
0
0
0
0
0
0
0
0
0
0
0
0
0
0
0
0
0
0
0
0
0
0
0
0
0
0
0
0
0
0
0
0
0
0
0
0
0
0
0
0
0
0
0
0
0
0
0
0
0
0
0
0
0
0
0
0
0
0
0
0
0
0
0
0
0
0
0
0
0
0
0
0
0
0
0
0
0
0
0
0
0
0
0
0
0
0
0
0
0
0
0
0
0
0
0
0
0
0
0
0
0
0
0
0
0
0
0
0
0
0
0
0
0
0
0
0
0
0
0
0
0
0
0
0
0
0
0
0
0
0
0
0
0
0
0
0
0
0
0
0
0
0
0
0
0
0
0
0
0
0
0
0
0
0
0
0
0
0
0
0
0
0
0
0
0
0
0
0
0
0
0
0
0
0
0
0
0
0
0
0
0
0
0
0
0
0
0
0
0
0
0
0
0
0
0
0
0
0
0
0
0
0
0
0
0
0
0
0
0
0
0
0
0
0
0
0
0
0
0
0
0
0
0
0
0
0
0
0
0
0
0
0
0
0
0
0
0
0
0
0
0
0
0
0
0
0
0
0
0
0
0
0
0
0
0
0
0
0
0
0
0
0
0
0
0
0
0
0
0
0
0
0
0
0
0
0
0
0
0
0
0
0
0
0
0
0
0
0
0
0
0
0
0
0
0
0
0
0
0
0
0
0
0
0
0
0
0
0
0
0
0
0
0
0
0
0
0
0
0
0
0
0
0
0
0
0
0
0
0
0
0
0
0
0
0
0
0
0
0
0
0
0
0
0
0
0
0
0
0
0
0
0
0
0
0
0
0
0
0
0
0
0
0
0
0
0
0
0
0
0
0
0
0
0
0
0
0
0
0
0
0
0
0
0
0
0
0
0
0
0
0
0
0
0
0
0
0
0
0
0
0
0
0
0
0
0
0
0
0
0
0
0
0
0
0
0
0
0
0
0
0
0
0
0
0
0
0
0
0
0
0
0
0
0
0
0
0
0
0
0
0
0
0
0
0
0
0
0
0
0
0
0
0
0
0
0
0
0
0
0
0
0
0
0
0
0
0
0
0
0
0
0
0
0
0
0
0
0
0
0
0
0
0
0
0
0
0
0
0
0
0
0
0
0
0
0
0
0
0
0
0
0
0
0
0
0
0
0
0
0
0
0
0
0
0
0
0
0
0
0
0
0
0
0
0
0
0
0
0
0
0
0
0
0
0
0
0
0
0
0
0
0
0
0
0
0
0
0
0
0
0
0
0
0
0
0
0
0
0
0
0
0
0
0
0
0
0
0
0
0
0
0
0
0
0
0
0
0
0
0
0
0
0
0
0
0
0
0
0
0
0
0
0
0
0
0
0
0
0
0
0
0
0
0
0
0
0
0
0
0
0
0
0
0
0
0
0
0
0
0
0
0
0
0
0
0
0
0
0
0
0
0
0
0
0
0
0
0
0
0
0
0
0
0
0
0
0
0
0
0
0
0
0
0
0
0
0
0
0
0
0
0
0
0
0
0
0
0
0
0
0
0
0
0
0
0
0
0
0
0
0
0
0
0
0
0
0
0
0
0
0
0
0
0
0
0
0
0
0
0
0
0
0
0
0
0
0
0
0
0
0
0
0
0
0
0
0
0
0
0
0
0
0
0
0
0
0
0
0
0
0
0
0
0
0
0
0
0
0
0
0
0
0
0
0
0
0
0
0
0
0
0
0
0
0
0
0
0
0
0
0
0
0
0
0
0
0
0
0
0
0
0
0
0
0
0
0
0
0
0
0
0
0
0
0
0
0
0
0
0
0
0
0
0
0
0
0
0
0
0
0
0
0
0
0
0
0
0
0
0
0
0
0
0
0
0
0
0
0
0
0
0
0
0
0
0
0
0
0
0
0
0
0
0
0
0
0
0
0
0
0
0
0
0
0
0
0
0
0
0
0
0
0
0
0
0
0
0
0
0
0
0
0
0
0
0
0
0
0
0
0
0
0
0
0
0
0
0
0
0
0
0
0
0
0
0
0
0
0
0
0
0
0
0
0
0
0
0
0
0
0
0
0
0
0
0
0
0
0
0
0
0
0
0
0
0
0
0
0
0
0
0
0
0
0
0
0
0
0
0
0
0
0
0
0
0
0
0
0
0
0
0
0
0
0
0
0
0
0
0
0
0
0
0
0
0
0
0
0
0
0
0
0
0
0
0
0
0
0
0
0
0
0
0
0
0
0
0
0
0
0
0
0
0
0
0
0
0
0
0
0
0
0
0
0
0
0
0
0
0
0
0
0
0
0
0
0
0
0
0
0
0
0
0
0
0
0
0
0
0
0
0
0
0
0
0
0
0
0
0
0
0
0
0
0
0
0
0
0
0
0
0
0
0
0
0
0
0
0
0
0
0
0
0
0
0
0
0
0
0
0
0
0
0
0
0
0
0
0
0
0
0
0
0
0
0
0
0
0
0
0
0
0
0
0
0
0
0
0
0
0
0
0
0
0
0
0
0
0
0
0
0
0
0
0
0
0
0
0
0
0
0
0
0
0
0
0
0
0
0
0
0
0
0
0
0
0
0
0
0
0
0
0
0
0
0
0
0
0
0
0
0
0
0
0
0
0
0
0
0
0
0
0
0
0
0
0
0
0
0
0
0
0
0
0
0
0
0
0
0
0
0
0
0
0
0
0
0
0
0
0
0
0
0
0
0
0
0
0
0
0
0
0
0
0
0
0
0
0
0
0
0
0
0
0
0
0
0
0
0
0
0
0
0
0
0
0
0
0
0
0
0
0
0
0
0
0
0
0
0
0
0
0
0
0
0
0
0
0
0
0
0
0
0
0
0
0
0
0
0
0
0
0
0
0
0
0
0
0
0
0
0
0
0
0
0
0
0
0
0
0
0
0
0
0
0
0
0
0
0
0
0
0
0
0
0
0
0
0
0
0
0
0
0
0
0
0
0
0
0
0
0
0
0
0
0
0
0
0
0
0
0
0
0
0
0
0
0
0
0
0
0
0
0
0
0
0
0
0
0
0
0
0
0
0
0
0
0
0
0
0
0
0
0
0
0
0
0
0
0
0
0
0
0
0
0
0
0
0
0
0
0
0
0
0
0
0
0
0
0
0
0
0
0
0
0
0
0
0
0
0
0
0
0
0
0
0
0
0
0
0
0
0
0
0
0
0
0
0
0
0
0
0
0
0
0
0
0
0
0
0
0
0
0
0
0
0
0
0
0
0
0
0
0
0
0
0
0
0
0
0
0
0
0
0
0
0
0
0
0
0
0
0
0
0
0
0
0
0
0
0
0
0
0
0
0
0
0
0
0
0
0
0
0
0
0
0
0
0
0
0
0
0
0
0
0
0
0
0
0
0
0
0
0
0
0
0
0
0
0
0
0
0
0
0
0
0
0
0
0
0
0
0
0
0
0
0
0
0
0
0
0
0
0
0
0
0
0
0
0
0
0
0
0
0
0
0
0
0
0
0
0
0
0
0
0
0
0
0
0
0
0
0
0
0
0
0
0
0
0
0
0
0
0
0
0
0
0
0
0
0
0
0
0
0
0
0
0
0
0
0
0
0
0
0
0
0
0
0
0
0
0
0
0
0
0
0
0
0
0
0
0
0
0
0
0
0
0
0
0
0
0
0
0
0
0
0
0
0
0
0
0
0
0
0
0
0
0
0
0
0
0
0
0
0
0
0
0
0
0
0
0
0
0
0
0
0
0
0
0
0
0
0
0
0
0
0
0
0
0
0
0
0
0
0
0
0
0
0
0
0
0
0
0
0
0
0
0
0
0
0
0
0
0
0
0
0
0
0
0
0
0
0
0
0
0
0
0
0
0
0
0
0
0
0
0
0
0
0
0
0
0
0
0
0
0
0
0
0
0
0
0
0
0
0
0
0
0
0
0
0
