0
0
0
0
0
0
0
0
0
0
0
0
0
0
0
0
0
0
0
0
0
0
0
0
0
0
0
0
0
0
0
0
0
0
0
0
0
0
0
0
0
0
0
0
0
0
0
0
0
0
0
0
0
0
0
0
0
0
0
0
0
0
0
0
0
0
0
0
0
0
0
0
0
0
0
0
0
0
0
0
0
0
0
0
0
0
0
0
0
0
0
0
0
0
0
0
0
0
0
0
0
0
0
0
0
0
0
0
0
0
0
0
0
0
0
0
0
0
0
0
0
0
0
0
0
0
0
0
0
0
0
0
0
0
0
0
0
0
0
0
0
0
0
0
0
0
0
0
0
0
0
0
0
0
0
0
0
0
0
0
0
0
0
0
0
0
0
0
0
0
0
0
0
0
0
0
0
0
0
0
0
0
0
0
0
0
0
0
0
0
0
0
0
0
0
0
0
0
0
0
0
0
0
0
0
0
0
0
0
0
0
0
0
0
0
0
0
0
0
0
0
0
0
0
0
0
0
0
0
0
0
0
0
0
0
0
0
0
0
0
0
0
0
0
0
0
0
0
0
0
0
0
0
0
0
0
0
0
0
0
0
0
0
0
0
0
0
0
0
0
0
0
0
0
0
0
0
0
0
0
0
0
0
0
0
0
0
0
0
0
0
0
0
0
0
0
0
0
0
0
0
0
0
0
0
0
0
0
0
0
0
0
0
0
0
0
0
0
0
0
0
0
0
0
0
0
0
0
0
0
0
0
0
0
0
0
0
0
0
0
0
0
0
0
0
0
0
0
0
0
0
0
0
0
0
0
0
0
0
0
0
0
0
0
0
0
0
0
0
0
0
0
0
0
0
0
0
0
0
0
0
0
0
0
0
0
0
0
0
0
0
0
0
0
0
0
0
0
0
0
0
0
0
0
0
0
0
0
0
0
0
0
0
0
0
0
0
0
0
0
0
0
0
0
0
0
0
0
0
0
0
0
0
0
0
0
0
0
0
0
0
0
0
0
0
0
0
0
0
0
0
0
0
3
3
14
14
18
8
9
14
10
8
9
16
15
9
9
8
10
8
12
7
12
16
13
13
11
12
12
12
7
14
11
15
9
5
10
15
9
11
12
7
7
6
6
9
19
11
13
11
9
10
10
7
4
14
11
6
7
10
14
11
8
14
9
11
16
12
10
19
8
5
6
7
16
8
8
11
8
7
8
17
17
13
14
16
20
16
9
9
16
7
10
6
6
9
12
12
12
11
9
10
12
8
7
13
8
7
13
10
10
11
8
5
7
7
10
14
12
7
8
15
10
9
10
7
6
7
3
8
7
13
8
9
7
11
8
8
6
8
9
14
7
11
8
10
12
11
5
5
7
7
8
8
8
5
8
15
8
9
10
7
13
14
5
10
10
13
12
13
9
9
9
12
6
15
12
11
10
6
10
7
8
9
9
14
9
8
10
7
7
9
6
9
11
5
15
4
11
9
10
7
10
12
7
7
9
11
11
9
9
9
11
11
6
10
12
13
8
18
4
7
16
5
7
10
7
9
10
12
9
11
9
7
12
13
5
4
8
5
6
6
7
7
4
7
5
10
5
4
16
12
8
8
5
9
5
7
18
7
6
11
5
8
10
7
13
5
7
3
6
8
8
5
8
8
16
12
3
7
7
7
6
5
12
9
6
9
4
5
4
8
6
8
5
11
13
5
8
14
4
8
6
5
5
6
7
6
11
9
9
7
7
6
10
6
8
4
10
4
7
5
11
5
8
3
9
4
13
8
6
11
7
5
6
9
5
3
5
6
8
9
10
6
4
9
5
7
5
5
4
6
4
8
7
6
3
7
6
8
9
5
7
13
8
5
8
10
9
3
6
7
5
7
5
8
6
5
4
5
6
10
7
13
8
10
5
7
2
8
6
9
5
4
8
8
6
10
9
7
5
9
4
4
11
4
10
3
4
8
6
6
3
12
8
4
11
4
5
7
7
8
11
8
7
8
6
5
5
8
10
13
1
6
4
12
8
1
10
3
6
5
2
9
3
5
6
5
7
3
5
1
6
9
7
3
5
9
8
8
6
7
4
5
9
5
7
7
3
3
10
6
6
4
6
6
4
4
10
5
11
4
1
7
5
3
5
6
7
2
6
5
7
8
5
5
5
6
12
9
4
6
6
6
3
8
6
6
7
8
3
7
7
7
3
6
5
6
6
3
5
6
10
4
4
6
7
4
8
2
7
4
4
5
6
3
5
3
9
4
5
4
3
3
1
2
4
5
5
6
11
3
6
1
5
2
8
3
2
4
7
4
5
7
4
8
6
2
5
5
6
4
3
6
6
3
8
9
7
9
5
3
6
6
7
7
3
3
7
11
5
2
5
6
7
2
9
3
4
6
8
8
6
4
6
2
3
7
4
5
2
2
5
3
8
6
2
9
4
2
1
2
1
13
6
5
4
4
8
4
6
6
6
5
4
5
7
8
4
8
6
7
4
6
3
4
4
6
7
5
8
8
5
5
5
8
9
7
8
4
2
3
5
7
3
6
9
7
5
7
4
5
4
3
1
7
3
4
4
3
7
2
12
3
5
5
7
2
4
3
6
3
6
3
2
6
5
3
13
8
5
6
7
6
6
5
5
1
4
9
6
4
3
1
2
5
4
5
7
4
3
2
8
5
3
4
5
6
2
5
7
3
2
2
9
5
2
8
5
5
4
4
7
3
5
3
6
6
0
5
2
6
6
4
7
2
6
6
7
4
3
3
3
6
4
5
5
2
7
9
5
6
5
7
1
6
4
4
5
4
3
4
7
3
4
0
2
6
5
4
3
3
4
10
7
9
3
3
3
4
4
3
5
6
2
3
1
3
7
10
6
4
4
8
2
2
4
0
3
3
5
5
7
2
3
4
8
5
2
4
3
4
2
2
4
3
5
5
5
5
7
4
5
5
6
5
1
5
5
4
6
2
1
0
5
2
3
5
5
2
4
3
6
5
3
3
3
3
8
3
5
2
3
3
5
6
7
4
2
3
3
4
5
4
6
4
5
6
7
5
9
4
5
3
3
4
3
2
3
7
7
5
4
0
3
1
4
6
4
5
3
6
5
3
7
4
5
0
6
8
6
5
3
1
3
5
3
5
5
7
3
5
2
4
4
7
3
6
5
4
5
2
3
3
2
7
5
5
4
1
9
3
1
5
6
3
6
5
4
3
4
6
5
5
3
6
4
4
5
4
1
5
5
3
2
5
4
2
0
5
2
7
4
5
3
5
4
3
2
6
5
4
3
5
2
2
4
3
9
3
1
5
3
8
3
3
6
5
5
2
4
0
5
1
5
2
2
3
4
4
1
4
4
4
3
4
5
2
2
4
1
3
5
8
2
7
7
1
6
5
5
8
3
3
3
8
6
6
6
5
6
9
4
2
4
4
2
3
5
5
4
2
5
4
4
5
5
5
3
5
4
3
4
3
3
4
6
3
2
2
5
3
3
8
4
4
2
2
3
4
2
5
6
1
8
4
3
4
5
3
5
2
4
3
5
4
8
6
5
8
2
0
4
4
1
5
4
5
5
2
2
4
5
7
3
3
6
1
5
6
7
5
7
2
6
3
9
8
9
6
5
4
4
3
5
2
3
2
5
5
6
6
5
2
1
6
4
5
5
2
8
7
4
6
4
4
6
2
4
6
4
5
2
6
3
8
4
0
5
1
1
3
4
3
9
4
0
8
8
8
7
3
7
5
7
6
0
5
6
4
6
2
1
6
4
2
2
5
4
3
2
6
0
2
3
1
3
5
3
2
2
6
5
8
2
1
0
6
6
4
2
3
4
6
3
6
5
3
4
5
6
3
4
2
4
3
4
1
1
4
4
7
4
2
3
1
2
6
3
3
6
3
1
6
5
4
4
5
7
5
7
3
7
6
2
5
8
2
5
5
2
0
2
2
2
5
1
2
5
1
0
5
2
3
5
4
10
4
2
1
8
7
7
4
2
2
5
1
4
1
4
1
2
2
6
1
2
6
3
3
9
6
6
5
0
3
7
4
2
4
6
2
3
6
6
3
3
5
3
4
4
2
3
5
6
8
6
9
5
4
2
3
4
4
3
1
4
6
3
8
4
8
3
6
6
2
5
6
5
7
2
5
4
4
6
7
2
3
5
4
3
4
4
3
6
4
3
2
1
7
6
5
7
3
4
5
2
5
3
6
4
3
4
8
2
2
3
5
4
4
2
4
4
2
7
5
7
5
7
2
9
4
6
4
2
3
3
2
6
7
5
1
4
2
3
3
6
7
4
3
1
6
7
3
2
5
5
3
4
8
6
5
4
4
4
3
2
4
1
5
3
4
6
6
2
2
4
4
7
3
2
4
6
7
3
6
3
6
4
7
2
5
5
4
2
3
3
3
4
6
8
3
6
1
3
8
5
7
1
5
3
8
3
3
4
7
4
8
4
3
3
5
3
6
6
3
2
2
7
1
2
3
3
2
5
14
4
6
3
6
6
9
2
7
5
5
4
5
5
6
7
6
1
5
8
5
5
3
5
4
5
4
3
10
1
4
2
5
8
3
6
4
6
5
6
5
2
7
3
4
3
0
1
5
3
7
8
7
6
7
9
8
2
8
1
9
7
4
2
8
2
7
5
5
2
3
4
1
5
4
5
4
5
3
4
2
4
6
3
1
6
5
6
5
0
5
1
1
3
6
7
7
6
5
1
2
1
2
1
1
4
1
3
3
4
5
3
6
4
7
3
2
8
2
1
7
4
1
7
3
2
2
8
2
1
4
5
1
3
4
3
4
6
2
6
0
6
3
3
1
2
3
2
4
2
4
1
1
3
2
4
6
2
1
4
3
3
2
4
3
4
1
2
2
1
5
3
5
4
4
3
10
3
3
5
2
0
4
5
4
1
2
4
2
4
2
1
3
2
4
2
0
2
1
1
4
3
1
1
3
3
4
2
2
3
1
5
1
3
1
1
2
2
4
4
3
4
1
6
1
2
6
3
2
4
6
2
2
5
3
7
4
1
1
6
0
3
4
3
3
7
1
3
1
2
3
2
0
1
1
5
1
2
2
2
2
3
2
1
2
1
2
4
0
2
3
3
3
3
2
2
2
2
2
4
2
2
4
1
2
1
2
3
2
3
0
4
1
5
3
2
3
1
5
6
1
4
2
2
5
3
2
3
2
2
1
1
1
4
2
3
3
3
2
0
2
4
0
4
2
0
4
2
3
2
1
4
4
6
4
0
5
0
1
2
1
2
2
0
0
4
3
4
1
2
2
3
7
0
4
1
4
1
0
3
2
1
0
1
3
1
1
2
1
1
2
1
1
3
3
3
2
3
2
0
2
1
2
0
2
2
2
2
3
2
5
2
2
1
3
3
2
2
7
1
1
5
2
3
1
3
2
1
0
1
10
0
1
3
1
3
2
4
7
3
3
4
4
2
3
1
3
0
4
2
5
3
1
1
6
1
2
1
5
0
2
2
2
3
1
1
0
1
2
3
2
2
3
2
3
2
4
2
3
2
3
2
1
2
1
3
2
2
3
5
3
4
1
4
1
3
5
5
2
0
2
3
0
2
2
5
2
2
2
3
4
4
3
1
0
0
4
2
3
5
1
2
2
3
0
0
1
6
4
2
0
3
3
1
5
1
2
2
2
1
1
0
1
3
6
2
2
2
4
5
3
2
1
1
4
2
4
3
1
0
2
2
2
2
1
0
3
2
3
8
1
3
2
1
1
3
3
1
4
3
3
0
2
1
2
4
2
0
1
3
1
2
4
1
3
0
5
3
2
4
4
2
0
1
2
1
2
4
0
2
1
3
3
3
4
2
2
5
5
3
3
1
4
1
2
2
2
1
4
3
2
3
2
3
0
1
1
2
3
3
2
3
3
2
3
0
2
5
1
2
0
1
0
3
2
2
0
1
3
3
5
2
0
1
3
4
2
2
5
0
0
2
3
3
6
2
5
4
8
9
8
8
6
20
17
11
11
13
20
19
25
19
20
16
17
23
17
19
14
16
18
22
21
20
22
25
29
28
23
39
35
45
39
49
39
27
29
38
28
14
21
9
6
7
6
4
2
6
1
1
1
0
1
0
1
2
1
0
3
0
0
2
1
1
1
1
3
0
1
1
2
1
1
0
0
0
0
1
0
1
2
1
1
0
0
0
2
0
0
1
2
2
3
0
2
0
2
2
2
2
1
3
3
1
0
1
2
1
1
1
2
1
0
2
2
3
3
1
1
1
1
1
1
1
0
1
1
2
1
0
0
1
1
0
2
2
1
1
1
0
1
0
0
0
4
2
0
0
0
0
0
0
0
1
4
1
0
1
0
1
0
0
2
1
2
2
1
1
1
1
1
0
0
0
1
2
0
2
0
1
1
0
1
0
4
1
0
1
2
0
0
1
0
2
3
3
2
1
2
2
0
1
0
3
2
1
1
0
0
2
2
0
1
0
2
1
0
1
1
2
1
3
0
1
3
2
0
1
1
0
1
0
1
0
1
1
0
2
0
1
1
2
1
1
2
1
0
3
0
2
0
1
1
1
2
2
0
1
3
2
3
0
1
2
1
0
1
0
0
0
0
1
0
0
3
2
1
1
2
0
2
1
0
0
2
0
2
0
1
1
0
0
0
1
1
0
1
2
1
0
0
0
1
0
0
0
0
1
1
2
1
2
0
0
0
0
0
1
1
1
0
1
0
1
0
2
0
1
1
1
2
0
0
1
2
1
2
1
0
3
0
2
1
2
1
1
1
0
1
2
0
1
2
1
0
0
1
1
0
1
1
0
2
0
0
0
2
1
5
1
2
1
2
1
0
1
2
1
4
0
0
0
1
0
1
1
1
1
1
2
0
1
2
0
0
0
1
0
1
2
2
0
0
1
1
0
1
0
1
2
1
0
1
1
0
1
0
1
0
3
0
3
1
2
2
0
1
1
0
0
0
3
1
0
2
1
1
0
1
1
1
1
0
2
1
0
0
0
0
1
0
0
0
1
1
1
1
1
0
0
1
1
2
0
1
0
0
1
3
1
2
1
1
3
1
1
1
1
2
0
1
3
3
1
0
0
1
0
4
3
3
0
1
2
1
2
0
0
0
4
2
2
3
1
1
2
1
1
0
0
0
2
3
1
1
3
1
0
1
0
0
1
2
3
0
1
1
1
1
1
3
3
3
2
2
2
3
1
0
7
3
2
4
11
4
5
7
5
1
11
8
7
6
6
7
6
7
6
10
2
9
7
6
6
3
8
3
10
10
3
9
15
13
13
12
13
7
9
12
8
11
11
6
6
4
4
1
0
3
0
0
0
1
0
0
0
1
2
0
0
1
0
1
1
0
1
0
1
0
1
1
0
0
0
1
5
1
0
0
1
0
0
2
1
1
2
0
2
1
0
0
0
4
1
1
1
0
0
1
2
3
3
0
1
1
0
0
0
2
0
2
4
0
0
0
0
0
0
2
1
0
0
1
1
1
0
0
0
0
2
1
0
0
0
0
0
2
2
0
1
1
3
2
0
0
0
0
0
0
0
1
1
1
1
0
2
0
1
1
0
1
0
1
1
1
1
1
0
1
0
2
1
0
1
2
0
1
1
0
1
0
0
0
1
2
0
0
0
1
0
0
2
0
0
1
0
0
0
0
0
1
2
2
1
0
0
0
1
0
0
0
1
0
1
0
1
1
2
1
1
0
1
1
1
0
1
1
0
4
1
3
0
1
1
0
1
1
2
0
1
1
0
2
2
1
0
2
2
0
1
2
1
0
1
1
2
0
0
0
0
0
1
0
1
3
1
1
2
0
1
0
0
0
0
1
0
1
0
1
1
0
0
1
0
0
1
0
0
2
1
1
0
1
2
2
3
2
3
2
0
0
1
1
0
0
2
2
2
1
1
4
3
1
0
2
0
2
1
2
0
4
1
1
5
1
1
1
4
0
2
0
0
0
2
0
0
2
1
0
1
0
1
1
0
1
3
1
0
1
3
0
2
1
0
0
1
1
2
1
3
0
2
0
2
0
0
2
0
2
1
2
3
0
2
1
0
1
1
0
2
2
0
1
1
0
1
3
1
0
2
3
0
1
1
1
1
0
1
1
1
0
0
1
0
2
1
0
1
1
0
0
1
3
1
0
2
0
0
0
1
1
2
1
0
0
1
2
0
0
0
0
2
0
3
0
1
0
0
0
1
2
1
2
0
2
1
1
0
0
0
2
1
2
0
2
1
2
1
2
0
2
3
0
1
1
0
0
1
1
0
0
0
3
2
0
1
1
0
0
0
0
0
2
3
0
0
2
1
0
1
1
1
0
2
1
1
0
2
0
0
0
1
2
0
1
0
0
2
1
1
1
0
1
1
0
2
0
0
0
1
0
0
0
1
1
1
1
1
1
2
0
1
2
1
0
0
1
0
0
2
1
0
1
1
0
0
0
0
0
1
0
0
0
0
0
1
0
0
1
0
0
0
2
1
1
2
0
1
1
0
0
2
0
2
1
0
1
1
0
0
2
1
0
1
0
0
3
3
1
1
0
1
2
1
1
0
0
0
0
0
1
0
1
0
1
1
0
0
0
0
1
1
2
1
1
0
0
0
1
0
0
0
0
1
0
1
1
1
0
2
0
0
0
0
0
2
0
1
0
0
2
1
1
0
0
0
2
2
4
1
0
2
1
0
0
0
0
2
0
0
1
0
1
3
0
0
1
0
1
0
0
0
3
0
0
1
2
1
1
0
2
1
0
1
0
0
3
1
0
0
1
0
0
0
0
0
1
0
1
0
1
1
0
2
0
0
0
0
0
0
0
1
0
0
0
1
2
2
0
1
0
0
0
0
0
0
1
0
0
0
0
0
0
0
1
0
1
2
1
0
1
0
1
0
0
0
0
1
0
1
1
0
0
0
0
1
0
0
0
1
2
0
0
1
0
0
0
0
0
0
1
1
1
0
1
0
0
1
0
0
1
1
1
0
0
0
1
0
0
1
1
0
0
0
1
0
1
0
0
0
0
0
1
0
0
0
0
0
1
0
0
0
0
0
0
0
1
2
0
1
0
0
0
0
0
1
1
1
0
1
0
0
0
0
1
0
2
0
1
1
0
0
0
0
0
0
0
0
0
0
0
0
0
0
0
0
0
0
0
0
1
0
0
0
0
0
0
0
0
1
0
0
0
0
0
0
0
1
1
1
0
0
0
0
0
1
0
1
0
0
0
1
0
2
0
0
0
0
0
1
0
0
1
0
0
0
0
0
0
0
0
1
0
0
0
0
0
0
1
0
1
1
0
0
1
1
2
0
0
1
0
1
0
0
0
1
0
3
1
0
1
4
0
0
1
0
0
0
0
1
0
0
0
0
0
0
0
0
0
0
0
0
0
1
0
0
0
0
0
1
0
0
0
0
1
0
0
0
1
0
0
0
0
0
0
0
0
0
1
0
1
0
1
0
0
1
2
1
1
0
0
0
0
0
1
1
0
0
1
1
1
1
0
0
0
0
1
0
0
0
1
0
1
0
0
0
0
0
0
0
0
0
0
0
0
0
1
0
0
0
0
0
1
0
0
0
0
0
1
0
0
1
1
1
0
0
0
0
0
0
0
0
0
1
0
0
0
0
0
0
0
0
0
1
1
0
1
1
0
0
0
0
0
0
0
1
0
0
0
0
0
0
1
1
1
0
0
1
0
0
0
0
0
2
2
0
0
1
2
3
1
1
1
3
1
1
2
5
3
1
3
3
2
5
3
4
2
5
2
1
1
3
3
3
0
2
2
4
2
2
4
2
2
2
1
2
3
4
3
2
4
5
3
5
3
3
4
8
8
5
4
5
5
3
3
4
5
6
5
1
2
2
2
2
0
0
0
2
1
0
0
0
0
0
0
0
0
1
0
0
1
0
0
0
0
0
0
0
0
0
0
0
1
0
0
0
0
0
0
0
1
2
0
0
1
0
0
0
0
0
0
0
1
0
0
0
0
0
0
0
1
0
0
1
0
0
0
0
0
1
2
1
0
1
0
0
0
0
2
0
0
0
1
0
0
0
0
0
0
0
1
0
0
1
0
0
0
0
2
0
1
0
0
0
2
0
0
0
0
0
0
0
0
0
0
0
0
0
1
0
0
0
1
0
0
0
0
1
0
0
0
1
0
0
0
0
0
0
0
0
0
0
0
0
0
0
0
0
0
1
0
0
0
0
0
0
0
1
0
1
0
0
0
0
0
1
0
0
0
0
0
0
0
0
1
0
1
0
0
2
0
0
0
0
0
0
0
0
0
0
1
0
0
0
1
0
0
0
1
0
0
1
0
0
0
0
0
0
1
0
0
0
0
0
0
1
0
2
0
0
0
0
0
0
0
0
0
0
0
0
1
1
0
0
0
0
0
1
0
1
0
0
1
1
0
0
1
0
0
0
0
0
2
2
0
1
0
0
0
0
0
0
1
1
2
0
0
0
0
1
2
1
0
1
0
1
0
1
1
1
0
4
1
1
1
1
2
1
0
0
0
1
1
0
0
0
1
0
0
0
0
0
1
1
0
0
0
0
0
0
0
0
1
0
0
0
0
0
1
1
0
0
0
0
1
0
0
1
1
0
0
0
0
0
0
0
0
0
0
1
0
0
0
0
0
0
0
0
0
0
0
0
0
0
0
0
1
1
1
0
0
0
0
1
0
0
0
0
0
0
0
0
0
0
0
0
1
0
0
0
0
0
0
1
0
1
0
0
1
0
0
0
0
1
0
0
0
0
0
0
0
0
0
0
0
1
0
0
0
0
0
0
0
0
0
0
0
0
0
0
0
0
0
0
0
0
0
1
0
0
0
0
1
0
0
0
0
0
1
1
0
0
0
0
0
0
0
0
0
0
1
0
1
0
0
2
0
0
0
0
0
0
0
0
0
0
1
0
0
1
0
0
0
0
0
0
0
0
0
0
2
1
0
0
0
0
0
0
1
0
1
0
0
1
1
0
1
0
1
0
0
1
0
1
0
0
2
0
1
0
0
0
0
0
0
1
1
0
0
1
0
0
0
0
0
0
0
0
0
1
0
1
0
1
0
0
0
0
0
0
0
0
1
1
0
0
0
0
1
0
0
2
0
0
0
0
0
1
0
0
0
0
0
0
0
0
0
0
0
0
0
0
0
1
2
0
0
0
0
0
0
0
0
0
0
0
0
0
0
0
0
0
0
0
1
0
0
0
0
0
0
0
0
0
0
1
1
0
0
1
0
0
0
0
0
0
1
0
0
0
0
0
0
0
1
0
0
0
1
0
0
0
0
0
0
1
0
1
0
0
0
0
0
0
0
0
0
0
2
0
0
1
0
0
0
0
0
0
0
1
0
0
0
1
0
0
0
0
0
0
0
0
0
0
0
1
0
0
0
0
0
0
0
0
0
0
1
0
0
0
0
0
0
0
0
0
0
0
0
2
0
0
1
1
0
0
0
0
0
0
1
0
0
1
0
0
0
0
0
0
0
0
0
0
0
0
0
1
0
0
0
0
2
0
0
0
0
0
1
0
1
0
0
0
0
0
0
0
0
0
0
0
0
1
0
1
0
0
0
0
0
0
0
0
0
0
0
0
0
0
0
0
1
0
0
0
2
0
2
0
0
0
0
0
0
0
0
0
0
0
0
1
0
1
0
0
0
1
0
1
0
0
0
0
0
0
0
0
0
0
0
1
0
1
0
0
0
0
0
0
0
0
0
0
0
0
0
0
0
0
1
0
0
0
0
0
0
0
0
0
0
0
0
0
0
1
1
0
0
0
0
0
0
0
0
0
0
1
1
1
2
1
0
1
0
0
0
0
0
0
1
0
0
0
1
0
0
0
0
0
0
0
0
0
1
0
0
0
0
1
0
0
0
0
0
0
0
0
0
0
0
0
2
0
1
0
0
0
0
0
1
0
2
0
0
0
0
0
0
0
0
0
0
0
0
0
0
0
1
0
0
0
0
0
0
0
0
0
0
0
0
0
0
0
0
0
1
1
0
0
0
1
0
0
0
0
0
0
0
0
0
0
0
1
0
0
0
0
0
0
0
0
0
0
0
0
0
0
0
0
0
0
0
0
0
0
1
0
0
1
0
0
0
0
0
0
0
0
0
0
0
0
0
0
0
0
0
0
0
0
0
0
0
1
0
0
0
0
0
0
0
0
0
0
0
0
1
0
0
1
1
0
0
1
1
0
0
0
0
1
0
0
1
0
1
0
0
0
0
1
0
0
0
0
0
0
0
0
0
1
0
0
1
0
0
0
0
0
0
0
0
0
1
0
0
0
0
0
0
0
0
0
0
0
0
0
0
0
0
0
1
0
0
0
0
0
0
0
1
2
0
0
0
0
0
0
0
0
0
0
0
1
0
0
1
0
1
0
0
1
0
2
1
1
1
1
0
1
0
1
2
0
0
1
0
1
0
0
0
2
1
2
0
0
0
1
2
0
1
0
0
0
0
0
3
0
0
1
0
2
0
2
0
0
1
0
0
0
0
0
0
2
0
0
0
0
1
2
1
1
0
0
0
0
0
0
0
0
0
0
0
1
0
0
0
0
0
1
0
0
0
0
0
0
0
0
0
0
0
0
0
0
0
1
0
0
0
1
0
1
0
0
0
0
0
0
0
0
0
1
1
0
1
1
0
0
1
0
1
0
0
0
0
0
0
0
0
0
1
0
0
0
0
0
2
0
1
0
0
1
0
0
0
0
0
1
1
0
0
0
0
1
0
0
0
0
0
0
0
1
0
0
0
0
0
0
0
1
1
1
0
0
0
1
0
0
0
0
0
0
0
1
1
1
0
0
0
0
0
0
1
0
0
0
0
1
0
1
0
1
0
0
2
0
0
0
0
0
0
0
0
1
0
0
0
0
0
0
0
0
1
1
0
0
1
0
0
0
0
1
2
0
1
0
0
0
2
0
0
0
0
0
0
1
0
0
1
0
0
1
0
0
0
1
1
0
0
0
0
1
0
0
1
0
0
0
0
0
0
2
0
0
0
0
0
0
1
0
0
0
0
0
0
0
0
0
0
0
0
0
0
0
0
0
0
1
0
0
0
0
0
0
0
0
0
1
0
0
0
0
0
0
3
0
0
1
0
0
0
0
0
0
1
0
0
0
0
1
1
0
1
0
0
0
0
0
0
0
1
1
0
0
1
0
0
2
0
0
1
1
0
0
0
0
1
0
0
0
0
0
0
0
0
0
0
0
0
1
0
0
0
1
1
0
0
0
0
0
0
2
0
0
0
0
0
0
0
0
0
0
0
0
0
0
1
0
0
0
1
1
0
0
0
0
0
0
0
1
0
0
0
0
0
0
0
0
0
0
0
0
0
0
0
0
0
0
0
0
1
0
2
0
0
0
0
2
1
0
0
2
0
0
1
1
1
0
0
0
0
0
0
0
0
0
0
0
0
0
1
0
2
0
0
0
1
0
0
0
0
0
0
0
0
1
0
0
0
0
0
1
0
2
0
0
0
1
0
0
0
0
0
0
0
0
0
0
0
0
1
0
0
1
0
0
0
1
0
0
0
0
0
0
1
1
0
1
0
0
0
0
0
0
0
0
1
0
1
0
0
0
0
0
0
1
0
1
1
0
0
0
0
0
0
0
0
0
0
0
0
0
0
0
1
1
0
1
0
0
0
1
0
0
0
0
1
0
0
1
0
0
0
0
0
0
0
0
0
0
0
0
0
0
0
1
0
1
0
0
0
0
0
0
0
0
0
1
1
1
0
0
0
0
1
1
0
0
0
0
0
0
0
0
1
0
0
0
0
0
0
0
1
0
1
0
0
0
0
0
0
0
0
0
0
0
1
0
0
0
0
0
0
0
1
0
1
0
0
0
0
0
0
0
0
0
1
1
0
0
0
1
1
0
0
0
0
0
0
0
0
0
0
1
0
0
0
1
0
1
0
0
0
1
0
0
0
1
1
0
1
0
0
0
1
0
0
0
1
0
0
0
1
0
0
0
2
0
1
1
0
0
0
0
0
0
0
0
0
1
2
0
0
0
0
0
1
0
0
1
0
0
0
0
0
0
1
0
1
0
1
0
0
0
0
1
1
0
0
1
0
0
1
0
0
0
0
0
0
0
0
1
0
0
1
0
0
0
0
0
0
0
0
0
0
0
0
0
0
0
0
0
2
1
0
1
0
0
0
1
0
0
0
1
0
0
0
1
0
0
0
1
0
0
1
0
0
0
0
0
1
0
0
0
0
0
0
0
0
0
0
0
0
2
0
0
1
0
0
0
0
0
0
0
0
0
0
0
0
0
0
0
0
0
0
0
0
0
0
0
0
0
0
0
0
0
0
1
0
1
0
0
0
0
0
0
0
0
0
1
0
0
1
1
0
0
0
0
0
0
0
0
0
1
0
0
0
0
0
0
1
0
0
0
0
0
0
0
0
0
0
0
0
0
0
0
0
0
1
0
0
0
1
1
0
0
2
0
1
1
0
0
0
0
0
0
0
0
0
0
1
0
0
0
0
0
0
1
0
0
0
0
1
0
0
0
0
0
0
0
0
0
1
0
1
2
1
1
0
0
0
1
0
0
0
1
0
0
1
0
1
0
0
0
1
1
0
0
0
0
0
0
1
0
0
0
0
1
1
0
3
0
1
0
0
0
0
1
0
0
1
0
0
0
0
0
1
0
0
0
1
0
0
0
0
0
0
0
0
0
0
1
0
0
0
0
1
0
0
1
0
0
0
0
0
0
0
0
0
1
0
0
1
1
0
0
1
0
0
0
0
0
0
1
0
0
0
1
0
1
1
0
1
0
1
0
0
1
0
0
0
0
0
0
1
0
0
0
0
0
2
0
0
0
0
0
0
0
0
0
1
0
0
0
0
0
0
0
0
0
0
0
0
0
0
0
1
1
0
0
2
0
2
1
0
0
0
0
0
0
1
0
0
0
0
0
0
0
1
0
1
0
1
0
0
0
0
0
0
0
0
0
1
2
0
0
1
0
0
0
0
1
0
0
1
2
0
0
0
0
1
0
0
0
0
0
0
0
0
0
0
1
0
0
1
1
0
0
0
0
0
0
0
0
1
0
0
0
0
0
0
1
0
0
0
0
0
1
0
0
0
0
0
0
0
0
0
0
1
0
0
1
0
0
0
0
0
1
0
0
0
0
1
0
0
0
0
1
0
0
0
0
0
0
0
0
0
0
0
1
0
0
0
0
0
0
0
1
0
0
0
0
0
0
0
1
0
0
0
0
0
0
0
1
0
1
1
1
0
0
0
0
0
0
1
0
0
1
0
0
1
0
0
0
0
0
1
0
1
0
0
0
0
0
1
0
0
0
0
0
0
0
0
0
1
1
0
0
1
0
1
0
1
0
0
1
1
0
1
0
0
0
0
0
0
0
0
0
0
0
0
1
0
1
0
0
0
0
0
0
0
1
0
1
0
0
0
0
0
0
1
0
0
0
1
0
0
1
0
0
1
0
0
0
2
1
0
0
0
0
0
0
0
0
0
0
0
1
0
0
0
0
0
0
0
0
0
0
0
0
0
0
0
0
0
0
1
0
0
0
0
1
0
0
0
0
1
0
1
0
0
0
0
0
1
0
0
0
0
0
0
0
0
0
1
0
1
0
0
0
2
1
0
0
0
0
0
0
0
0
0
0
0
0
1
0
1
0
1
0
1
0
0
0
0
0
2
0
0
0
1
1
0
0
1
0
0
0
0
0
1
0
0
0
0
1
0
0
0
0
0
0
0
0
0
0
0
0
0
0
0
0
1
2
0
0
0
0
0
0
0
0
0
0
0
0
0
0
0
0
0
1
0
1
0
1
0
0
0
0
0
0
1
0
0
0
0
0
0
0
0
1
0
0
1
1
0
0
0
0
1
0
2
0
0
1
0
1
1
0
2
0
0
0
0
2
0
0
0
1
0
1
0
1
0
0
0
0
0
0
1
0
0
1
0
0
1
0
0
0
1
0
1
0
1
1
0
0
0
0
0
0
0
0
0
0
0
1
0
0
0
1
1
0
1
0
0
0
1
0
0
0
0
0
0
0
0
0
1
2
0
0
0
0
0
0
0
1
1
1
2
0
0
1
1
0
0
0
0
1
1
2
1
0
0
0
0
1
2
1
1
0
4
0
0
0
0
0
0
0
1
3
0
0
1
0
0
1
0
2
0
0
0
0
0
1
0
0
0
0
0
0
0
0
1
1
0
0
0
0
1
1
0
0
0
1
0
1
0
0
0
0
0
0
0
0
0
1
1
0
0
0
0
0
0
0
0
0
0
0
0
1
1
0
0
0
0
1
0
0
0
0
0
0
0
0
0
0
1
0
1
2
1
0
0
0
0
0
0
1
0
0
0
1
0
1
0
1
0
1
0
1
0
1
1
0
0
0
0
0
0
0
1
0
0
0
0
0
0
0
1
0
0
0
0
1
0
0
0
0
0
0
0
0
0
0
0
0
0
0
0
0
0
0
0
0
0
0
0
0
0
1
1
1
0
0
0
0
0
0
1
0
0
0
0
1
0
0
0
0
1
0
0
0
0
0
0
0
1
0
0
0
0
0
0
0
0
0
1
1
0
0
0
0
0
0
1
0
0
0
0
1
0
0
1
0
0
1
0
1
0
0
0
0
0
0
0
0
0
1
0
0
1
0
0
0
1
0
0
0
0
0
1
0
0
0
0
0
0
0
1
0
0
1
0
0
0
0
0
0
0
0
0
0
1
0
0
0
0
0
0
1
0
0
1
0
0
1
1
0
1
0
0
1
0
0
0
0
1
0
1
1
0
0
0
0
0
1
0
0
0
0
0
0
0
0
1
1
0
0
0
1
0
1
0
0
0
0
1
0
0
1
0
0
0
1
0
2
1
0
0
0
1
0
1
0
0
0
0
0
0
0
0
1
2
0
0
0
0
1
0
0
0
0
1
1
0
1
1
1
0
0
0
0
0
0
0
1
1
2
0
0
0
0
1
1
0
0
0
1
0
1
0
0
0
1
0
0
0
0
1
0
0
0
0
2
1
0
0
0
0
0
0
0
1
1
0
1
0
0
0
0
1
0
0
0
0
0
0
0
1
0
1
0
0
0
0
1
0
1
0
0
0
1
0
0
0
1
0
0
0
1
0
0
1
0
0
0
0
0
1
0
0
0
0
0
0
0
1
0
0
0
0
0
0
0
0
0
0
0
0
0
0
0
0
0
1
0
2
0
1
0
0
0
0
0
0
1
0
0
1
0
0
1
0
0
1
0
1
0
0
0
0
0
0
1
0
0
0
0
0
0
1
1
0
0
0
0
0
0
1
0
2
0
0
0
2
0
0
0
0
1
0
0
0
0
1
2
0
2
0
1
1
0
0
0
0
0
0
0
0
0
0
1
0
0
0
0
0
0
1
0
0
1
0
0
0
0
0
1
0
0
0
0
0
0
1
0
0
0
0
1
1
1
0
0
0
0
1
0
0
0
1
2
1
0
0
0
0
1
0
0
1
0
0
1
0
3
0
0
0
0
1
0
0
0
0
0
0
0
2
0
0
0
0
0
0
0
1
1
0
1
0
1
0
0
0
1
2
2
1
0
0
0
0
0
0
1
1
0
0
1
0
1
0
0
0
0
0
0
0
1
2
0
0
0
0
0
0
0
0
0
1
0
1
1
0
0
1
0
0
0
1
0
0
2
2
1
1
0
0
0
0
0
0
0
0
0
1
0
0
0
0
0
0
0
0
1
0
0
0
1
1
0
1
1
0
0
0
0
0
0
0
0
1
0
1
0
0
1
0
0
0
1
1
1
0
0
0
1
0
1
0
1
1
0
1
0
1
0
1
0
1
1
0
0
1
0
0
0
0
0
0
0
1
0
2
0
0
0
1
0
0
2
0
0
0
1
1
1
0
3
0
0
0
0
0
0
1
1
1
0
0
1
1
0
0
1
0
1
1
2
1
0
1
1
0
1
0
0
0
1
0
1
0
1
0
0
2
0
0
2
0
0
0
0
0
0
0
0
1
1
0
0
1
0
0
1
1
0
0
0
0
0
0
0
0
0
0
0
1
1
1
0
0
0
0
0
0
1
1
1
0
0
0
0
0
0
1
0
1
0
0
0
0
1
0
0
0
1
1
0
0
1
1
1
0
0
3
0
0
0
0
1
1
0
0
0
1
0
1
0
0
0
0
2
0
0
1
2
1
1
0
0
2
0
0
1
0
0
0
1
0
0
0
0
0
1
0
1
0
0
0
1
0
0
0
1
1
0
0
0
0
0
0
1
0
0
0
3
0
3
2
2
3
1
4
2
1
0
3
1
2
1
2
5
4
1
3
2
4
3
5
1
2
3
3
4
0
7
2
3
0
4
3
1
1
2
4
0
1
0
1
3
2
1
4
2
2
4
1
4
0
2
1
2
3
0
1
1
3
3
2
2
3
2
2
3
2
1
0
3
2
4
1
2
1
2
3
3
3
1
3
2
0
5
1
1
1
3
2
1
1
2
2
2
2
2
1
4
0
4
1
3
3
2
3
2
2
2
1
1
3
1
0
3
0
3
3
3
1
2
1
0
0
8
2
0
