0
0
0
0
0
0
0
0
0
0
0
0
0
0
0
0
0
0
0
0
0
0
0
0
0
0
0
0
0
0
0
0
0
0
0
0
0
0
0
0
0
0
0
0
0
0
0
0
0
0
0
0
0
0
0
0
0
0
0
0
0
0
0
0
0
0
0
0
0
0
0
0
0
0
0
0
0
0
0
0
0
0
0
0
0
0
0
0
0
0
0
0
0
0
0
0
0
0
0
0
0
0
0
0
0
0
0
0
0
0
0
0
0
0
0
0
0
0
0
0
0
0
0
0
0
0
0
0
0
0
0
0
0
0
0
0
0
0
0
0
0
0
0
0
0
0
0
0
0
0
0
0
0
0
0
0
0
0
0
0
0
0
0
0
0
0
0
0
0
0
0
0
0
0
0
0
0
0
0
0
0
0
0
0
0
0
0
0
0
0
0
0
0
0
0
0
0
0
0
0
0
0
0
0
0
0
0
0
0
0
0
0
0
0
0
0
0
0
0
0
0
0
0
0
0
0
0
0
0
0
0
0
0
0
0
0
0
0
0
0
0
0
0
0
0
0
0
0
0
0
0
0
0
0
0
0
0
0
0
0
0
0
0
0
0
0
0
0
0
0
0
0
0
0
0
0
0
0
0
0
0
0
0
0
0
0
0
0
0
0
0
0
0
0
0
0
0
0
0
0
0
0
0
0
0
0
0
0
0
0
0
0
0
0
0
0
0
0
0
0
0
0
0
0
0
0
0
0
0
0
0
0
0
0
0
0
0
0
0
0
0
0
0
0
0
0
0
0
0
0
0
0
0
0
0
0
0
0
0
0
0
0
0
0
0
0
0
0
0
0
0
0
0
0
0
0
0
0
0
0
0
0
0
0
0
0
0
0
0
0
0
0
0
0
0
0
0
0
0
0
0
0
0
0
0
0
0
0
0
0
0
0
0
0
0
0
0
0
0
0
0
0
0
0
0
0
0
0
0
0
0
0
0
0
0
0
0
0
0
0
0
0
2
4
8
8
15
6
6
7
7
7
9
4
5
7
8
10
10
6
13
7
7
10
3
7
6
9
11
9
13
9
9
8
9
7
9
7
6
7
7
9
6
8
6
6
5
6
5
7
6
9
5
3
8
4
8
9
3
11
7
8
8
4
4
8
4
4
7
9
4
7
9
5
6
5
9
7
7
9
4
6
9
11
5
13
4
8
3
5
8
4
10
11
8
7
13
9
10
6
8
5
4
7
8
7
13
3
6
9
3
8
10
3
10
5
9
8
8
2
5
9
7
8
7
4
5
2
7
7
5
6
2
8
5
4
11
8
10
4
8
8
6
6
3
9
7
5
5
10
8
8
5
9
9
5
7
5
6
4
4
8
6
5
6
8
7
3
6
5
4
10
7
8
8
11
3
3
5
5
8
6
5
5
7
5
8
8
10
2
6
5
8
11
8
10
4
7
3
7
7
6
3
3
5
5
3
6
4
6
4
6
5
8
4
2
8
1
5
7
6
2
3
5
6
8
8
6
5
7
9
3
4
6
2
5
5
2
5
5
9
3
6
5
5
3
8
5
7
5
8
5
4
5
3
6
7
8
5
2
6
7
9
4
3
9
6
4
6
2
2
3
4
8
1
5
7
6
9
1
2
7
2
5
4
6
7
10
6
7
6
7
4
5
2
5
5
4
8
7
3
4
5
5
6
6
2
4
3
6
3
8
4
3
8
8
4
4
5
3
9
6
3
2
5
3
1
5
2
7
2
11
6
4
8
7
3
5
4
4
4
4
4
1
5
7
1
2
5
4
5
3
5
6
4
6
5
3
3
4
14
2
2
5
5
4
6
4
5
4
5
5
2
4
7
9
7
5
4
2
10
5
4
3
4
11
3
3
1
4
4
7
3
10
3
3
3
0
1
4
3
6
4
5
2
9
3
3
5
7
6
5
7
7
4
4
3
5
8
4
4
3
0
3
2
5
3
6
5
5
5
2
6
2
7
4
4
6
3
2
1
4
5
3
6
3
7
5
3
4
1
5
5
5
3
3
1
6
3
3
4
6
3
2
4
1
2
4
6
2
8
5
1
1
1
2
7
8
8
2
5
3
3
3
4
5
3
3
8
6
5
6
1
7
6
3
6
3
1
3
0
5
2
6
4
5
6
3
4
4
1
8
3
6
1
6
2
3
4
2
7
9
5
4
3
3
1
3
6
3
3
2
2
3
3
3
4
2
4
3
2
3
3
3
1
4
5
4
4
2
5
7
8
1
4
2
3
4
0
5
7
3
3
5
3
3
2
3
7
8
5
5
1
5
4
4
3
3
6
6
1
8
3
3
3
3
3
3
1
5
2
5
3
5
5
4
5
3
5
5
4
0
6
3
3
4
0
3
4
4
4
3
5
5
3
1
7
5
2
4
3
6
2
3
5
3
4
4
1
1
3
2
1
2
6
8
2
2
2
5
2
4
4
2
5
6
9
1
3
4
4
6
2
4
1
4
1
4
2
2
2
8
4
3
4
3
5
2
1
4
2
3
4
5
6
3
2
2
1
7
4
1
3
2
1
4
0
3
3
4
5
1
2
3
1
2
4
2
5
3
4
4
9
3
4
2
3
4
0
2
3
2
2
1
3
6
6
6
0
4
1
2
4
3
4
2
7
2
4
1
7
6
4
5
7
7
1
2
5
3
4
6
2
6
3
5
2
7
1
4
3
4
5
4
3
1
6
8
3
7
6
5
2
2
2
3
2
2
4
3
5
2
2
3
4
4
1
4
5
7
6
5
3
5
2
3
1
5
4
1
4
1
4
3
5
6
4
3
4
5
4
5
7
6
7
1
4
7
4
7
6
4
4
5
2
5
5
5
4
2
0
4
2
3
4
2
1
2
2
2
4
2
2
5
5
4
3
4
12
3
6
6
2
8
4
4
8
8
4
8
4
8
4
6
6
6
2
3
2
2
4
5
6
5
7
2
2
3
4
5
3
7
3
5
3
5
6
2
7
11
4
2
5
5
11
4
3
3
4
4
8
8
6
7
4
7
0
1
5
4
6
5
5
3
3
2
4
9
6
6
4
3
4
6
4
9
7
3
4
11
5
11
5
3
5
4
9
8
10
3
6
3
4
9
3
4
3
8
7
4
5
9
3
6
7
5
8
7
7
4
6
5
9
6
7
10
8
12
4
6
3
6
3
2
4
5
7
15
12
3
11
9
3
7
3
6
3
8
10
6
7
4
8
5
10
6
7
6
6
9
8
5
6
11
6
16
14
9
4
10
8
4
14
5
6
3
11
7
10
10
10
7
4
7
5
15
10
7
8
8
4
7
8
10
5
13
11
9
3
5
8
9
11
7
11
14
5
9
15
13
12
10
16
9
8
2
16
18
10
13
12
13
16
9
7
9
11
14
15
14
13
14
9
7
13
17
14
8
14
13
14
17
6
14
10
8
19
10
12
11
15
17
5
11
13
7
12
14
17
16
13
15
18
14
12
27
14
17
12
14
23
19
17
9
21
15
19
20
21
16
6
15
19
18
19
17
27
15
23
26
20
19
22
23
19
12
18
18
23
20
16
24
21
24
27
13
20
23
17
20
18
19
20
27
23
21
16
17
26
26
27
25
17
27
29
26
29
17
23
30
26
28
34
31
27
26
23
23
31
31
21
28
30
28
34
19
33
35
35
28
36
32
35
24
29
30
36
29
33
31
30
39
30
34
33
33
29
23
31
25
26
32
29
28
31
33
28
37
24
32
33
29
34
40
32
24
27
30
34
28
30
34
32
34
27
40
33
29
25
26
23
24
25
24
25
26
33
26
25
25
29
29
30
23
13
32
18
27
21
17
19
25
22
29
17
30
10
22
21
16
18
14
19
22
12
19
25
24
17
17
21
23
21
21
18
14
8
18
18
21
17
19
17
13
16
18
15
9
10
12
11
18
15
9
8
13
8
17
9
14
12
9
14
14
10
13
14
8
9
12
10
8
11
7
6
3
4
10
8
12
11
4
11
11
13
6
7
8
8
7
9
9
2
10
11
6
8
10
6
5
4
6
11
9
6
11
2
11
3
7
2
9
4
2
4
4
2
6
9
2
2
2
10
5
4
5
4
5
5
2
2
6
5
3
3
1
1
2
5
3
4
2
2
2
5
3
5
4
2
6
4
6
4
3
3
2
3
1
5
5
5
3
2
0
2
5
2
5
3
2
1
5
1
0
3
2
3
7
3
4
1
2
4
3
2
1
1
3
2
4
1
3
1
2
0
2
1
2
1
1
2
1
4
2
1
3
3
1
3
3
1
4
1
1
5
2
2
0
2
2
4
4
3
2
5
4
1
0
4
2
1
3
2
1
1
2
2
0
1
2
1
2
0
3
1
2
0
2
1
4
1
1
4
1
1
1
3
2
1
1
0
0
2
0
2
0
2
6
0
3
1
0
0
1
3
3
2
3
4
2
2
1
1
3
4
1
1
2
1
2
0
1
1
0
2
3
1
1
0
4
2
2
3
1
0
3
1
0
2
3
1
0
1
3
2
1
2
1
3
1
2
1
1
2
2
1
2
1
1
1
2
3
0
2
0
2
4
0
1
1
1
2
2
3
2
2
2
2
0
1
4
0
2
2
1
2
0
2
4
0
1
4
3
1
1
2
3
2
1
1
1
6
1
3
3
1
2
2
3
4
2
3
2
2
3
4
0
3
1
0
2
1
1
1
0
1
2
5
1
0
3
4
2
1
1
2
0
0
0
3
1
1
0
1
3
0
3
2
1
0
1
2
0
2
0
1
0
1
2
1
2
2
0
2
1
0
2
2
2
0
0
1
0
2
4
1
1
2
2
2
1
2
4
2
3
2
0
1
1
6
0
2
3
3
1
4
2
2
1
3
0
1
2
1
1
2
3
5
4
1
1
1
5
3
3
2
4
2
1
0
2
2
0
3
1
1
4
2
1
2
3
2
2
2
1
2
3
2
3
3
1
2
2
4
2
2
4
2
0
1
1
1
2
3
2
2
2
2
2
2
1
0
2
2
3
0
2
1
2
3
1
2
1
2
1
4
0
1
4
1
0
5
4
2
1
1
1
1
2
3
2
2
1
3
0
3
2
2
3
3
3
5
1
2
1
2
0
0
5
3
0
0
2
2
3
2
4
2
6
3
3
0
1
4
2
3
1
1
2
0
0
1
0
1
2
4
4
3
1
2
2
3
2
0
3
1
0
3
4
3
1
1
0
3
4
1
2
2
3
5
1
1
1
1
1
0
2
3
1
2
0
1
1
2
4
0
2
4
3
0
4
0
1
0
1
3
1
2
1
1
3
1
2
3
1
1
1
2
1
4
2
0
0
3
4
1
0
2
4
0
0
0
1
1
2
2
1
1
2
2
0
2
1
0
3
2
0
2
3
2
0
2
3
1
1
3
1
5
1
2
2
1
1
1
0
2
3
1
2
3
3
1
3
3
0
1
0
1
3
6
0
1
2
1
0
1
3
1
2
1
0
3
2
3
1
2
2
3
1
1
2
3
2
2
3
2
1
0
2
0
3
3
2
1
4
1
2
3
0
3
2
2
0
1
2
0
0
3
1
2
2
4
2
0
1
1
2
3
3
4
1
1
2
2
2
0
2
3
2
0
3
1
3
2
1
3
1
1
1
0
1
1
2
3
3
0
2
2
3
1
1
2
6
2
1
0
1
1
2
4
2
3
0
2
2
2
2
0
2
0
1
4
1
0
3
1
1
0
2
0
2
1
0
1
4
1
1
2
8
4
3
0
0
2
3
3
2
2
5
5
0
4
4
0
1
1
1
1
3
1
0
5
0
0
3
2
5
1
2
0
1
4
2
2
2
2
0
4
3
2
6
5
2
0
0
0
2
1
6
3
3
2
4
3
1
3
2
3
0
3
3
4
3
2
2
0
3
0
3
2
2
0
3
1
4
1
0
1
0
1
1
4
1
3
1
0
1
1
1
1
4
3
0
0
1
2
1
0
2
4
0
2
0
1
3
2
4
2
1
4
1
4
0
1
2
1
1
4
2
1
0
0
2
2
1
2
1
3
0
2
2
2
1
1
1
2
2
2
1
2
2
3
3
1
1
0
3
1
3
3
4
4
0
5
0
0
3
6
3
4
1
1
2
1
1
2
0
1
5
4
2
1
0
3
3
1
2
3
1
1
2
1
1
0
2
1
3
2
2
1
3
3
1
3
3
2
1
4
1
0
3
2
3
1
1
1
1
3
3
2
4
1
6
6
3
1
3
3
3
2
1
4
2
3
4
2
3
2
3
3
1
3
2
6
1
2
4
5
3
3
4
5
2
0
0
2
0
3
2
1
1
4
2
0
3
1
0
4
1
2
1
3
0
2
0
4
3
0
1
2
1
2
2
1
1
2
3
3
3
5
3
3
4
2
2
5
6
2
2
2
1
1
3
3
3
2
3
2
1
3
1
5
6
1
4
2
3
5
0
2
3
1
4
3
4
3
3
1
1
2
2
8
4
1
2
2
1
2
2
2
3
2
2
3
4
2
0
1
2
1
2
4
1
2
4
2
1
7
5
7
4
6
4
2
4
1
3
4
5
4
2
4
1
0
1
3
3
0
0
5
2
2
2
4
1
2
2
5
0
2
1
0
3
5
2
3
3
2
3
4
1
7
3
4
3
4
3
1
0
2
4
2
2
3
5
2
3
2
5
2
1
2
5
1
5
3
1
4
0
1
1
5
4
5
1
5
3
4
0
5
4
2
5
4
4
5
1
1
5
3
1
2
3
4
3
4
1
3
3
5
4
6
2
3
3
5
4
3
3
1
5
3
3
3
4
7
2
3
2
2
2
2
1
2
5
6
1
2
0
3
3
2
3
2
4
4
1
3
5
0
4
5
7
7
6
3
3
6
4
2
5
3
5
4
4
2
3
7
4
4
7
4
4
3
3
4
5
3
4
3
2
4
1
5
9
6
3
3
4
5
6
5
6
3
3
3
3
7
6
3
6
4
5
3
3
5
4
2
2
6
4
4
3
5
6
2
5
2
2
3
4
4
3
3
3
9
4
3
2
3
1
1
3
2
7
1
3
6
4
7
5
4
7
6
3
4
3
5
6
1
4
2
3
3
3
5
7
6
6
2
5
5
6
2
3
5
3
4
7
5
2
4
6
7
3
6
3
8
6
7
7
4
4
3
4
5
6
2
5
6
12
9
4
7
5
6
3
9
3
10
1
7
6
5
7
3
10
8
4
9
12
5
7
2
5
11
7
3
8
5
6
7
3
5
3
3
5
7
4
5
9
4
7
6
6
6
4
4
5
9
8
6
7
6
3
10
8
5
6
10
7
6
6
5
4
7
5
5
6
5
8
5
8
7
12
7
9
5
13
6
1
7
8
9
6
11
7
2
4
9
8
3
9
7
8
9
7
4
9
2
8
10
5
5
11
6
5
11
9
7
9
8
5
13
3
6
4
4
7
9
9
11
6
10
11
10
8
9
5
9
5
8
5
12
8
7
6
8
9
9
12
5
8
10
4
14
8
8
7
11
6
7
8
6
6
14
7
14
12
8
6
10
10
17
10
7
9
5
6
7
16
7
7
9
11
4
10
9
4
6
12
10
9
15
14
6
7
7
8
15
17
10
11
7
10
2
12
8
15
10
17
9
8
10
6
12
5
5
8
9
11
13
9
11
6
9
12
13
13
15
8
8
11
18
11
12
10
14
11
14
11
15
9
13
11
12
13
6
12
9
8
12
17
7
11
16
17
8
8
15
14
3
14
13
19
16
14
16
17
12
10
16
11
13
22
14
15
11
20
12
14
12
20
21
20
17
20
19
13
13
13
12
17
19
15
11
13
13
19
15
10
15
17
12
13
14
12
19
18
12
16
16
17
16
21
23
18
15
18
22
8
17
17
17
20
22
22
18
23
22
20
16
24
15
23
17
18
18
25
14
22
20
14
29
21
21
16
31
22
20
17
31
14
25
24
14
23
19
22
21
19
17
23
18
19
18
21
18
21
26
28
20
16
23
21
16
19
12
32
23
31
21
23
29
29
25
24
26
22
24
28
21
23
27
22
24
29
19
29
30
25
24
28
23
22
21
26
28
40
31
30
31
26
25
16
37
22
30
34
30
36
31
34
39
35
18
40
33
22
36
36
36
34
26
48
30
38
38
25
34
36
31
34
38
33
43
49
37
36
27
38
39
43
32
48
33
48
42
30
37
45
43
45
40
51
41
30
51
42
34
35
52
47
51
48
45
59
48
58
56
56
51
65
59
43
67
66
76
45
62
54
61
61
48
57
66
55
56
73
74
63
64
73
81
80
68
58
85
69
67
77
85
81
79
67
91
83
81
80
80
79
83
91
89
84
105
101
113
101
101
111
113
91
114
105
116
117
124
118
100
141
134
135
123
119
141
140
121
133
135
150
155
159
150
143
158
131
158
139
149
181
178
177
158
206
190
203
203
182
197
215
185
213
216
208
213
219
240
231
1
16777422
254
240
2
16777233
16777217
16777463
255
18
16777237
16777236
16777251
16777468
22
16777216
16777249
16777248
16777224
16777241
16777269
16777238
16777264
16777250
16777266
16777255
16777246
16777245
16777237
16777243
16777262
16777250
16777259
16777264
16777235
16777236
16777226
16777261
16777232
16777464
0
16777467
223
246
244
9
16777438
217
221
237
203
211
224
186
184
174
153
195
155
152
156
161
168
128
126
123
120
123
119
125
97
93
94
87
80
84
85
73
58
61
46
59
62
47
49
48
45
55
41
46
29
31
31
28
22
35
20
37
24
36
29
21
28
30
26
27
24
20
16
24
21
30
15
26
26
17
21
16
14
31
23
23
18
20
21
15
13
22
19
31
16
12
16
18
25
25
18
14
23
21
19
27
19
16
21
13
20
16
11
18
18
19
16
16
16
23
19
20
23
17
25
16
23
20
17
21
20
23
17
12
11
16
18
20
10
13
15
13
16
16
15
12
13
20
17
12
26
22
23
20
19
18
11
22
12
15
19
9
21
23
9
17
14
20
19
12
20
24
17
19
17
21
20
13
15
24
22
18
16
17
12
19
24
12
13
28
16
21
21
18
27
24
21
20
20
18
20
18
24
12
23
31
14
18
15
28
25
22
19
16
18
22
15
28
24
23
26
21
21
12
21
21
30
23
26
31
23
24
26
21
23
24
28
29
15
26
28
26
34
20
28
31
21
25
29
26
27
23
35
35
34
33
27
38
27
34
31
32
31
36
30
28
31
30
27
36
37
26
36
33
31
32
27
33
34
36
31
31
46
31
33
30
31
40
28
31
37
32
40
34
33
43
42
40
46
52
33
55
31
43
52
48
43
28
41
44
42
40
38
51
41
51
45
39
48
52
46
47
54
47
54
37
48
43
43
58
43
51
47
46
58
41
56
45
51
43
51
39
57
41
51
48
41
47
40
53
46
44
42
46
50
47
48
42
51
51
62
56
53
42
52
55
44
47
51
43
65
54
54
61
45
54
62
48
42
67
59
59
66
65
68
62
65
71
53
57
51
72
65
81
74
61
78
82
86
72
71
87
76
81
75
90
100
73
91
78
96
85
91
91
103
90
94
99
92
89
87
98
101
108
106
110
123
114
129
110
133
117
117
125
128
124
152
149
144
163
157
154
154
155
156
213
153
159
184
167
180
187
203
173
216
188
211
241
228
255
233
237
254
246
37
16777224
16777227
16777246
16777242
16777232
16777285
16777274
16777266
16777291
16777304
16777327
16777303
16777319
16777350
16777350
16777367
16777403
16777374
16777379
16777347
16777376
16777412
16777397
16777421
16777216
33554613
16777444
16777232
33554439
33554661
16777227
33554664
16777223
33554672
16777231
33554466
33554467
33554450
33554682
16777239
33554453
33554507
33554493
33554491
33554470
33554466
33554516
33554433
33554497
33554491
33554444
33554453
33554440
33554480
33554440
33554456
33554464
33554635
16777444
16777232
33554656
16777428
16777418
16777422
16777415
16777369
16777406
16777384
16777347
16777308
16777298
16777277
16777288
16777268
16777246
16777249
16777249
16777255
16777468
234
229
222
220
169
160
150
151
154
134
112
121
114
99
104
98
91
71
76
59
36
60
52
44
41
36
30
27
20
38
24
11
22
19
18
10
12
11
9
4
7
6
6
3
8
4
3
5
0
1
2
2
0
1
2
1
0
1
0
0
0
0
0
0
1
0
0
0
0
0
0
0
0
0
1
0
1
0
0
0
0
0
0
1
0
0
0
0
0
0
0
0
0
0
0
0
0
0
0
0
0
0
0
0
0
0
0
0
1
0
0
0
0
0
0
0
0
0
0
0
0
0
0
0
0
0
1
0
0
0
1
0
0
0
0
0
0
0
0
0
1
0
0
0
0
0
0
0
0
0
0
0
0
0
0
0
0
0
0
0
0
0
0
0
0
1
0
0
0
0
0
0
0
0
0
0
0
0
0
0
2
0
0
0
0
0
0
0
0
0
0
0
0
0
0
0
0
0
0
0
0
0
0
0
1
0
0
1
0
0
0
0
0
0
0
0
0
0
0
0
0
0
0
0
0
0
1
0
0
0
0
0
0
0
1
0
0
0
0
0
0
0
0
0
0
0
0
0
0
0
0
0
0
0
0
0
0
0
0
0
0
0
0
0
0
0
0
0
0
0
0
0
0
0
0
0
0
0
0
0
0
0
0
0
0
0
0
0
0
0
0
0
0
0
0
0
0
0
0
0
0
0
0
0
0
0
0
0
0
0
0
0
0
0
0
0
0
0
0
0
0
0
0
0
0
0
0
0
0
0
0
0
0
0
0
0
0
0
0
0
0
0
0
0
0
0
0
0
0
0
0
0
0
0
0
1
0
0
0
0
0
0
0
0
0
0
0
0
0
0
0
0
0
0
0
0
0
0
0
0
0
0
0
0
0
0
0
0
0
0
0
0
0
0
0
0
0
0
0
0
0
0
0
0
0
0
0
0
0
0
0
0
0
0
0
0
0
0
0
0
0
0
0
0
0
0
0
0
0
0
0
0
0
0
0
0
0
0
0
0
0
0
0
0
0
0
0
0
0
0
0
0
0
0
0
0
0
0
0
0
0
0
0
0
0
0
0
0
0
0
0
0
0
0
0
0
0
0
0
0
0
0
0
0
0
0
0
1
0
0
0
0
0
0
0
0
0
0
0
1
0
0
0
0
0
0
0
0
1
0
0
0
0
0
0
0
0
0
0
0
0
0
0
1
0
0
0
0
0
0
0
0
0
0
0
0
0
0
0
0
0
0
0
2
0
0
0
0
0
0
0
0
0
0
0
0
0
0
0
0
0
0
0
0
0
0
0
0
0
0
0
0
0
0
0
0
0
0
0
0
0
0
0
0
0
0
0
0
0
0
0
0
0
0
0
0
0
0
0
0
0
0
0
0
1
0
0
0
0
0
0
0
0
0
0
0
0
0
0
0
0
0
0
0
0
0
0
0
0
0
0
0
0
0
0
0
0
0
0
0
0
0
0
0
0
0
0
0
0
0
0
0
0
0
0
0
0
0
0
0
0
0
0
0
0
0
0
0
0
0
0
0
0
0
0
0
0
0
0
0
0
0
0
1
1
0
0
0
0
0
0
0
1
0
0
0
0
0
0
0
0
0
0
0
0
0
0
0
0
0
0
0
0
0
0
0
0
0
0
0
0
0
0
0
0
0
1
0
0
0
0
0
0
0
0
0
0
0
0
0
1
0
0
0
0
0
0
0
1
0
0
0
0
0
0
0
0
1
0
0
0
0
0
0
0
0
0
0
0
0
0
0
0
0
0
0
0
0
0
0
0
0
0
1
0
0
0
0
1
0
0
0
0
0
0
0
0
0
0
0
0
0
0
0
0
0
0
0
0
0
0
0
0
0
0
0
0
0
0
0
0
0
0
0
0
0
0
0
0
0
0
0
0
0
0
0
0
0
0
0
1
0
0
0
0
0
0
0
0
0
0
0
0
0
0
0
1
0
0
0
0
0
0
0
0
0
0
0
0
0
0
0
0
0
0
0
0
0
0
0
0
0
0
0
0
0
0
0
1
0
0
0
0
0
0
0
0
0
0
0
0
0
0
1
0
0
0
0
0
0
0
0
0
0
0
0
0
0
0
0
0
1
0
0
0
0
0
0
0
0
0
0
0
0
0
0
0
0
1
0
0
0
0
0
0
0
0
0
0
0
0
0
0
0
0
0
0
0
0
0
0
0
0
0
0
0
0
0
0
0
0
0
0
0
0
0
0
0
0
0
0
0
0
0
0
0
0
0
0
0
0
0
0
0
0
0
0
0
0
0
1
0
0
0
0
0
0
0
0
0
0
0
0
0
0
0
0
1
0
0
0
0
0
1
0
0
0
0
0
0
0
0
0
0
0
0
0
0
0
0
0
0
0
0
0
0
0
0
0
0
0
0
0
0
0
0
0
0
0
0
0
0
0
0
0
0
0
0
0
0
0
0
0
0
0
0
0
1
0
0
0
0
0
0
0
0
0
0
0
0
0
0
0
0
0
0
0
0
0
0
0
0
0
0
0
0
0
0
0
0
0
0
0
0
0
0
0
0
0
0
0
0
0
0
0
1
0
1
0
0
0
0
0
0
0
0
0
0
0
0
0
0
0
0
0
0
0
0
0
0
0
0
0
0
0
0
0
0
0
0
1
0
0
0
0
0
0
1
0
0
0
0
0
0
0
0
0
0
0
0
0
0
0
0
0
0
0
0
0
0
0
0
0
0
0
0
0
0
0
0
0
0
0
0
0
0
0
0
0
0
0
0
0
0
0
0
0
0
0
0
0
0
0
0
0
0
0
0
0
0
1
0
0
0
0
0
1
0
0
0
0
0
0
1
0
0
0
0
0
0
0
0
0
0
0
0
0
0
0
0
0
0
0
1
0
0
0
0
0
0
0
0
0
0
0
0
0
0
0
0
0
0
0
0
0
0
0
0
0
0
0
0
0
0
0
0
0
1
0
0
0
0
0
0
0
0
0
0
1
0
0
0
0
0
0
0
0
0
0
0
0
0
0
0
0
0
0
0
0
0
0
0
0
1
0
0
0
0
1
0
0
0
0
0
0
0
0
0
0
0
1
0
0
0
0
0
0
0
0
0
1
0
0
0
0
0
0
0
0
0
0
0
0
0
0
0
0
0
0
0
1
0
0
0
0
0
0
0
0
0
0
0
0
0
0
0
0
0
0
0
0
0
0
0
0
0
0
0
0
0
0
0
0
0
0
0
0
0
0
0
0
0
0
0
0
0
0
0
0
0
0
0
0
0
0
0
0
0
0
0
0
0
0
0
0
0
0
0
0
0
0
0
0
0
0
0
0
0
0
0
0
0
0
0
0
0
0
0
0
0
0
0
0
0
0
0
0
0
0
0
0
0
0
0
0
0
1
0
0
0
0
0
0
0
0
0
0
0
0
0
0
0
0
0
0
0
0
0
0
0
0
0
0
0
1
0
0
0
0
0
0
0
0
0
0
0
0
0
0
0
0
0
0
0
0
0
0
0
0
0
0
0
0
0
0
0
0
0
0
0
0
0
0
0
0
0
0
0
0
0
0
0
0
0
0
0
0
0
0
0
0
0
0
0
0
0
0
0
0
0
0
0
0
0
0
0
0
0
0
0
0
0
0
0
0
0
0
0
0
0
0
1
0
0
0
0
0
0
0
0
0
0
0
0
0
0
0
0
1
0
0
0
0
1
0
0
0
0
0
0
0
0
0
0
0
0
0
0
0
0
0
0
0
0
0
0
0
0
0
0
0
0
0
0
0
0
0
0
0
0
0
0
0
0
0
0
0
1
0
0
0
0
0
0
0
0
0
0
0
0
0
0
0
0
0
0
0
0
0
0
0
0
0
0
0
0
0
0
0
0
0
0
0
0
0
0
0
0
0
0
0
0
0
0
0
0
0
0
0
0
0
0
0
0
0
0
0
0
0
0
0
0
0
0
0
0
0
0
0
0
0
1
0
0
0
0
0
0
0
0
0
0
0
1
0
0
0
0
0
0
0
0
0
0
0
0
2
0
0
0
0
0
1
0
0
0
0
0
0
0
0
0
0
0
0
0
0
0
0
0
0
1
0
0
0
0
0
0
0
0
0
0
0
0
0
0
0
0
0
0
0
0
0
0
0
0
0
0
0
1
0
0
0
0
0
0
0
0
0
0
0
0
0
0
0
0
0
0
0
0
0
0
0
0
0
0
0
0
0
0
0
0
0
0
0
0
0
0
0
0
0
0
0
1
0
0
0
0
0
0
0
0
0
0
0
0
0
0
0
0
0
0
0
0
0
0
0
0
0
0
0
0
0
0
0
0
0
0
0
0
0
0
0
0
0
0
0
1
0
0
1
0
0
0
0
0
0
0
0
0
0
0
0
0
0
1
1
0
0
0
0
0
0
0
0
1
0
0
0
0
0
0
0
0
0
0
0
0
0
0
0
0
0
0
0
0
0
0
0
0
0
0
0
0
0
0
0
0
0
1
0
0
0
0
0
0
0
0
0
0
0
0
0
0
0
0
0
0
0
0
0
0
0
0
0
0
0
0
0
1
0
0
0
0
0
0
0
0
0
0
0
0
0
0
0
0
0
0
0
0
0
0
0
0
0
0
0
0
0
0
0
0
0
0
0
0
0
0
1
1
0
0
0
0
0
0
0
0
0
0
0
0
0
0
0
0
0
0
0
0
0
0
0
0
0
0
0
0
0
0
0
0
0
0
0
0
0
0
0
0
0
0
0
0
0
0
0
0
0
0
0
0
0
0
0
0
0
0
0
0
0
0
0
0
0
0
0
0
0
0
0
0
0
0
0
0
0
0
0
0
0
0
0
0
0
0
1
0
0
0
0
0
0
0
0
1
0
0
0
0
0
0
0
0
0
0
0
0
0
0
0
0
0
0
0
0
0
0
0
1
0
0
0
0
0
0
0
0
0
0
0
0
0
0
0
0
0
0
0
1
0
0
0
0
0
0
0
0
0
0
0
0
0
0
0
0
0
0
0
0
0
0
0
0
0
0
0
0
0
0
0
0
0
0
0
0
0
0
0
1
0
0
0
1
0
0
0
0
0
0
0
0
0
0
0
0
0
0
0
0
0
0
0
1
0
0
0
0
0
0
0
0
0
0
0
0
0
0
0
0
0
0
0
0
0
0
0
0
0
0
0
0
0
0
0
0
0
0
0
0
0
0
0
0
0
0
0
0
0
0
0
0
0
1
0
0
0
0
0
0
0
0
0
0
0
0
0
0
0
0
0
0
0
0
0
0
0
0
0
0
0
0
0
0
0
0
0
0
0
0
0
0
0
0
0
0
1
0
0
0
0
1
0
0
0
0
0
0
0
1
0
0
0
0
0
0
0
0
0
0
0
0
0
0
0
0
0
0
0
0
0
0
0
0
0
0
0
0
0
0
0
1
0
0
0
0
0
0
1
0
1
0
0
0
0
0
1
0
0
0
0
0
0
0
0
0
0
0
0
0
0
0
0
0
0
0
0
0
0
1
0
0
0
0
0
0
0
0
0
0
0
0
0
0
0
0
0
0
0
0
0
0
0
0
0
0
0
0
0
0
0
0
0
0
0
0
0
0
0
0
0
0
0
0
0
0
0
0
0
0
0
0
0
0
0
0
0
0
0
0
0
0
0
0
0
0
0
0
0
0
0
0
0
0
0
0
0
0
0
0
0
0
0
0
0
0
0
0
0
0
0
0
0
0
0
0
0
0
0
0
0
0
0
0
0
0
0
0
0
0
0
0
0
0
0
0
0
0
0
0
0
0
0
0
0
0
0
0
0
0
0
0
0
0
0
0
0
1
0
0
0
0
0
0
0
0
0
0
0
0
0
0
0
0
0
0
0
0
0
0
0
0
0
0
0
0
0
0
0
0
0
0
0
0
0
0
0
0
0
0
0
0
0
0
0
0
0
0
0
0
0
0
0
0
0
0
0
0
0
0
0
0
0
0
0
0
0
0
0
0
0
0
0
1
0
0
0
0
0
0
0
0
0
0
0
0
0
1
0
0
0
0
0
0
0
0
0
0
0
0
0
0
0
0
0
0
0
0
0
0
0
0
0
0
0
0
0
0
0
0
0
0
0
0
0
0
0
0
0
0
0
0
0
0
0
0
0
0
0
0
0
0
0
0
0
0
0
0
0
0
0
0
0
0
0
0
0
0
0
0
0
0
0
0
0
0
0
1
0
0
0
0
0
0
0
0
0
0
0
0
0
0
0
0
0
0
0
0
0
0
0
0
0
0
0
0
0
0
0
0
0
0
1
0
0
0
1
0
0
0
0
0
0
0
0
0
0
0
0
0
0
0
0
0
0
0
0
0
0
0
0
0
0
0
0
0
0
0
0
0
0
0
0
0
0
0
0
0
0
0
0
0
0
0
0
0
0
0
0
0
0
0
0
0
0
0
0
0
0
0
0
0
0
0
0
0
0
0
0
0
0
0
0
0
1
0
0
0
0
0
0
1
0
0
0
0
1
0
0
0
0
0
0
0
0
0
0
0
0
0
0
0
0
0
0
1
0
0
0
0
0
0
0
0
0
0
0
0
0
0
0
0
0
0
1
0
0
1
0
0
0
0
0
0
0
0
0
0
0
0
0
0
0
0
0
0
0
0
0
0
0
0
0
0
0
0
0
0
1
0
0
0
0
0
0
0
0
0
0
0
0
0
0
0
0
0
0
0
0
0
0
0
0
0
0
0
0
0
0
0
0
0
0
0
0
0
0
0
1
0
0
0
0
0
0
0
0
1
0
0
0
0
0
0
0
0
0
0
0
0
0
0
0
0
0
0
0
0
0
0
0
0
0
0
0
0
0
0
0
0
0
0
0
0
0
0
0
0
0
0
1
0
0
0
0
0
1
0
0
0
0
0
1
0
1
1
0
0
0
0
0
0
0
0
0
0
0
0
0
0
0
0
0
1
0
0
0
0
0
1
0
0
0
1
0
0
0
0
0
0
0
0
0
0
0
0
0
0
0
0
0
0
0
0
0
0
0
0
0
0
0
0
0
1
0
0
0
0
0
1
0
0
0
0
0
1
0
0
0
0
0
0
0
0
0
0
0
0
0
0
0
0
0
0
0
0
0
0
0
0
0
0
0
0
0
0
0
0
0
0
0
0
0
0
0
0
0
0
0
0
0
0
0
0
0
0
0
0
0
0
0
0
0
0
0
0
0
0
0
0
0
0
0
0
0
0
0
1
0
0
1
0
1
0
0
0
0
0
0
0
0
0
0
1
1
0
1
0
0
0
0
0
0
0
0
0
0
0
0
0
0
0
0
0
0
0
0
0
0
0
0
0
0
0
0
0
0
0
0
0
0
0
0
0
0
0
0
0
0
0
1
0
0
0
0
0
0
0
0
0
0
0
0
0
0
0
0
0
0
0
0
0
0
1
0
0
0
0
0
0
0
0
0
0
0
1
0
0
0
0
0
0
0
1
0
0
0
0
0
0
0
0
0
0
0
0
0
0
0
0
0
0
0
0
0
0
0
0
0
0
0
0
0
0
1
0
0
0
0
0
0
0
1
0
0
0
0
0
0
0
0
0
0
0
0
0
0
0
0
0
0
0
0
0
1
0
0
0
0
0
0
0
0
0
0
0
0
0
0
0
0
0
0
0
0
0
0
0
0
0
0
0
0
0
0
0
0
0
0
0
0
0
0
0
0
0
0
0
0
0
0
0
0
0
0
0
0
0
0
0
0
0
0
0
0
0
0
0
0
0
0
0
0
0
0
0
0
0
0
0
0
0
0
0
0
0
0
0
0
0
0
0
0
0
0
0
0
0
0
0
0
0
0
0
0
0
0
0
0
0
0
0
0
0
0
0
0
0
0
0
0
0
0
0
0
0
0
0
0
0
0
0
0
0
0
0
0
0
0
0
0
0
0
0
0
0
0
0
0
0
0
0
0
0
0
0
0
0
0
0
0
0
0
0
0
0
0
1
0
0
0
0
0
0
0
0
0
0
0
0
0
0
0
0
0
0
0
0
0
0
0
0
0
0
0
0
0
0
0
0
0
0
0
0
0
0
0
0
0
0
0
0
0
0
0
0
0
0
0
0
0
0
0
0
0
0
0
0
0
0
0
0
0
0
0
0
0
0
0
0
0
0
0
0
0
0
0
0
0
0
0
0
0
0
0
0
0
0
0
0
0
0
0
0
0
0
1
0
0
0
0
0
0
0
0
0
0
0
0
0
0
0
0
0
0
0
0
0
0
0
0
0
0
0
0
0
0
0
0
0
0
0
0
0
0
0
0
0
0
0
0
0
0
0
0
0
0
0
0
0
0
0
0
0
0
0
0
0
0
0
0
0
0
0
0
0
0
0
0
0
0
0
0
0
0
0
0
0
0
0
0
0
0
0
0
0
0
0
0
0
0
0
0
0
0
0
0
0
0
0
0
0
0
0
0
0
0
0
0
0
0
0
0
0
0
0
0
0
0
0
0
0
0
0
0
0
0
0
0
0
0
0
0
1
0
2
0
0
0
0
0
0
0
0
0
0
1
0
0
0
1
0
0
0
0
0
2
1
0
0
1
0
0
0
0
1
0
0
0
1
0
0
0
0
1
0
1
1
0
0
0
0
0
0
0
0
0
1
1
0
1
0
0
0
1
0
0
0
1
0
0
0
0
0
2
0
0
0
1
0
1
0
0
0
0
0
0
0
0
0
0
0
0
2
0
0
0
0
0
1
0
0
0
1
0
0
1
0
0
1
0
0
0
0
0
0
2
0
1
0
1
0
0
0
1
0
0
0
0
0
0
0
0
