0
0
0
0
0
0
0
0
0
0
0
0
0
0
0
0
0
0
0
0
0
0
0
0
0
0
0
0
0
0
0
0
0
0
0
0
0
0
0
0
0
0
0
0
0
0
0
0
0
0
0
0
0
0
0
0
0
0
0
0
0
0
0
0
0
0
0
0
0
0
0
0
0
0
0
0
0
0
0
0
0
0
0
0
0
0
0
0
0
0
0
0
0
0
0
0
0
0
0
0
0
0
0
0
0
0
0
0
0
0
0
0
0
0
0
0
0
0
0
0
0
0
0
0
0
0
0
0
0
0
0
0
0
0
0
0
0
0
0
0
0
0
0
0
0
0
0
0
0
0
0
0
0
0
0
0
0
0
0
0
0
0
0
0
0
0
0
0
0
0
0
0
0
0
0
0
0
0
0
0
0
0
0
0
0
0
0
0
0
0
0
0
0
0
0
0
0
0
0
0
0
0
0
0
0
0
0
0
0
0
0
0
0
0
0
0
0
0
0
0
0
0
0
0
0
0
0
0
0
0
0
0
0
0
0
0
0
0
0
0
0
0
0
0
0
0
0
0
0
0
0
0
0
0
0
0
0
0
0
0
0
0
0
0
0
0
0
0
0
0
0
0
0
0
0
0
0
0
0
0
0
0
0
0
0
0
0
0
0
0
0
0
0
0
0
0
0
0
0
0
0
0
0
0
0
0
0
0
0
0
0
0
0
0
0
0
0
0
0
0
0
0
0
0
0
0
0
0
0
0
0
0
0
0
0
0
0
0
0
0
0
0
0
0
0
0
0
0
0
0
0
0
0
0
0
0
0
0
0
0
0
0
0
0
0
0
0
0
0
0
0
0
0
0
0
0
0
0
0
0
0
0
0
0
0
0
0
0
0
0
0
0
0
0
0
0
0
0
0
0
0
0
0
0
0
0
0
0
0
0
0
0
0
0
0
0
0
0
0
0
0
0
0
0
0
0
0
0
0
0
0
0
0
0
0
0
0
0
0
1
3
15
77
195
211
16777380
50331728
100663504
150995023
218103844
285212887
318767112
369098878
385876185
385875980
402653200
419430554
402653205
419430610
419430415
419430501
419430555
419430539
419430638
402653217
419430611
402653348
402653293
402653267
402653341
402653425
385876189
385876165
385876009
402653203
402653187
402653329
385876166
385876137
385876178
369098829
385876000
385876005
385876194
369098917
369098855
369098819
369098844
369098782
369098983
352321581
369098955
352321745
352321619
352321630
352321644
352321587
352321624
352321588
352321703
352321757
335544337
352321775
335544419
335544371
335544373
335544567
335544408
335544531
318767323
318767180
335544498
318767343
318767187
318767234
318767285
318767157
318767185
318767332
301990141
301990048
301990133
301990021
301989984
301990015
301990006
301990019
301990062
301990124
285212700
301990011
301989990
301989932
301990130
285212798
285212728
301989966
285212694
301989966
285212693
285212740
285212786
285212911
268435607
285212865
268435678
268435468
285212904
268435506
268435663
268435652
268435507
268435587
268435550
268435708
251658299
268435566
268435646
251658412
251658261
251658490
251658374
251658346
251658405
251658458
251658329
251658376
251658458
234881059
251658330
251658324
251658355
251658416
234881087
251658453
234881095
251658328
234881179
234881124
234881172
234881044
234881045
234881039
234881043
234881087
234881279
218103874
234881266
218104026
218104056
218103971
218103933
218103975
218103945
218103991
218103969
218103846
218103885
218103877
218103963
218103896
218104029
201326635
218103903
218104037
201326778
201326777
201326797
201326845
201326835
201326702
201326617
218103878
201326679
201326681
201326678
201326664
201326651
201326785
201326794
184549479
201326788
184549605
184549401
201326696
201326828
184549427
201326767
184549512
184549496
184549468
184549569
184549422
184549447
184549471
184549394
184549386
184549515
184549425
184549394
184549455
184549602
167772162
184549617
167772315
167772316
167772370
167772294
167772336
167772282
167772255
167772292
167772172
167772238
167772239
167772254
167772169
167772289
167772330
167772228
167772246
167772409
150994945
167772176
167772337
150995169
150994984
167772333
150995156
150995118
150994955
167772330
150995148
150995073
150995156
150995026
150995076
150995078
150995058
150995057
150994962
150995015
150995154
150994977
150995000
150995048
150994962
150995144
134217783
150995134
134217740
150994994
150995124
134217728
150995050
134217945
134217899
134217900
134217884
134217964
134217917
134217821
134217847
134217877
134217824
134217764
134217852
134217859
134217844
134217780
134217776
134217823
134217775
134217771
134217842
134217745
134217756
134217979
117440743
117440740
117440513
134217983
117440531
134217933
117440761
117440687
117440695
117440702
117440759
117440680
117440760
117440614
117440674
117440637
117440583
117440625
117440629
117440662
117440631
117440648
117440607
117440766
100663544
100663331
117440621
117440550
117440662
117440524
117440677
100663391
117440553
117440513
117440538
117440577
117440560
117440749
100663528
100663517
100663489
100663500
100663496
100663345
117440752
100663514
100663442
100663470
100663463
100663483
100663396
100663405
100663409
100663483
100663404
100663467
100663373
100663355
100663402
100663520
100663414
100663364
100663369
100663388
100663350
100663334
100663352
100663366
100663317
100663427
100663325
100663532
83886151
100663329
100663298
100663541
83886143
100663521
83886279
83886295
83886326
83886284
83886110
100663313
100663320
100663506
83886246
83886278
83886269
83886305
83886262
83886318
83886252
83886083
100663442
83886198
83886240
83886241
83886209
83886249
83886211
83886220
83886226
83886176
83886231
83886180
83886246
83886117
83886230
83886236
83886147
83886091
83886143
83886153
83886167
83886112
83886139
83886114
83886087
83886197
83886160
83886106
83886118
83886163
83886189
83886133
83886327
67108889
83886116
83886118
83886124
83886122
83886334
67109069
67109084
67109100
67109061
67109085
67109081
67108869
83886098
83886265
67109019
67109033
67109078
67109067
67109079
67109065
67109048
67108980
67109051
67109012
67109039
67109079
67109037
67109050
67108984
67108929
67108957
67109039
67108990
67109050
67108945
67108956
67108982
67108983
67108938
67108994
67108993
67108973
67108903
67108945
67108981
67109008
67108930
67108946
67108973
67108944
67108897
67108919
67108949
67108962
67108896
67108928
67108881
67108917
67108920
67108888
67108867
67109107
50331675
67108913
67109090
50331710
67108883
67109065
50331899
50331648
67108868
67109101
50331875
50331896
50331859
50331870
50331665
67108895
67108882
67109094
50331826
50331650
67109050
50331881
50331670
67109081
50331854
50331871
50331851
50331835
50331859
50331814
50331834
50331824
50331797
50331852
50331833
50331826
50331783
50331793
50331790
50331774
50331814
50331825
50331803
50331797
50331798
50331803
50331753
50331777
50331725
50331785
50331823
50331767
50331809
50331755
50331780
50331793
50331727
50331775
50331819
50331729
50331789
50331771
50331800
50331693
50331763
50331734
50331728
50331716
50331759
50331706
50331704
50331804
50331728
50331725
50331754
50331730
50331723
50331720
50331684
50331762
50331665
50331689
50331659
50331708
50331671
50331702
50331700
50331692
50331717
50331728
50331753
50331680
50331718
50331701
50331689
50331667
50331702
50331707
50331682
50331898
33554446
50331700
50331899
33554443
50331880
33554452
50331855
33554665
33554668
33554652
33554625
33554446
50331878
33554626
33554667
33554470
50331661
50331861
33554435
50331896
33554637
33554682
33554440
50331860
33554634
33554667
33554628
33554666
33554615
33554666
33554650
33554650
33554622
33554642
33554630
33554601
33554610
33554682
33554631
33554648
33554630
33554609
33554591
33554611
33554622
33554579
33554615
33554560
33554650
33554595
33554581
33554569
33554599
33554606
33554606
33554546
33554582
33554582
33554546
33554550
33554592
33554561
33554615
33554560
33554566
33554559
33554601
33554619
33554581
33554615
33554582
33554545
33554513
33554562
33554509
33554549
33554541
33554533
33554551
33554623
33554554
33554536
33554487
33554584
33554537
33554500
33554554
33554551
33554554
33554577
33554531
33554546
33554543
33554501
33554498
33554548
33554496
33554514
33554504
33554482
33554531
33554556
33554528
33554451
33554516
33554494
33554542
33554488
33554542
33554521
33554536
33554487
33554488
33554503
33554529
33554516
33554476
33554489
33554497
33554484
33554470
33554472
33554470
33554489
33554512
33554481
33554511
33554450
33554468
33554471
33554490
33554475
33554493
33554449
33554494
33554448
33554473
33554684
16777257
33554473
33554445
33554509
33554469
33554438
33554685
16777244
33554456
33554647
16777237
33554660
16777235
33554444
33554476
33554453
33554461
33554464
33554670
16777235
33554454
33554680
16777227
33554654
16777240
33554460
33554677
16777224
33554664
16777431
16777431
16777458
16777465
16777436
16777449
16777218
33554681
16777256
33554651
16777427
16777441
16777220
33554687
16777449
16777245
33554627
16777217
33554669
16777448
16777447
16777463
16777454
16777462
16777435
16777425
16777416
16777416
16777445
16777430
16777421
16777465
16777426
16777412
16777410
16777422
16777390
16777220
33554618
16777440
16777232
33554591
16777424
16777414
16777444
16777415
16777417
16777427
16777369
16777417
16777430
16777383
16777422
16777394
16777410
16777377
16777418
16777438
16777414
16777391
16777468
16777439
16777407
16777438
16777403
16777390
16777383
16777405
16777410
16777396
16777416
16777387
16777403
16777357
16777379
16777358
16777391
16777362
16777381
16777362
16777391
16777390
16777368
16777375
16777364
16777398
16777386
16777382
16777381
16777389
16777362
16777353
16777378
16777415
16777392
16777378
16777385
16777368
16777369
16777344
16777372
16777400
16777356
16777357
16777353
16777353
16777329
16777334
16777347
16777387
16777327
16777371
16777372
16777377
16777346
16777340
16777367
16777366
16777326
16777350
16777363
16777334
16777345
16777364
16777337
16777369
16777338
16777301
16777347
16777340
16777328
16777333
16777356
16777335
16777341
16777341
16777349
16777309
16777335
16777340
16777356
16777324
16777315
16777288
16777339
16777333
16777355
16777307
16777308
16777329
16777333
16777349
16777314
16777324
16777323
16777335
16777330
16777319
16777344
16777296
16777331
16777297
16777338
16777352
16777308
16777297
16777326
16777287
16777304
16777293
16777296
16777302
16777341
16777316
16777277
16777276
16777319
16777282
16777310
16777291
16777315
16777265
16777279
16777309
16777285
16777289
16777308
16777318
16777297
16777311
16777270
16777295
16777279
16777314
16777322
16777307
16777304
16777317
16777297
16777295
16777296
16777313
16777289
16777292
16777291
16777270
16777268
16777267
16777275
16777268
16777280
16777294
16777300
16777293
16777279
16777277
16777287
16777302
16777252
16777266
16777291
16777314
16777264
16777277
16777267
16777283
16777282
16777265
16777277
16777268
16777263
16777274
16777281
16777264
16777251
16777270
16777275
16777250
16777267
16777286
16777291
16777248
16777233
16777255
16777257
16777269
16777244
16777270
16777272
16777280
16777282
16777259
16777257
16777287
16777250
16777247
16777307
16777250
16777261
16777241
16777244
16777277
16777262
16777257
16777244
16777230
16777277
16777259
16777256
16777278
16777232
16777239
16777244
16777240
16777234
16777237
16777221
16777256
16777256
16777240
16777241
16777235
16777471
5
16777240
16777471
25
16777242
16777248
16777260
16777235
16777239
16777249
16777471
14
16777243
16777269
16777241
16777227
16777237
16777228
16777463
8
16777232
16777461
253
36
16777241
16777244
16777462
17
16777467
23
16777236
16777223
16777252
16777223
16777234
16777468
19
16777441
17
16777467
8
16777471
18
16777228
16777237
16777216
16777470
20
16777444
242
11
16777234
16777465
25
16777436
9
16777466
254
216
243
14
16777452
232
228
3
16777461
14
16777459
9
16777218
16777457
249
226
229
240
8
16777219
16777222
16777454
14
16777436
218
20
16777447
218
246
220
233
219
215
0
16777468
3
16777451
228
232
238
204
230
251
222
249
240
237
243
232
221
235
228
232
211
244
252
238
234
248
230
194
240
230
232
228
240
240
245
230
224
210
220
214
224
224
210
217
230
216
212
222
209
220
202
225
209
216
231
201
205
224
207
243
233
227
202
205
222
206
231
207
216
207
223
185
200
227
199
202
223
180
197
218
216
207
202
199
213
202
209
196
192
176
197
210
210
196
195
199
193
190
183
175
198
202
159
194
209
213
176
204
203
214
194
210
178
211
194
165
174
181
223
163
187
182
206
188
185
195
199
203
201
188
219
204
191
180
195
200
168
204
197
192
188
206
193
187
200
196
203
157
186
176
177
169
197
174
181
184
179
171
170
176
169
167
167
181
186
180
154
187
187
188
161
153
186
178
185
174
173
190
151
155
165
156
158
164
169
159
171
173
145
191
148
171
188
174
159
173
171
149
161
181
182
161
152
165
165
179
169
187
179
162
153
139
155
162
152
191
182
161
172
166
142
151
156
147
156
182
164
139
150
170
172
170
161
154
169
173
190
159
152
165
148
163
168
172
149
166
166
161
135
160
138
167
146
148
141
155
157
140
170
151
142
161
142
148
123
158
152
141
146
151
154
136
143
116
129
139
145
129
107
134
168
140
131
172
125
152
141
128
145
143
130
153
133
141
145
125
142
131
124
145
141
145
139
156
126
121
135
154
128
136
168
133
139
138
131
157
156
146
131
143
150
125
146
134
140
135
135
126
143
128
132
114
142
121
130
122
128
138
128
122
115
126
117
152
129
149
124
126
115
146
129
147
100
130
121
112
124
132
115
122
124
125
125
111
121
127
122
125
122
102
113
127
127
117
135
122
107
119
123
136
114
121
123
123
105
113
107
117
115
124
107
102
106
158
124
122
126
114
111
115
102
116
99
110
128
125
115
117
109
128
116
128
118
133
137
124
107
129
135
112
116
114
112
128
112
110
118
110
107
140
121
107
103
117
104
122
109
116
132
113
115
108
88
127
116
114
106
116
111
104
102
103
109
122
116
89
99
111
103
97
108
95
106
120
94
114
106
101
111
129
108
105
102
120
105
118
105
105
122
106
102
106
101
109
86
109
97
102
92
90
96
103
88
112
103
118
93
101
103
114
116
96
101
81
95
119
111
105
116
87
98
78
110
92
92
96
101
119
79
93
89
92
97
88
84
97
92
91
80
86
109
98
93
96
98
93
96
88
79
92
83
96
90
87
82
91
87
91
85
89
98
115
82
96
101
99
107
93
82
79
104
95
85
98
87
81
96
77
93
92
89
77
101
94
77
79
89
85
88
92
85
83
77
82
73
76
67
74
89
81
71
86
70
103
77
84
80
85
90
105
83
96
87
84
95
57
85
73
69
92
88
80
88
76
83
78
97
90
76
71
78
69
71
75
82
70
67
81
98
96
81
76
85
74
82
79
79
78
85
81
79
72
75
74
68
84
73
73
82
74
65
69
79
86
100
68
76
75
79
56
71
78
75
84
80
73
84
65
73
64
75
82
66
65
78
73
82
74
70
71
75
60
74
74
78
79
62
61
80
57
73
67
65
89
62
76
59
67
68
64
75
65
68
58
70
63
64
68
74
68
63
75
65
65
57
76
62
78
73
58
66
58
79
69
59
52
63
68
64
69
69
68
63
70
70
79
60
72
71
67
70
66
51
64
59
53
59
48
53
72
82
71
55
56
60
57
58
51
66
61
46
52
56
60
66
55
61
54
55
44
54
61
54
62
60
51
42
65
46
71
60
59
60
69
64
57
52
51
53
57
63
58
64
51
66
54
58
68
38
49
61
46
61
57
71
60
57
46
53
65
52
60
51
67
46
48
52
37
54
47
38
55
47
54
52
57
49
56
47
44
52
53
46
74
48
47
53
57
58
50
47
46
43
51
71
54
61
64
47
37
52
47
46
54
58
43
36
51
53
50
43
45
57
53
39
50
57
53
43
54
47
60
44
51
46
41
54
51
49
45
43
48
54
41
49
47
48
49
45
51
50
55
42
52
51
46
60
48
51
43
56
37
40
41
39
53
54
46
47
45
47
50
60
40
52
38
52
44
41
30
37
37
40
36
48
39
44
44
40
47
37
51
35
42
38
45
36
44
47
51
41
36
48
38
44
45
33
49
36
44
42
48
45
44
47
25
48
52
42
51
50
39
39
47
38
46
44
37
43
42
47
42
48
43
45
42
39
40
44
45
51
53
34
36
35
47
44
31
42
46
35
43
49
47
49
42
44
32
36
33
54
39
32
44
40
43
33
46
34
41
27
50
51
38
31
32
45
38
37
41
36
38
27
35
30
50
33
33
43
39
33
50
40
26
44
27
33
47
28
36
30
44
35
46
35
32
38
29
35
43
27
34
32
31
40
34
35
38
32
27
27
38
28
34
26
25
32
26
38
26
32
27
27
30
33
39
33
35
32
35
27
36
23
34
22
30
32
25
38
44
27
40
27
26
31
33
29
26
39
27
28
37
37
29
24
23
25
27
28
26
32
29
25
27
41
37
24
34
30
36
34
36
30
18
27
21
23
30
36
22
30
39
27
32
18
33
19
29
26
25
37
30
35
27
26
25
33
36
29
25
24
30
29
34
21
29
27
30
23
34
26
29
23
33
20
30
27
27
25
24
22
34
20
22
31
24
22
35
37
28
27
27
28
35
32
31
24
26
30
38
25
26
26
30
23
26
31
17
23
28
30
20
35
31
27
23
33
15
27
25
24
24
25
30
23
26
17
27
20
21
34
28
23
31
30
24
26
28
34
25
32
27
30
27
21
25
35
24
31
37
27
21
30
25
24
33
25
22
17
24
27
24
26
18
16
20
25
22
19
20
22
27
24
15
21
23
28
31
16
12
18
21
13
17
21
25
19
18
21
18
25
37
36
13
28
17
22
21
20
20
23
19
19
17
28
15
18
19
23
16
22
16
24
17
25
15
15
17
21
25
22
17
19
15
21
13
19
18
25
21
22
21
13
24
24
25
19
17
19
24
21
23
21
21
15
21
23
23
23
23
15
20
21
20
24
19
21
16
16
21
14
18
20
16
18
28
20
22
20
13
19
17
23
24
13
18
24
23
13
22
19
23
16
21
22
19
14
20
17
13
14
12
28
21
23
17
23
17
20
15
13
23
24
17
16
23
15
17
18
12
16
21
15
20
26
10
30
18
17
17
21
17
15
19
23
17
16
18
19
23
18
19
25
20
16
14
14
16
16
18
18
17
17
12
16
14
15
19
11
18
11
25
17
16
11
5
23
18
10
22
18
13
13
14
18
26
19
16
13
12
10
17
17
11
14
15
19
16
15
22
14
16
13
20
11
13
16
13
18
26
18
10
15
10
19
17
19
22
20
19
22
6
21
10
22
7
9
20
13
12
20
17
12
10
11
11
10
9
18
23
16
18
16
15
17
15
13
14
11
17
11
18
19
15
13
16
14
12
16
18
14
12
12
25
16
18
13
11
6
16
11
16
30
10
17
6
16
10
19
13
11
16
16
10
16
13
13
13
10
14
14
12
15
15
15
13
11
11
12
15
11
16
11
15
13
13
18
14
6
18
15
17
19
18
14
10
17
19
15
12
17
9
8
13
16
10
17
9
10
12
16
13
7
11
16
19
15
17
14
11
10
13
17
14
14
6
14
15
12
18
9
11
7
13
14
13
13
10
16
11
10
12
10
11
8
10
13
10
16
14
12
15
11
8
10
9
12
10
13
9
13
13
15
15
11
14
14
8
14
9
7
14
13
12
9
13
10
6
5
6
10
11
12
15
15
12
16
12
14
11
10
15
8
14
19
13
8
11
13
9
8
16
13
14
20
8
8
10
15
12
11
9
9
15
13
6
16
9
6
14
13
22
12
8
5
3
9
15
13
20
19
9
14
18
9
10
13
13
10
8
13
16
11
14
14
12
14
11
12
9
22
11
7
10
14
11
10
10
11
11
12
14
12
4
14
13
10
10
13
10
13
12
10
11
9
8
11
11
5
16
6
12
9
14
8
13
7
9
11
7
10
10
12
12
8
9
9
6
4
7
13
11
8
11
14
9
5
6
6
13
8
17
7
10
9
10
9
5
7
7
11
8
10
17
8
4
10
8
11
8
10
7
8
11
10
8
16
14
13
8
8
7
8
6
6
10
10
14
10
13
8
7
10
10
9
9
6
7
12
6
5
14
4
9
8
7
11
4
1
7
6
9
6
9
5
6
6
11
10
5
11
6
9
10
8
11
8
11
12
4
8
9
10
8
4
8
5
9
11
6
11
8
10
9
10
6
6
8
8
9
12
9
9
14
11
9
3
8
6
5
5
11
16
8
8
11
8
9
3
5
6
11
5
5
11
11
5
8
10
7
5
11
9
8
4
7
2
10
4
8
15
8
7
4
12
9
11
5
6
3
6
9
3
7
8
4
11
10
4
9
11
9
3
6
4
8
3
7
10
3
10
11
6
6
3
3
11
13
7
4
7
6
13
8
11
9
10
11
5
9
9
7
7
14
3
10
11
5
11
7
6
6
4
9
4
5
3
7
2
9
4
2
7
9
6
6
5
6
2
8
8
7
8
8
12
10
8
9
10
4
2
10
12
8
10
5
4
5
4
6
5
4
6
9
3
6
5
10
9
10
4
6
8
4
8
10
11
3
4
5
4
9
3
8
3
3
9
5
6
4
5
4
7
5
8
5
11
3
4
6
8
4
5
2
5
7
4
8
6
2
11
6
3
5
8
5
5
7
6
1
3
9
8
6
9
9
5
2
9
7
7
4
4
5
5
7
9
2
4
2
4
6
4
9
5
1
4
4
3
6
8
6
6
4
10
5
5
9
7
2
2
6
6
2
4
3
1
7
5
9
8
3
5
10
10
9
5
8
1
3
5
6
7
10
6
6
4
5
6
4
8
4
5
2
4
3
6
7
6
7
6
4
3
5
9
1
8
5
6
3
6
9
7
4
8
5
5
5
8
5
5
7
8
8
6
8
4
4
5
5
8
9
3
3
5
5
5
3
3
3
6
1
4
5
3
7
9
6
4
5
5
6
5
1
2
5
5
5
9
4
5
6
5
9
6
3
4
4
4
3
11
6
8
7
4
6
6
3
6
7
7
8
3
10
6
5
7
1
7
5
6
8
6
4
5
5
5
4
6
4
3
7
5
3
4
6
4
7
1
7
5
3
5
4
6
4
3
6
4
8
4
4
2
1
6
7
3
0
3
5
4
1
3
6
7
6
5
7
6
6
2
5
2
2
3
5
2
3
4
5
6
3
1
7
2
6
6
3
9
5
3
5
5
3
1
2
2
5
3
3
4
6
3
2
9
8
6
8
9
8
1
2
6
3
4
5
3
3
6
6
0
4
6
7
3
2
4
4
2
4
9
4
6
9
7
5
6
7
3
2
2
8
6
3
4
5
6
3
6
1
5
3
2
7
9
8
6
5
4
2
4
1
3
3
6
2
5
6
4
4
1
1
5
5
3
4
3
2
4
6
2
5
3
3
4
3
6
4
3
6
10
1
1
1
0
1
2
1
2
3
6
2
5
2
4
6
1
2
2
2
3
5
8
2
2
2
0
2
4
5
4
2
5
4
7
0
2
3
1
1
4
3
7
6
3
4
5
4
3
4
1
3
6
4
3
3
2
4
8
3
4
3
6
4
0
4
1
2
2
5
6
4
4
2
4
3
1
5
2
4
3
1
3
1
6
3
2
1
2
4
3
2
3
2
3
1
4
4
2
6
4
4
1
7
2
1
4
1
5
4
5
2
4
4
5
6
4
2
1
2
3
0
2
4
8
1
2
5
3
2
6
7
6
4
1
2
4
5
2
3
2
5
3
1
3
4
4
2
2
0
4
2
3
0
3
5
4
2
1
2
3
4
0
5
2
4
3
1
5
4
2
4
3
4
1
2
3
4
4
4
1
1
2
3
3
2
3
0
1
6
4
0
5
0
1
6
2
2
2
1
2
2
4
1
2
3
2
7
4
4
2
4
1
4
1
1
2
3
1
6
3
2
1
1
3
3
0
2
1
1
1
3
8
0
4
1
3
3
3
2
3
2
3
3
3
0
5
2
3
5
1
1
5
1
2
3
3
3
3
2
4
1
2
1
5
3
1
0
1
1
1
2
2
1
4
2
0
1
3
3
0
1
2
2
1
5
0
6
0
1
1
2
1
3
1
1
1
5
2
4
2
2
2
2
0
1
1
2
3
0
2
5
3
1
1
2
4
4
0
5
1
4
2
2
5
4
1
2
4
0
1
1
4
0
3
4
3
3
1
1
1
0
4
1
1
3
3
3
6
5
2
3
0
5
2
3
0
2
2
2
4
2
3
4
6
1
2
4
1
4
0
4
3
3
0
6
6
2
2
2
2
2
1
0
2
0
1
1
2
2
1
0
2
2
2
1
3
2
3
2
3
2
2
2
1
1
0
1
2
4
3
3
2
3
2
1
0
0
3
2
2
3
0
2
1
1
0
4
1
3
1
0
7
3
2
2
2
3
4
1
1
1
3
2
3
1
1
1
4
1
2
2
1
6
4
2
1
1
2
0
1
2
2
2
1
5
4
2
2
2
1
1
1
1
3
3
1
2
3
1
1
3
2
0
0
0
1
1
3
4
4
1
4
3
2
1
1
3
4
2
4
2
3
1
1
4
0
1
0
0
2
1
2
3
1
3
0
1
2
3
0
0
3
3
2
2
2
2
2
2
3
0
1
1
3
2
4
0
0
2
1
2
3
2
3
1
2
2
2
0
3
1
1
1
0
1
3
0
1
4
4
3
3
2
2
1
2
2
2
1
0
1
5
4
4
4
2
1
1
1
3
0
4
2
0
0
0
1
5
1
2
0
3
2
0
3
3
2
2
2
1
2
4
2
2
1
3
2
1
0
3
0
3
1
5
0
0
0
1
2
4
0
3
1
2
1
4
1
1
1
1
2
0
0
2
0
1
3
1
0
3
0
1
0
0
1
3
1
1
2
0
1
2
2
1
2
5
0
2
1
0
1
4
1
2
2
0
3
1
2
1
1
1
1
1
1
0
2
1
0
2
3
3
0
3
1
1
0
1
0
2
0
4
0
0
3
2
2
2
0
0
0
2
0
1
0
1
1
2
2
2
2
3
2
0
3
1
2
1
2
1
3
2
1
0
0
0
1
1
3
2
0
1
0
1
3
0
2
3
1
1
2
1
1
1
2
3
1
3
0
2
2
4
1
1
1
1
3
1
1
2
1
2
2
2
0
1
1
0
2
2
0
3
2
3
1
2
0
0
1
2
2
2
2
1
1
2
0
2
1
0
4
2
0
3
1
2
1
2
2
0
1
1
5
1
1
1
0
1
1
0
1
1
1
1
2
2
0
1
1
0
2
0
2
2
0
2
1
2
0
3
1
0
0
1
1
1
1
0
2
2
0
3
1
0
2
0
2
3
0
0
3
0
2
1
0
1
3
1
0
2
3
1
1
2
1
0
0
1
0
1
0
1
1
3
1
1
2
1
2
0
0
2
2
3
3
3
0
0
2
1
1
1
1
0
3
0
1
1
2
1
1
0
3
0
0
2
2
1
2
2
3
2
0
0
2
0
0
3
1
1
0
0
1
1
1
4
1
1
0
3
0
1
1
0
0
1
0
1
1
2
1
1
3
0
2
2
2
0
2
0
0
0
1
2
0
0
0
3
1
0
1
1
2
2
2
0
0
1
0
2
1
2
1
2
0
2
1
2
1
1
0
1
0
0
2
0
1
0
0
2
1
2
0
0
0
2
2
0
3
1
0
0
1
0
0
3
0
1
2
2
1
0
0
0
1
1
1
0
1
1
1
1
0
1
0
0
0
0
0
0
1
1
0
1
4
2
0
1
3
0
2
0
0
5
0
1
1
0
2
3
1
0
2
0
1
2
1
2
1
2
0
0
0
0
1
0
0
1
0
0
0
0
3
0
3
2
1
3
1
0
2
0
2
1
0
1
0
2
0
0
1
2
2
1
0
1
1
2
0
0
0
1
0
2
0
2
3
2
0
3
1
2
1
2
0
0
1
2
0
3
1
2
2
1
0
1
0
0
2
0
2
0
1
2
0
1
2
1
1
1
0
0
0
2
0
0
1
1
1
1
2
2
0
0
2
0
1
0
0
2
1
0
2
0
2
0
1
0
0
0
1
0
2
1
2
1
0
0
2
1
0
0
0
1
2
1
2
1
2
0
0
1
1
2
0
1
1
2
2
1
2
0
0
2
0
0
2
0
0
1
1
0
0
0
0
0
1
3
0
1
1
0
1
1
1
1
0
1
1
1
1
0
2
1
1
2
2
1
0
1
0
2
1
1
0
1
1
1
2
0
1
2
1
0
0
0
1
1
0
2
0
0
1
1
2
1
0
0
1
3
2
0
1
2
0
0
2
1
0
2
3
0
1
1
1
0
0
0
0
0
2
1
1
2
0
2
0
1
1
2
0
0
1
2
0
0
0
1
1
3
0
0
0
2
1
1
1
2
0
1
1
0
0
1
1
0
0
1
0
1
2
0
0
0
1
2
2
1
0
0
1
2
1
1
0
3
0
1
0
0
1
0
1
0
2
0
0
1
3
2
0
1
1
1
2
2
0
1
0
2
0
0
0
0
0
1
0
2
1
0
1
0
0
2
1
2
1
0
0
1
1
3
0
0
1
1
0
0
0
3
0
0
0
1
0
1
1
0
0
0
2
1
1
2
0
0
0
1
0
1
2
1
1
0
0
0
0
0
2
0
0
2
0
0
0
0
3
0
1
0
1
0
0
0
1
0
0
1
0
0
0
0
0
0
0
1
1
0
1
1
1
0
1
0
0
0
0
0
0
0
1
0
0
1
1
0
0
0
3
0
0
1
1
2
1
0
0
1
1
0
2
1
0
0
0
0
1
0
2
0
0
0
0
0
0
1
0
0
0
1
0
3
1
0
1
0
1
1
2
0
1
0
0
1
0
0
1
1
1
0
1
1
1
1
0
2
0
0
1
0
0
0
0
0
2
0
0
0
0
3
1
0
0
0
1
0
0
0
0
1
0
0
0
0
1
0
1
0
0
1
0
0
0
2
1
1
2
0
1
0
0
1
0
0
2
0
0
0
2
1
0
0
1
1
1
1
2
0
0
0
0
0
0
0
2
1
1
1
0
1
1
0
0
1
2
0
1
0
0
1
0
0
2
0
1
0
0
0
0
0
0
1
0
0
0
0
1
1
2
0
0
0
2
1
0
0
0
0
0
0
0
1
1
1
0
0
0
0
2
0
1
0
1
1
2
0
1
0
0
1
0
0
0
0
1
0
0
0
0
1
0
0
0
0
1
0
0
0
1
1
0
0
1
1
0
1
0
2
0
0
0
0
0
0
1
1
0
0
2
1
0
1
1
0
1
0
0
0
1
0
0
0
1
0
0
0
1
0
1
0
0
0
0
0
0
1
0
0
1
0
0
0
0
1
0
0
1
0
0
1
0
1
0
0
0
0
0
0
0
0
1
0
1
0
0
0
0
0
0
0
0
0
0
0
0
1
0
0
1
0
1
1
0
0
0
0
1
1
1
0
0
0
1
0
0
0
0
0
0
1
3
0
1
0
3
0
0
1
1
0
0
1
0
0
0
1
0
1
0
0
0
1
1
0
1
0
0
2
1
2
0
1
1
0
0
1
0
0
1
0
0
0
0
0
0
2
0
2
0
1
0
0
0
1
0
2
2
2
2
0
0
0
1
1
0
2
0
0
0
1
0
0
0
0
0
0
1
0
0
0
0
1
0
2
1
0
1
1
0
0
1
0
0
1
0
0
0
0
0
0
0
0
0
1
0
0
1
0
1
0
0
0
0
2
0
0
0
0
1
0
0
0
0
0
0
0
1
0
1
0
0
0
0
0
0
0
0
0
1
0
0
0
1
2
0
0
0
1
0
0
0
0
0
1
0
0
0
0
1
0
0
0
0
0
1
0
0
1
1
0
0
1
0
0
0
0
0
1
0
1
0
0
0
1
0
0
0
0
2
0
0
0
0
1
0
0
1
1
0
0
0
0
0
0
0
0
0
0
0
1
0
0
0
0
0
0
0
0
0
0
1
0
0
0
0
0
1
1
1
1
0
0
0
1
0
0
1
0
0
1
0
0
1
1
0
0
0
0
0
1
0
0
0
0
0
0
0
1
0
0
1
0
1
0
0
0
0
1
0
1
0
0
0
0
0
0
0
0
0
0
0
1
0
0
0
0
1
0
0
1
1
0
1
0
0
1
1
0
2
0
1
0
0
0
1
2
0
0
0
0
0
0
0
0
0
0
1
0
1
0
0
0
0
0
0
0
0
0
0
0
0
0
0
0
0
0
2
0
0
0
0
0
2
0
1
0
1
0
1
0
1
0
0
0
0
0
0
0
0
0
0
0
1
0
0
0
0
0
0
1
1
0
0
0
1
0
0
0
1
1
0
0
0
1
0
1
1
0
0
0
0
1
0
0
0
1
0
0
0
2
1
2
0
0
0
0
0
0
0
0
0
1
0
0
1
0
0
2
0
0
0
0
0
0
0
1
0
0
0
0
0
0
1
0
0
0
0
0
0
0
1
0
1
0
0
0
0
0
0
1
0
0
1
1
0
0
0
0
0
0
0
0
0
0
0
0
0
0
1
0
0
0
0
0
1
1
0
1
0
0
0
0
0
1
1
0
0
2
0
0
0
0
0
1
1
0
0
0
0
0
0
0
1
1
0
0
0
0
0
0
0
0
0
0
0
0
0
1
1
0
0
0
0
0
0
1
0
0
0
0
2
0
1
0
0
0
0
0
0
0
0
1
0
0
0
0
0
0
0
0
0
0
0
0
1
0
0
0
0
0
0
0
0
0
0
0
0
0
1
0
0
1
1
1
0
0
1
0
0
0
0
0
0
0
0
0
0
0
0
0
1
1
0
0
0
0
0
0
2
0
0
0
0
0
0
0
0
0
1
0
0
1
0
0
1
1
0
1
0
0
0
0
0
1
0
0
0
0
0
0
0
0
0
0
0
1
2
0
0
0
0
0
0
0
1
0
0
0
0
0
0
1
0
0
1
0
0
0
0
1
1
1
1
1
0
1
0
0
0
1
1
0
0
0
1
0
0
0
0
1
0
0
0
0
0
0
1
0
0
0
1
0
0
0
0
0
1
0
0
1
0
0
0
0
0
2
0
0
1
0
0
0
0
1
0
0
0
0
0
0
0
0
0
0
0
0
0
0
0
0
0
0
0
0
0
1
1
0
0
0
0
0
0
1
0
0
0
0
0
1
0
1
0
0
1
0
0
0
0
0
0
1
0
0
0
0
0
0
0
0
1
0
1
0
0
1
0
0
0
0
0
1
0
0
0
1
2
0
0
0
0
0
0
1
0
0
1
0
0
0
0
0
0
0
0
0
0
0
0
0
0
0
0
1
1
0
1
0
1
0
0
1
1
0
0
0
0
1
0
0
0
0
0
0
1
2
1
0
1
0
1
0
0
0
0
0
0
0
1
0
0
0
1
0
0
0
1
0
0
0
1
0
0
0
1
0
0
0
0
0
0
0
0
0
0
0
0
0
0
0
0
0
0
0
0
0
0
0
0
0
0
0
0
0
0
1
0
1
1
0
0
0
0
1
0
0
1
0
0
0
0
1
0
0
0
0
0
0
0
0
0
1
0
1
0
0
0
0
0
0
1
0
0
0
0
0
0
1
0
0
0
0
1
0
0
0
0
0
2
0
1
0
0
0
1
0
0
0
0
1
0
0
0
0
1
0
0
0
0
0
0
0
0
1
0
0
0
0
0
0
0
0
0
1
2
0
0
0
1
0
0
0
1
0
0
0
0
0
0
0
0
0
0
0
0
0
0
1
0
0
0
0
1
0
0
0
0
0
1
1
0
0
0
0
0
0
0
0
1
0
1
0
1
1
0
0
0
0
1
0
0
0
0
0
0
0
1
0
0
1
0
1
0
1
0
2
0
1
0
2
0
0
1
0
0
0
0
0
0
0
0
0
0
1
0
3
0
0
0
0
0
0
1
1
0
0
0
1
1
0
0
1
0
0
0
0
0
0
0
0
0
0
0
0
1
0
0
0
0
0
0
0
0
0
0
1
0
0
0
0
0
0
0
1
0
0
0
0
0
0
0
0
0
0
0
0
0
0
0
0
0
2
0
0
0
0
0
0
0
0
1
0
0
0
0
1
0
1
0
0
0
0
0
0
0
1
0
0
1
0
0
0
0
0
0
0
0
0
0
0
0
0
0
0
0
0
0
0
0
0
0
1
0
0
0
0
1
0
0
0
0
0
0
0
0
1
0
0
1
0
1
0
0
0
0
0
1
0
0
0
0
0
0
0
0
0
0
0
0
0
0
0
0
0
0
0
0
0
0
0
0
0
0
1
1
0
1
1
0
0
0
0
0
0
0
0
0
0
0
1
0
0
0
0
0
0
0
0
2
0
0
0
0
0
0
0
0
0
0
1
0
0
0
0
1
0
0
0
1
0
0
0
0
0
0
0
0
0
0
0
0
0
0
0
0
1
0
0
0
0
0
1
1
0
0
0
0
0
0
0
0
0
0
0
0
0
0
0
0
0
0
1
1
0
0
0
0
0
0
0
0
1
0
0
0
0
0
0
0
0
0
0
0
0
0
1
0
0
0
0
1
0
0
0
0
0
1
0
1
0
0
0
0
1
0
0
0
0
0
0
0
0
0
1
0
1
0
1
0
0
0
0
1
0
0
0
0
0
0
0
0
0
0
0
0
0
0
0
0
0
0
2
0
0
0
0
0
0
0
0
0
0
0
0
0
0
0
0
0
0
0
0
0
0
0
0
0
0
0
1
0
0
0
0
0
0
0
1
0
1
0
0
0
0
0
0
0
0
0
0
0
0
0
0
0
0
0
0
0
0
0
0
0
0
0
0
0
0
0
0
0
0
0
0
0
0
1
0
0
1
0
0
0
0
0
0
0
0
0
0
0
0
0
0
0
0
1
0
1
1
0
0
0
1
0
0
0
0
0
0
0
0
1
0
0
0
0
0
0
0
0
0
0
0
0
1
0
0
1
1
0
0
0
0
0
0
0
0
0
0
0
0
0
0
0
0
0
0
0
0
0
0
0
0
0
0
0
0
0
0
0
0
1
0
0
0
0
0
0
0
0
0
0
0
1
0
0
0
0
0
0
0
0
0
1
0
0
0
0
0
0
0
0
0
0
0
1
0
0
0
0
1
0
0
0
0
0
0
0
0
0
0
0
0
0
0
0
0
0
0
0
0
0
0
0
0
0
0
0
0
0
0
0
1
0
1
1
0
0
0
0
1
0
0
0
0
0
0
0
0
0
0
0
1
1
0
0
0
0
0
0
0
1
0
0
0
0
1
1
0
0
0
0
1
0
0
0
0
0
0
0
0
0
0
0
0
0
0
0
0
1
0
0
0
0
1
0
0
0
0
0
0
0
0
0
0
1
0
0
0
0
0
0
1
0
0
0
0
0
1
0
1
0
0
0
0
1
0
0
0
0
0
0
1
0
0
0
0
0
0
0
0
0
0
0
1
0
0
0
0
0
0
0
0
0
0
0
0
0
0
0
0
0
0
0
0
0
0
0
0
0
0
1
1
2
0
0
0
0
0
0
0
0
1
0
0
0
0
0
0
0
0
0
0
0
0
0
0
1
0
0
0
0
0
0
0
1
0
0
0
0
0
0
0
0
0
0
0
0
0
0
1
0
0
0
0
0
1
0
0
0
0
0
0
1
0
1
2
0
0
0
0
0
0
0
0
0
0
0
0
0
0
0
0
0
0
0
0
0
0
0
0
0
1
0
1
0
0
0
0
0
1
0
0
1
0
0
0
0
0
0
0
0
0
0
0
0
0
0
0
0
0
0
0
0
0
0
0
0
0
0
1
0
0
0
0
0
0
0
0
0
0
0
0
1
0
0
0
0
0
0
1
0
0
0
0
0
0
0
0
0
0
0
1
0
1
0
0
0
0
0
0
0
0
0
0
0
0
0
0
0
0
0
0
1
0
0
0
1
0
0
0
0
0
0
0
0
0
0
0
0
0
0
0
0
0
0
0
0
0
0
0
0
0
0
0
0
1
0
0
0
0
0
0
0
0
0
0
0
0
1
0
0
0
0
0
0
0
0
0
1
0
0
0
0
0
0
0
1
1
0
0
0
0
0
1
0
0
0
0
0
0
1
0
0
0
0
0
0
0
0
0
0
1
0
0
0
0
0
0
0
0
0
0
0
1
0
0
0
0
0
0
0
0
0
0
0
0
0
0
0
0
0
0
0
0
0
0
1
0
0
0
0
0
0
0
0
0
0
0
0
0
0
1
0
0
0
0
0
0
0
0
0
0
0
0
0
0
0
0
0
0
0
0
0
0
0
0
0
0
0
0
0
0
0
0
0
0
0
0
1
0
0
0
0
0
0
0
0
0
0
0
0
0
0
0
0
0
0
0
0
0
0
0
0
0
2
0
0
0
0
0
0
0
0
0
0
0
0
0
0
0
0
0
0
0
0
0
0
0
0
0
0
0
0
0
0
0
0
0
0
0
1
1
0
0
0
0
0
0
0
0
0
0
0
0
0
0
0
1
0
0
0
0
0
0
0
0
0
0
0
0
0
0
0
1
0
0
0
0
0
1
0
0
0
1
0
0
0
0
0
0
0
0
0
0
0
0
0
0
0
0
0
0
0
0
0
0
1
0
0
0
0
1
2
3
3
4
3
1
1
1
2
3
1
2
0
2
0
1
0
0
2
1
1
2
1
1
1
1
5
0
0
0
2
3
1
2
0
1
0
2
1
0
2
0
0
2
1
5
3
0
3
0
2
1
1
1
3
3
1
1
1
0
0
1
2
1
1
1
4
0
1
1
1
2
1
1
3
1
1
3
1
2
1
3
2
1
0
1
0
1
0
0
5
1
0
1
1
1
1
1
0
2
1
2
1
1
1
4
2
3
0
0
1
2
1
2
2
4
1
0
2
2
1
2
2
1
3
0
3
1
0
