0
0
0
0
0
0
0
0
0
0
0
0
0
0
0
0
0
0
0
0
0
0
0
0
0
0
0
0
0
0
0
0
0
0
0
0
0
0
0
0
0
0
0
0
0
0
0
0
0
0
0
0
0
0
0
0
0
0
0
0
0
0
0
0
0
0
0
0
0
0
0
0
0
0
0
0
0
0
0
0
0
0
0
0
0
0
0
0
0
0
0
0
0
0
0
0
0
0
0
0
0
0
0
0
0
0
0
0
0
0
0
0
0
0
0
0
0
0
0
0
0
0
0
0
0
0
0
0
0
0
0
0
0
0
0
0
0
0
0
0
0
0
0
0
0
0
0
0
0
0
0
0
0
0
0
0
0
0
0
0
0
0
0
0
0
0
0
0
0
0
0
0
0
0
0
0
0
0
0
0
0
0
0
0
0
0
0
0
0
0
0
0
0
0
0
0
0
0
0
0
0
0
0
0
0
0
0
0
0
0
0
0
0
0
0
0
0
0
0
0
0
0
0
0
0
0
0
0
0
0
0
0
0
0
0
0
0
0
0
0
0
0
0
0
0
0
0
0
0
0
0
0
0
0
0
0
0
0
0
0
0
0
0
0
0
0
0
0
0
0
0
0
0
0
0
0
0
0
0
0
0
0
0
0
0
0
0
0
0
0
0
0
0
0
0
0
0
0
0
0
0
0
0
0
0
0
0
0
0
0
0
0
0
0
0
0
0
0
0
0
0
0
0
0
0
0
0
0
0
0
0
0
0
0
0
0
0
0
0
0
0
0
0
0
0
0
0
0
0
0
0
0
0
0
0
0
0
0
0
0
0
0
0
0
0
0
0
0
0
0
0
0
0
0
0
0
0
0
0
0
0
0
0
0
0
0
0
0
0
0
0
0
0
0
0
0
0
0
0
0
0
0
0
0
0
0
0
0
0
0
0
0
0
0
0
0
0
0
0
0
0
0
0
0
0
0
0
0
0
0
0
0
0
0
0
0
0
0
0
0
0
0
0
0
5
15
29
29
31
20
26
19
32
24
31
34
24
23
21
22
25
26
23
29
22
12
28
29
26
29
30
21
27
21
24
24
20
19
30
31
26
19
22
23
25
22
23
30
26
20
25
20
23
13
19
31
27
20
21
21
25
21
24
22
21
24
26
24
18
18
25
27
18
21
17
19
21
15
19
23
13
23
23
15
21
17
23
22
20
21
15
24
25
24
20
20
20
16
21
20
24
23
21
14
10
24
13
20
16
19
18
15
24
11
21
13
16
22
27
19
20
24
19
21
26
23
16
22
13
14
22
20
19
15
24
20
18
23
18
20
18
25
11
19
18
24
16
25
24
12
18
24
16
29
18
28
14
16
22
22
16
20
15
15
15
16
13
18
16
28
23
20
18
10
18
19
19
15
15
11
20
10
9
24
15
17
18
23
15
16
20
17
22
20
12
18
19
17
17
17
19
15
16
16
16
17
12
20
19
16
20
29
18
18
17
12
14
13
11
21
19
20
16
20
18
16
22
16
19
24
18
18
20
11
14
18
17
21
22
22
10
15
12
13
21
22
12
15
19
15
22
14
18
18
18
14
19
16
18
17
26
12
25
24
29
12
14
16
23
12
14
20
17
17
16
22
18
20
18
17
22
17
17
23
11
14
17
14
19
16
10
19
14
15
19
26
17
18
19
19
17
14
14
10
15
16
17
15
20
25
16
12
19
13
21
16
21
16
12
10
15
19
17
19
21
15
16
12
16
22
15
23
19
24
21
13
18
17
21
13
16
16
17
23
15
19
7
7
15
15
20
18
23
17
16
13
12
22
19
19
16
21
20
14
19
21
21
23
24
14
20
27
18
23
19
15
23
19
18
29
13
22
7
19
19
17
14
22
14
19
17
16
26
20
14
23
18
23
18
15
20
13
18
32
17
29
9
19
15
25
18
15
20
24
18
14
21
12
16
28
18
17
14
15
15
12
15
22
15
17
13
19
21
20
30
19
18
10
14
19
21
23
27
12
23
11
26
14
14
23
26
16
30
23
18
22
23
16
20
12
18
13
13
23
17
27
20
27
29
19
23
19
27
19
16
17
18
19
29
27
20
21
19
20
21
18
22
30
28
18
35
25
28
24
22
24
16
23
22
25
21
18
26
30
19
15
24
16
29
16
19
28
21
15
33
29
24
25
23
26
32
31
29
21
27
23
19
20
29
28
27
29
18
28
22
28
29
20
28
27
22
37
30
37
27
23
31
23
30
26
26
23
24
29
29
36
29
34
29
28
18
25
28
30
27
23
34
41
25
33
25
39
28
35
29
23
37
35
34
30
36
39
35
29
32
27
38
32
38
34
31
35
44
39
32
32
42
34
44
41
38
37
43
37
48
45
57
42
45
36
43
50
60
43
46
41
40
44
36
49
48
46
46
45
49
49
49
40
49
40
61
49
56
63
52
56
66
50
49
59
68
54
67
67
68
63
55
58
62
73
55
69
61
58
75
70
63
71
58
85
82
85
70
79
69
81
91
64
68
76
85
75
85
86
80
73
64
87
83
85
71
87
90
97
79
78
91
85
87
90
92
78
90
91
79
102
90
81
89
87
98
99
68
84
87
76
86
76
90
88
76
88
92
93
95
81
82
75
75
84
78
95
74
70
71
77
65
70
68
66
70
55
72
78
82
61
62
66
71
64
50
61
51
64
55
52
52
53
54
52
57
42
55
44
57
54
65
61
50
55
34
52
38
36
32
38
41
44
25
44
43
37
32
41
39
33
31
41
32
31
36
34
28
27
32
24
28
22
25
23
22
25
26
20
20
25
14
35
17
25
21
20
23
16
31
18
27
26
24
20
18
29
20
20
23
26
13
20
17
24
21
20
20
23
12
18
19
10
22
17
11
19
12
18
16
22
10
24
18
19
12
13
12
14
15
6
15
12
17
14
14
15
14
13
17
15
8
11
14
14
19
15
8
15
12
15
12
18
6
14
15
11
17
15
9
13
14
10
10
22
16
17
12
13
17
8
14
7
11
16
12
14
9
10
14
14
6
12
12
16
11
9
14
16
16
17
18
14
17
14
14
9
19
9
11
20
15
12
14
12
14
12
20
15
13
16
10
11
16
12
9
12
16
13
11
17
11
15
12
13
17
12
8
12
17
17
11
16
15
13
11
13
23
11
15
15
13
8
9
10
22
16
17
13
13
18
18
10
17
18
17
11
18
11
13
10
23
15
16
7
14
20
14
15
16
12
14
14
8
11
12
14
17
13
13
10
15
19
13
8
12
19
17
12
16
15
16
9
15
22
14
16
11
21
15
16
16
19
14
10
15
18
17
10
13
14
22
16
18
14
17
21
16
17
16
11
17
14
18
9
17
18
16
16
12
19
23
10
12
18
10
8
19
16
23
12
8
15
11
20
16
9
13
10
18
8
15
16
15
19
14
14
10
17
27
14
17
27
18
15
11
17
22
17
23
17
15
7
13
10
17
19
19
11
17
17
13
21
18
14
10
20
25
22
19
18
17
16
11
28
19
15
11
19
27
20
15
17
9
16
22
19
21
16
16
19
18
17
20
21
19
17
17
12
17
21
16
18
21
20
16
23
21
21
23
19
16
19
21
17
18
18
19
14
16
19
28
18
19
22
27
20
17
22
27
15
24
19
16
26
23
20
20
16
16
19
15
25
19
21
28
11
18
18
20
23
27
25
13
17
25
26
22
12
21
19
14
20
25
11
21
22
18
25
19
17
30
21
17
27
24
18
21
22
27
19
21
21
21
21
19
22
23
13
25
18
26
21
21
23
21
22
26
27
19
19
23
23
18
20
27
28
21
27
17
28
24
19
25
23
24
26
21
26
26
23
24
18
29
25
28
31
24
23
17
24
29
29
24
34
28
30
25
27
17
21
20
32
15
28
30
25
26
26
22
30
27
27
28
24
29
27
31
24
22
34
23
38
34
19
31
20
28
23
20
29
32
37
32
47
40
29
26
30
29
28
26
31
29
37
23
31
37
28
36
32
24
40
40
21
36
34
32
37
32
36
33
33
35
35
30
27
34
29
41
27
36
32
26
42
38
25
36
37
40
28
32
41
34
34
38
39
49
43
41
32
36
34
31
31
41
34
40
31
40
31
42
28
46
46
40
50
46
48
33
40
35
28
27
32
44
36
35
37
48
40
39
50
48
46
61
34
46
53
40
43
45
55
43
38
37
41
62
48
31
52
45
45
53
52
60
23
33
32
40
50
46
49
51
41
68
49
50
55
45
29
59
55
42
48
44
44
45
51
49
50
65
50
54
59
46
62
49
54
50
60
50
56
57
68
53
62
55
48
62
63
54
56
72
64
68
69
60
64
64
53
67
54
69
73
68
50
58
66
78
56
71
62
74
62
45
65
63
82
80
58
72
60
84
67
73
75
72
80
84
82
68
76
74
68
73
78
77
67
65
64
69
92
61
71
86
62
66
84
84
75
92
89
62
91
87
73
72
83
74
89
76
73
92
120
78
96
81
94
85
99
97
84
80
86
94
105
91
87
92
99
74
92
97
94
83
110
102
103
86
96
88
104
93
103
97
113
101
98
100
103
101
109
99
118
119
117
103
110
133
113
141
104
131
144
137
120
131
98
141
132
110
135
140
126
122
126
117
115
127
126
136
146
149
144
141
132
133
128
145
156
147
133
142
150
141
136
123
146
131
154
154
172
161
127
161
155
171
155
165
153
155
177
166
150
158
154
169
183
182
183
177
129
156
170
170
165
167
171
171
205
185
174
199
191
193
188
198
210
214
207
214
212
191
192
212
202
202
192
206
200
200
225
213
214
196
211
209
231
227
193
186
250
202
224
244
223
217
17
16777452
228
228
249
244
244
236
250
248
3
16777260
16777225
16777221
16777453
11
16777453
248
18
16777450
6
16777217
16777225
16777246
16777234
16777240
16777262
16777280
16777287
16777237
16777249
16777256
16777284
16777279
16777228
16777268
16777286
16777288
16777316
16777278
16777291
16777268
16777289
16777296
16777314
16777323
16777317
16777330
16777293
16777332
16777313
16777339
16777328
16777287
16777325
16777347
16777340
16777336
16777348
16777354
16777359
16777347
16777357
16777342
16777372
16777402
16777344
16777383
16777370
16777407
16777380
16777429
16777431
16777406
16777394
16777436
16777395
16777442
16777424
16777470
16777438
16777466
16777232
33554451
33554480
33554456
33554483
33554465
33554459
33554488
33554500
33554545
33554538
33554563
33554572
33554572
33554582
33554612
33554653
33554616
33554657
33554627
33554621
33554615
33554465
50331670
50331901
33554466
50331768
50331700
50331817
50331773
50331818
50331847
50331869
50331896
50331816
50331876
50331708
67109114
50331664
67108947
67109002
67108939
67109040
67109031
67109107
67108885
83886109
83886125
83886110
83886167
83886259
83886241
83886335
83886305
83886297
83886114
100663331
100663380
100663411
100663410
100663414
100663451
100663510
100663509
100663490
100663326
117440533
117440560
117440750
100663347
117440639
117440575
117440669
117440697
117440643
117440679
117440649
117440636
117440634
117440723
117440658
117440662
117440624
117440705
117440658
117440598
117440615
117440527
117440544
117440548
117440564
117440698
100663362
117440678
100663494
100663526
100663431
100663378
100663399
100663339
100663506
83886307
83886295
83886209
83886206
83886151
83886165
83886154
83886100
83886293
67108984
67109023
67108957
67108947
67108904
67108872
67109113
50331795
50331794
50331794
50331713
50331693
50331687
50331885
33554666
33554634
33554604
33554613
33554563
33554614
33554523
33554525
33554467
33554447
33554462
33554434
33554671
16777412
16777405
16777456
16777412
16777391
16777383
16777359
16777420
16777387
16777402
16777343
16777353
16777346
16777330
16777341
16777332
16777314
16777343
16777354
16777327
16777341
16777335
16777344
16777351
16777329
16777321
16777350
16777319
16777337
16777361
16777340
16777333
16777368
16777334
16777368
16777332
16777355
16777358
16777369
16777408
16777391
16777358
16777373
16777447
16777431
16777403
16777419
16777438
16777463
16777413
16777435
16777217
33554472
33554684
16777465
16777253
33554457
33554435
33554448
33554433
33554459
33554479
33554463
33554466
33554537
33554563
33554542
33554560
33554561
33554538
33554582
33554558
33554573
33554604
33554606
33554641
33554667
33554666
33554452
50331678
50331693
50331677
50331710
50331690
50331723
50331698
50331766
50331715
50331792
50331786
50331872
50331837
50331901
50331873
50331679
67109119
50331686
67108920
67108956
67109022
67109043
67109080
67109075
67108875
83886318
67108970
83886153
83886249
83886324
83886109
100663511
83886125
100663321
100663409
100663471
100663479
100663331
117440556
117440650
117440659
117440680
117440756
117440548
134217839
134217914
134217934
134217926
134217743
150994954
150995106
150995174
150995157
150995174
150995026
167772359
167772371
167772384
167772211
184549454
184549400
184549562
184549545
184549417
201326662
201326817
184549438
201326660
201326617
201326650
201326677
201326703
201326804
201326830
201326683
201326691
201326821
201326786
201326704
201326613
201326816
184549423
201326819
184549389
201326697
184549474
184549418
184549610
167772298
167772317
167772276
167772289
167772185
167772377
150995083
150995017
150995153
134217844
134217817
134217887
117440727
117440717
117440746
100663325
117440717
100663390
100663321
100663482
83886207
83886136
83886283
67109037
67108968
67108942
67108872
67109055
50331766
50331740
50331661
50331657
50331860
33554543
33554557
33554478
33554468
33554460
33554444
33554582
16777358
16777339
16777337
16777263
16777240
16777448
232
233
222
178
158
164
133
133
123
111
107
70
80
76
73
56
47
46
46
37
23
24
25
22
15
25
11
22
12
11
10
9
7
7
6
3
1
1
2
8
4
2
2
2
7
2
1
4
2
0
1
2
3
1
2
0
0
1
2
0
0
0
0
0
0
2
1
1
1
0
0
0
0
1
1
0
1
0
0
1
1
1
3
0
0
0
0
3
1
1
1
0
0
1
1
1
0
0
0
0
1
0
2
0
1
1
0
2
0
2
1
1
0
1
2
0
0
0
0
0
3
0
0
0
1
0
2
0
0
1
0
0
0
1
1
0
1
0
2
1
0
0
0
0
0
0
0
0
0
0
0
0
0
1
0
0
1
0
0
0
2
0
0
0
0
0
1
0
0
3
0
1
0
0
1
0
0
1
0
0
2
2
1
1
0
0
0
1
0
0
0
1
0
2
0
0
1
1
0
1
0
0
0
0
1
0
0
0
0
0
1
0
0
0
2
0
0
0
0
0
0
0
2
0
0
0
1
1
1
0
0
0
0
0
0
0
0
0
0
0
0
1
0
0
0
0
0
0
0
0
0
0
1
1
0
0
0
0
0
0
0
1
0
0
0
1
0
2
0
1
1
2
0
0
0
1
0
0
0
0
1
0
1
1
1
0
1
0
0
0
1
0
0
0
0
0
0
0
0
0
0
0
0
0
0
1
0
0
0
1
1
0
0
0
1
1
0
0
0
0
0
0
0
0
0
0
1
2
0
1
3
0
0
0
0
0
0
1
1
0
0
0
0
0
0
0
0
1
0
0
0
0
0
1
0
0
1
1
0
1
0
1
0
1
0
0
0
3
0
0
1
0
0
0
0
0
1
0
1
0
0
0
1
0
0
0
1
0
0
0
0
1
0
0
1
2
1
0
0
1
0
0
0
0
1
0
0
0
0
0
0
0
1
0
0
1
0
0
0
0
1
0
1
0
0
0
1
1
2
0
1
0
0
1
0
0
0
1
0
0
0
0
0
0
0
1
1
1
0
0
0
0
0
0
0
0
1
0
1
0
0
0
0
0
0
0
0
2
0
0
1
0
0
0
1
0
2
0
0
1
0
0
0
0
0
0
0
0
0
0
1
0
0
1
0
1
2
1
0
1
0
0
0
0
1
0
0
1
0
0
0
1
1
0
1
0
3
1
0
0
1
0
1
0
1
1
0
1
0
0
0
0
0
0
0
0
0
2
0
1
2
1
1
0
2
1
0
1
0
1
1
0
0
0
1
1
3
0
1
1
0
2
0
1
0
0
0
1
1
0
0
2
2
0
1
1
1
1
0
1
0
0
0
0
0
1
0
1
1
0
1
0
1
1
0
0
0
0
0
1
1
1
0
0
1
2
0
0
2
1
0
1
0
0
1
0
0
0
0
0
0
1
0
0
0
0
1
0
1
0
0
2
0
1
1
0
0
0
1
0
2
0
0
0
1
0
0
2
1
0
1
2
1
1
1
0
2
2
0
2
2
1
0
1
1
0
1
0
1
0
0
1
1
0
1
1
0
1
0
2
0
1
2
0
1
1
2
0
0
0
0
1
0
1
0
0
1
0
0
1
0
0
0
1
0
0
1
0
3
0
1
1
4
2
0
2
2
0
0
2
2
2
2
2
1
1
1
1
1
0
0
2
1
1
0
0
0
1
2
0
0
0
0
0
0
1
1
1
1
0
0
0
1
1
0
1
0
0
1
0
3
0
1
3
0
3
1
1
3
1
1
2
1
0
1
1
2
0
2
0
2
1
3
1
2
2
2
0
0
1
1
0
3
1
0
2
1
1
1
2
0
0
0
0
0
1
0
0
1
1
1
1
0
1
1
0
1
2
1
0
1
2
2
0
4
1
0
2
1
0
0
3
2
2
2
2
1
0
0
1
0
1
0
1
2
0
1
0
1
3
4
0
1
2
1
1
0
1
0
0
1
0
2
0
0
0
1
2
0
1
0
0
0
2
0
1
2
0
1
3
1
1
3
0
2
2
1
0
1
1
0
2
1
1
0
1
1
2
3
1
1
1
2
1
0
2
3
2
0
1
0
1
2
1
1
1
0
0
0
2
2
2
1
1
0
2
0
1
1
0
2
0
1
0
1
2
0
0
0
0
1
1
0
1
3
0
0
1
1
1
1
0
2
5
1
3
0
0
1
2
0
2
2
0
2
1
0
1
0
3
1
0
2
6
2
1
1
1
4
0
1
3
3
1
1
3
1
1
1
4
0
1
0
1
2
0
1
1
2
1
0
2
2
0
1
1
1
2
2
2
0
1
2
0
1
1
1
1
0
2
0
0
0
1
2
1
1
2
0
1
2
2
1
2
2
2
1
1
2
0
1
2
0
1
0
0
1
1
1
0
2
0
1
2
0
0
1
1
1
2
2
2
4
2
0
2
0
0
1
2
0
0
0
2
2
2
0
0
0
0
0
3
1
3
2
3
2
0
1
2
2
1
1
4
1
1
2
0
1
0
0
0
1
1
1
0
0
1
1
4
1
3
1
0
2
1
1
0
2
1
1
0
0
0
1
0
3
0
1
3
1
0
1
0
1
1
2
3
1
3
1
1
0
1
0
1
0
2
1
0
2
0
2
1
2
0
0
2
2
1
1
2
1
2
0
1
1
2
0
2
2
1
3
0
0
0
0
0
3
2
4
1
1
2
0
0
0
2
0
0
1
0
1
1
2
0
2
1
0
4
1
1
3
0
0
2
2
1
0
4
0
3
0
2
1
3
1
0
1
0
1
0
1
0
0
3
0
1
0
1
3
0
0
2
0
0
3
0
1
3
1
1
1
0
2
0
2
0
1
1
2
1
0
2
0
4
0
1
2
2
0
3
1
0
0
0
0
0
2
3
3
2
1
1
0
3
2
0
0
3
0
0
1
0
1
1
0
1
1
2
2
2
3
0
3
0
3
1
1
0
0
1
1
2
1
1
2
1
1
3
0
0
0
1
0
1
0
1
1
1
2
0
1
0
1
1
0
0
0
2
0
0
0
0
1
0
1
0
0
2
1
1
0
0
1
2
2
3
1
2
0
1
0
2
1
0
0
0
3
1
0
1
0
0
1
2
0
1
0
0
0
1
0
1
0
0
1
2
1
0
1
4
1
0
2
1
2
1
1
0
0
0
0
0
0
3
0
1
0
3
2
0
1
0
1
1
1
1
0
0
0
1
0
0
1
1
1
1
1
1
1
2
0
0
2
0
1
1
1
1
1
1
1
0
0
3
1
2
3
1
1
0
2
0
0
0
1
1
1
1
1
0
0
0
1
1
0
0
0
1
1
0
1
1
2
0
0
2
1
0
4
2
3
1
0
0
0
0
0
1
0
1
2
0
2
0
0
0
1
0
3
0
1
0
0
2
0
1
2
1
0
1
0
0
1
0
2
2
0
0
0
4
1
0
1
0
1
1
2
0
0
2
0
0
0
0
2
2
1
1
1
2
0
1
0
0
0
1
4
0
2
2
0
1
1
2
0
1
1
2
0
1
0
0
3
0
0
1
0
1
0
0
0
3
0
1
2
3
1
3
0
0
1
0
1
2
0
1
1
2
2
2
3
2
1
2
2
1
2
1
0
0
3
2
1
0
2
0
3
0
3
3
0
4
4
0
1
1
1
0
5
0
0
2
3
2
3
1
1
2
2
2
2
2
1
2
2
2
3
2
1
1
2
1
2
0
0
2
2
0
0
1
0
1
1
0
1
1
3
1
1
2
1
0
1
2
0
0
1
1
1
2
1
1
1
3
0
0
1
5
2
0
1
3
0
2
1
1
1
2
2
0
0
2
3
3
3
2
2
1
1
0
2
0
0
1
1
0
0
0
0
2
1
0
0
1
2
0
0
2
2
2
0
0
1
0
0
0
1
0
3
2
1
0
0
0
2
0
2
1
2
1
3
1
1
0
0
0
1
1
3
1
2
1
1
1
3
3
4
0
3
0
3
2
6
1
1
4
1
2
1
2
0
1
0
1
1
2
1
2
3
0
3
0
1
1
4
1
0
1
2
2
0
3
2
1
2
0
3
1
0
0
4
0
1
1
2
0
0
2
3
3
0
4
1
2
1
1
3
2
0
0
1
1
3
2
0
3
0
0
2
1
1
1
2
0
1
1
3
1
0
2
3
3
3
3
0
0
0
0
0
1
3
0
2
3
1
0
1
2
1
0
4
1
0
2
0
0
0
1
0
1
1
3
4
2
0
2
1
0
0
2
2
1
3
1
0
2
0
1
2
0
2
1
2
0
1
2
0
2
2
0
2
2
2
0
0
2
2
2
3
2
2
4
3
3
1
1
0
3
0
4
1
1
2
0
2
1
0
5
2
2
3
0
2
0
2
3
2
1
0
1
0
0
3
1
2
1
1
3
3
2
1
1
0
2
2
1
0
3
1
4
3
2
2
1
2
0
0
1
2
4
4
1
1
2
2
0
0
1
0
0
0
1
1
3
2
2
3
1
4
0
2
2
1
4
4
3
2
2
1
3
3
2
1
3
2
1
2
0
1
4
2
1
1
3
1
5
1
1
2
5
0
0
0
0
0
1
3
2
3
1
1
2
2
2
1
2
3
2
0
0
1
3
0
4
2
3
2
4
2
0
1
2
1
3
3
1
1
0
3
1
0
1
3
0
1
2
0
2
0
0
3
1
0
0
4
2
5
3
1
1
1
1
2
0
1
1
2
2
2
2
1
1
2
2
1
2
0
3
1
0
2
1
5
0
2
1
2
0
1
3
3
3
3
1
2
2
0
0
1
3
2
1
3
3
0
2
1
1
2
1
1
2
4
3
2
1
2
3
2
0
1
1
1
1
1
5
0
3
0
3
0
1
1
2
3
1
1
3
3
0
2
3
0
1
2
2
0
1
1
1
2
2
0
1
1
2
4
1
4
0
0
2
0
3
1
0
3
0
1
2
2
1
5
2
5
1
2
3
1
0
2
0
0
3
0
2
1
3
3
2
2
0
2
2
1
1
1
1
2
2
2
2
3
1
1
1
0
1
4
1
1
2
2
0
3
3
2
2
1
4
1
0
1
0
1
0
2
3
1
0
3
1
1
2
1
2
4
1
0
2
2
3
2
3
4
2
0
1
0
0
1
2
3
0
3
4
4
1
3
3
2
2
1
2
0
2
5
1
0
0
1
1
0
4
3
1
3
1
0
1
0
0
0
1
1
3
2
0
2
0
1
1
2
2
1
0
0
1
0
1
0
0
1
2
0
1
0
0
3
2
0
1
2
2
2
1
0
0
0
1
1
0
0
0
1
1
1
1
2
1
2
0
0
0
0
0
1
1
1
1
1
0
0
1
1
1
2
1
1
1
0
1
0
1
1
1
2
0
1
1
0
1
2
0
1
0
0
0
2
0
0
2
1
1
0
0
1
2
2
3
1
3
1
0
1
1
2
1
0
0
1
1
1
1
0
1
1
0
1
2
0
1
0
1
2
4
1
1
2
0
0
1
1
1
2
1
0
2
2
0
1
3
3
1
1
2
2
0
0
2
0
0
0
0
0
0
1
0
0
0
1
1
1
0
3
1
0
1
1
0
1
1
0
0
0
0
2
3
0
0
1
1
0
0
0
1
0
1
0
0
2
1
3
1
0
2
0
1
0
0
1
0
0
2
0
1
0
0
0
0
1
0
0
1
0
0
1
0
0
2
1
1
0
0
0
0
1
0
0
0
0
0
1
0
0
0
0
0
0
0
1
0
0
0
0
0
1
1
0
0
0
0
0
0
0
0
0
0
0
0
0
0
0
0
0
0
0
0
0
0
0
0
0
0
0
0
0
0
0
0
0
0
0
0
0
0
0
0
0
0
0
0
0
0
0
0
0
0
0
0
0
0
0
0
0
0
0
0
0
0
0
0
0
0
0
0
0
0
0
0
0
0
0
0
0
0
0
0
0
0
0
0
0
0
0
0
0
0
0
0
0
0
0
0
1
0
0
0
0
0
0
0
0
0
0
0
0
0
0
0
0
0
0
0
0
0
0
0
0
0
0
0
0
0
0
0
0
0
0
0
0
0
0
0
0
0
0
0
0
0
0
0
0
0
0
0
0
0
0
0
0
0
0
0
0
0
0
0
0
0
0
0
0
0
0
0
0
0
0
0
0
0
0
0
0
0
0
0
0
0
0
0
0
0
0
0
0
0
0
0
0
0
0
0
0
0
0
0
0
0
0
0
0
0
0
0
0
0
0
0
0
0
0
0
0
0
0
0
0
0
0
0
0
0
0
0
0
0
0
0
0
0
0
0
0
0
0
0
0
0
0
0
0
0
0
0
0
0
0
0
0
0
0
0
0
0
0
0
0
0
0
0
0
0
0
0
0
0
0
0
0
0
0
0
0
0
0
0
0
0
0
0
0
0
0
0
0
0
0
0
0
0
0
0
0
0
0
0
0
0
0
0
0
0
0
0
0
0
0
0
0
0
1
0
0
0
0
0
0
0
0
0
0
0
0
0
0
0
0
0
0
0
0
0
0
0
0
0
0
0
0
0
0
0
0
0
0
0
0
0
0
0
0
0
0
0
0
0
0
0
0
0
0
0
0
0
0
0
0
0
0
0
0
0
0
0
0
0
0
0
0
0
0
0
0
0
0
0
0
0
0
0
0
0
0
0
0
0
0
0
0
0
0
0
0
0
0
0
0
0
0
0
0
0
0
0
0
0
0
0
0
0
0
0
0
0
0
0
0
0
0
0
0
0
0
0
0
0
0
0
0
0
0
0
0
0
0
0
0
0
0
0
0
0
0
0
0
0
0
0
0
0
0
0
0
0
0
0
0
0
0
0
0
0
0
0
0
0
1
0
0
0
0
0
0
0
0
0
0
0
0
0
0
0
0
0
0
0
0
0
0
0
0
0
0
0
0
0
0
0
0
0
0
0
0
0
0
0
0
0
0
0
0
0
0
0
0
0
0
0
0
0
0
0
1
0
0
0
0
0
0
0
0
0
0
0
0
0
0
0
0
0
0
0
0
0
0
0
0
0
0
0
0
0
0
0
0
0
0
0
0
0
0
0
0
0
0
0
0
0
0
0
0
0
0
0
0
0
0
0
0
0
0
0
0
0
0
0
0
0
0
0
0
0
0
0
0
0
0
0
0
0
0
0
0
0
0
0
0
0
0
0
0
0
0
0
0
0
0
0
0
0
0
0
0
0
0
0
0
0
0
0
0
0
0
0
0
0
0
0
0
0
0
0
0
0
0
0
0
0
0
0
0
0
0
0
0
0
0
0
0
0
0
0
0
0
0
0
0
0
0
0
0
0
0
0
0
0
0
0
0
0
0
0
0
0
0
0
0
0
0
0
0
0
0
0
0
0
0
0
0
0
0
0
0
0
0
0
0
0
0
0
0
0
0
0
0
0
0
0
0
0
0
0
0
0
0
0
0
0
0
0
0
0
0
0
0
0
0
0
0
0
0
0
0
0
0
0
0
0
0
0
0
0
0
0
0
0
0
0
0
0
0
0
0
1
0
0
0
0
0
0
0
0
0
0
0
0
0
0
0
0
0
0
0
0
0
0
0
0
0
0
1
0
0
0
0
0
0
0
0
0
0
0
0
0
0
0
0
0
0
0
0
0
0
0
0
0
0
0
0
0
0
0
0
0
0
0
0
0
0
0
0
0
0
0
0
0
0
0
0
0
0
0
0
0
0
0
0
0
0
0
0
0
0
0
0
0
0
0
0
0
0
0
0
0
0
0
0
0
0
0
0
0
0
0
0
0
0
0
0
0
0
0
0
0
0
0
0
0
0
0
0
0
0
0
0
0
0
0
0
0
0
0
0
0
0
0
0
0
0
0
0
0
0
0
0
0
0
0
0
0
0
0
0
0
0
0
0
0
0
0
0
0
0
0
0
0
0
0
0
0
0
0
0
0
0
0
0
0
0
0
0
0
0
0
0
0
0
0
0
0
0
0
0
0
0
0
0
0
0
0
0
0
0
0
0
0
0
0
0
0
0
0
0
0
0
0
0
0
0
0
0
0
0
0
0
0
0
0
0
0
0
0
0
0
0
0
0
0
0
0
0
0
0
0
0
0
0
0
0
0
0
0
0
0
0
0
0
0
0
0
0
0
0
0
0
0
0
0
0
0
0
0
0
0
0
0
0
0
0
0
0
0
0
0
0
0
0
0
0
0
1
0
0
0
0
0
0
0
0
0
0
0
0
0
0
0
0
0
0
0
0
0
0
0
0
0
0
0
0
0
0
0
0
0
0
0
0
0
0
0
0
0
0
0
0
0
0
0
0
0
0
0
0
0
0
0
0
0
0
0
0
0
0
0
0
0
0
0
0
0
0
0
0
0
0
0
0
0
0
0
0
0
0
0
0
0
0
0
0
0
0
0
0
0
0
0
0
0
0
0
0
0
0
0
0
0
0
0
0
0
0
0
0
0
0
0
0
0
0
0
0
0
0
0
0
0
0
0
0
0
0
0
0
0
0
0
0
0
0
0
0
0
0
0
0
0
0
0
0
0
0
0
0
0
0
0
0
0
0
0
0
0
0
0
0
0
0
0
0
0
0
0
0
0
0
0
0
0
0
0
0
0
0
0
0
0
0
0
0
0
0
0
0
0
0
0
0
0
0
0
0
0
0
0
0
0
0
0
0
0
0
0
0
0
0
0
0
0
0
0
0
0
0
0
0
0
0
0
0
0
0
0
0
0
0
0
0
0
0
0
0
0
0
0
0
0
0
0
0
0
0
0
0
0
0
0
0
0
0
0
0
0
0
0
0
0
0
0
0
0
0
0
0
0
0
0
0
0
0
0
0
0
0
0
0
0
0
0
0
0
0
0
0
0
0
0
0
0
0
0
0
0
0
0
0
0
0
0
0
0
0
0
0
0
0
0
0
0
0
0
0
0
0
0
0
0
0
0
0
0
0
0
0
0
0
0
0
0
0
0
0
0
0
0
0
0
0
0
0
0
0
0
0
0
0
0
0
0
0
0
0
0
0
0
0
0
0
0
0
0
0
0
0
0
0
0
0
0
0
0
0
0
0
0
0
0
0
0
0
0
0
0
0
0
0
0
0
0
0
0
0
0
0
0
0
0
0
0
0
0
0
0
0
0
0
0
0
0
0
0
0
0
0
0
0
0
0
0
0
0
0
0
0
0
0
0
0
0
0
0
0
0
0
0
0
0
0
0
0
0
0
0
0
0
0
0
0
0
0
0
0
0
0
0
0
0
0
0
0
0
0
0
0
0
0
0
0
0
0
0
0
0
0
0
0
0
0
0
0
0
0
0
0
0
0
0
0
0
0
0
0
0
0
0
0
0
0
0
0
0
0
0
0
0
0
0
0
0
0
0
0
0
0
0
0
0
0
0
0
0
0
0
0
0
0
0
0
0
0
0
0
0
0
0
0
0
0
0
0
0
0
0
0
0
0
0
0
0
0
0
0
0
0
0
0
0
0
0
0
0
0
0
0
0
0
0
0
0
0
0
0
0
0
0
0
0
0
0
0
0
0
0
0
0
0
0
0
0
0
0
0
0
0
0
0
0
0
0
0
0
0
0
0
0
0
0
0
0
0
0
0
0
0
0
0
0
0
0
0
0
0
0
0
0
0
0
0
0
0
0
0
0
0
0
0
0
0
0
0
0
0
0
0
0
0
0
0
0
0
0
0
0
0
0
0
0
0
0
0
0
0
0
0
0
0
0
0
0
0
0
0
0
0
0
0
0
0
0
0
0
0
0
0
0
0
0
0
0
0
0
0
0
0
0
0
0
0
0
0
0
0
0
0
0
0
0
0
0
0
0
0
1
0
0
0
0
0
0
0
0
0
0
0
0
0
0
0
0
0
0
0
0
0
0
0
0
0
0
0
0
0
0
0
0
0
0
0
0
0
0
0
0
0
0
0
0
0
0
0
0
0
0
0
0
0
0
0
0
0
0
0
0
0
0
0
0
0
0
0
0
0
0
0
0
0
0
0
0
0
0
0
0
0
0
0
0
0
0
0
0
0
0
0
0
0
0
0
0
0
0
0
0
0
0
0
0
0
0
0
0
0
0
0
0
0
0
0
0
0
0
0
0
0
0
0
0
0
0
0
0
0
0
0
0
0
0
0
0
0
0
0
0
0
0
0
0
0
0
0
0
0
0
0
0
0
0
0
0
0
0
0
0
0
0
0
0
0
0
0
0
0
0
0
0
0
0
0
0
0
0
0
0
0
0
0
0
0
0
0
0
0
0
0
0
0
0
0
0
0
0
0
0
0
0
0
0
0
0
0
0
0
0
0
0
0
0
0
0
0
0
0
0
0
0
0
0
0
0
0
0
0
0
0
0
0
0
0
0
0
0
0
0
0
0
0
0
0
0
0
0
0
0
0
0
0
0
0
0
0
0
0
0
0
0
0
0
0
0
0
0
0
0
0
0
0
0
0
0
0
0
0
0
0
0
0
0
0
0
0
0
0
0
0
0
0
0
0
0
0
0
0
0
0
0
0
0
0
0
0
0
0
0
0
0
0
0
0
0
0
0
0
0
0
0
0
0
0
0
0
0
0
0
0
0
0
0
0
0
0
0
0
0
0
0
0
0
0
0
0
0
0
0
0
0
0
0
0
0
0
0
0
0
0
0
0
0
0
0
0
0
0
0
0
0
0
0
0
0
0
0
0
0
0
0
0
0
0
0
0
0
0
0
0
0
0
0
0
0
0
0
0
0
0
0
0
0
0
0
0
0
0
0
0
0
0
0
0
0
0
0
0
0
0
0
0
0
0
0
0
0
0
0
0
0
0
0
0
0
0
0
0
0
0
0
0
0
0
0
0
0
0
0
0
0
0
0
0
0
0
0
0
0
0
0
0
0
0
0
0
0
0
0
0
0
0
0
0
0
0
0
0
0
0
0
0
0
0
0
0
0
0
0
0
0
0
0
0
0
0
0
0
0
0
0
0
0
0
0
0
0
0
0
0
0
0
0
0
0
0
0
0
0
0
0
0
0
0
0
0
0
0
0
0
0
0
0
0
0
0
0
0
0
0
0
0
0
0
0
0
0
0
0
0
0
0
0
0
0
0
0
0
0
0
0
0
0
0
0
0
0
0
0
0
0
0
0
0
0
0
0
0
0
0
0
0
0
0
0
0
0
0
0
0
0
0
0
0
0
0
0
0
0
0
0
0
0
0
0
0
0
0
0
0
0
0
0
0
0
0
0
0
0
0
0
0
0
0
0
0
0
0
0
0
0
0
0
0
0
0
0
0
0
0
0
0
0
0
0
0
0
0
0
0
0
0
0
0
0
0
0
0
0
0
0
0
0
0
0
0
0
0
0
0
0
0
0
0
0
0
0
0
0
0
0
0
0
0
0
0
0
0
0
0
0
0
0
0
0
0
0
0
0
0
0
0
0
0
0
0
0
0
0
0
0
0
0
0
0
0
0
0
0
0
0
0
0
0
0
0
0
0
0
0
0
0
0
0
0
0
0
0
0
0
0
0
0
0
0
0
0
0
0
0
0
0
0
0
0
0
0
0
0
0
0
0
0
0
0
0
0
0
0
0
0
0
0
0
0
0
0
0
0
0
0
0
0
0
0
0
0
0
0
0
0
0
0
0
0
0
0
0
0
0
0
0
0
0
0
0
0
0
0
0
0
0
0
0
0
0
0
0
0
0
0
0
0
0
0
0
0
0
0
0
0
0
0
0
0
0
0
0
0
0
0
0
0
0
0
0
0
0
0
0
0
0
0
0
0
0
0
0
0
0
0
0
0
0
0
0
0
0
0
0
0
0
0
0
0
0
0
0
0
0
0
0
0
0
0
0
0
0
0
0
0
0
0
0
0
0
0
0
0
0
0
0
0
0
0
0
0
0
0
0
0
0
0
0
0
0
0
0
0
0
0
0
0
0
0
0
0
0
0
0
0
0
0
0
0
0
0
0
0
0
0
0
0
0
0
0
0
0
0
0
0
0
0
0
0
0
0
0
0
0
0
0
0
0
0
0
0
0
0
0
0
0
0
0
0
0
0
0
0
0
0
0
0
0
0
0
0
0
0
0
0
0
0
0
0
0
0
0
0
0
0
0
0
0
0
0
0
0
0
0
0
0
0
0
0
0
0
0
0
0
0
0
0
0
0
0
0
0
0
0
0
0
0
0
0
0
0
0
0
0
0
0
0
0
0
0
0
0
0
0
0
0
0
0
0
0
0
0
0
0
0
0
0
0
0
0
0
0
0
0
0
0
0
0
0
0
0
0
0
0
0
0
0
0
0
0
0
0
0
0
0
0
0
0
0
0
0
0
0
0
0
0
0
0
0
0
0
0
0
0
0
0
0
0
0
0
0
0
0
0
0
0
0
0
0
0
0
0
0
0
0
0
0
0
0
0
0
0
0
0
0
0
0
0
0
0
0
0
0
0
0
0
0
0
0
0
0
0
0
0
0
0
0
0
0
0
0
0
0
0
0
0
0
0
0
0
0
0
0
0
0
0
0
0
0
0
0
0
0
0
0
0
0
0
0
0
0
0
0
0
0
0
0
0
0
0
0
0
0
0
0
0
0
0
0
0
0
0
0
0
0
0
0
0
0
0
0
0
0
0
0
0
0
0
0
0
0
0
0
0
0
0
0
0
0
0
0
0
0
0
0
0
0
0
0
0
0
0
0
0
0
0
0
0
0
0
0
0
0
0
0
0
0
0
0
0
0
0
0
0
0
0
0
0
0
0
0
0
0
0
