0
0
0
0
0
0
0
0
0
0
0
0
0
0
0
0
0
0
0
0
0
0
0
0
0
0
0
0
0
0
0
0
0
0
0
0
0
0
0
0
0
0
0
0
0
0
0
0
0
0
0
0
0
0
0
0
0
0
0
0
0
0
0
0
0
0
0
0
0
0
0
0
0
0
0
0
0
0
0
0
0
0
0
0
0
0
0
0
0
0
0
0
0
0
0
0
0
0
0
0
0
0
0
0
0
0
0
0
0
0
0
0
0
0
0
0
0
0
0
0
0
0
0
0
0
0
0
0
0
0
0
0
0
0
0
0
0
0
0
0
0
0
0
0
0
0
0
0
0
0
0
0
0
0
0
0
0
0
0
0
0
0
0
0
0
0
0
0
0
0
0
0
0
0
0
0
0
0
0
0
0
0
0
0
0
0
0
0
0
0
0
0
0
0
0
0
0
0
0
0
0
0
0
0
0
0
0
0
0
0
0
0
0
0
0
0
0
0
0
0
0
0
0
0
0
0
0
0
0
0
0
0
0
0
0
0
0
0
0
0
0
0
0
0
0
0
0
0
0
0
0
0
0
0
0
0
0
0
0
0
0
0
0
0
0
0
0
0
0
0
0
0
0
0
0
0
0
0
0
0
0
0
0
0
0
0
0
0
0
0
0
0
0
0
0
0
0
0
0
0
0
0
0
0
0
0
0
0
0
0
0
0
0
0
0
0
0
0
0
0
0
0
0
0
0
0
0
0
0
0
0
0
0
0
0
0
0
0
0
0
0
0
0
0
0
0
0
0
0
0
0
0
0
0
0
0
0
0
0
0
0
0
0
0
0
0
0
0
0
0
0
0
0
0
0
0
0
0
0
0
0
0
0
0
0
0
0
0
0
0
0
0
0
0
0
0
0
0
0
0
0
0
0
0
0
0
0
0
0
0
0
0
0
0
0
0
0
0
0
0
0
0
0
0
0
0
0
0
0
0
0
0
0
0
0
0
0
0
0
0
0
0
0
0
0
0
0
0
0
1
0
4
8
28
63
135
151
142
153
122
144
147
142
148
130
127
133
142
148
138
152
166
167
145
130
159
156
142
167
179
152
139
162
158
168
166
161
150
152
162
151
141
180
170
168
171
157
178
181
149
179
163
160
178
161
169
199
165
160
191
162
159
175
146
178
168
192
174
186
177
177
169
198
173
189
178
174
174
176
190
175
200
168
195
184
168
173
180
174
179
188
180
171
160
200
169
192
190
197
160
148
172
185
165
185
190
177
167
183
157
184
157
157
158
177
195
189
181
171
173
170
182
165
159
167
180
172
138
158
175
187
147
174
162
154
168
153
143
154
156
153
144
175
154
141
158
122
139
149
151
149
119
138
135
136
121
158
139
145
132
116
129
133
123
124
131
127
122
102
108
126
106
114
96
92
104
127
91
107
104
123
116
106
92
97
99
102
81
77
109
98
88
94
77
82
92
70
71
91
75
66
74
60
82
74
67
61
56
80
66
82
70
56
67
56
58
54
62
62
50
67
64
51
38
49
52
45
49
47
41
42
39
44
38
45
50
35
40
52
33
36
45
35
30
28
35
43
37
37
29
34
34
23
39
36
29
28
37
32
27
29
25
34
17
23
25
17
28
26
30
19
14
18
29
29
18
15
19
19
20
16
16
12
18
21
18
20
16
11
13
18
10
14
13
18
19
14
15
11
8
9
10
9
16
12
10
10
13
8
8
5
7
9
11
8
5
8
11
6
8
3
7
7
7
7
6
5
7
10
9
10
5
8
6
3
6
5
3
1
6
1
4
3
5
3
5
5
7
5
2
9
1
5
5
5
4
3
2
2
3
5
2
5
1
2
0
1
1
4
5
8
3
2
3
4
3
1
2
1
3
5
3
5
1
3
0
2
0
3
1
3
4
1
1
1
3
2
0
5
1
4
1
2
3
1
4
2
1
1
1
3
1
3
1
0
0
2
2
2
0
4
2
1
1
0
2
0
1
2
3
0
2
2
1
2
1
3
0
4
2
1
0
0
2
0
0
1
1
0
2
3
2
0
1
1
1
1
1
2
1
2
0
2
1
1
0
0
1
2
0
0
1
1
0
0
3
1
1
0
0
3
0
2
1
1
0
1
1
0
0
0
0
0
0
0
0
0
1
0
1
0
0
1
1
1
1
0
0
1
1
0
2
0
0
0
1
1
0
0
0
0
0
1
2
0
0
0
0
1
1
0
0
1
1
0
1
1
1
2
4
2
1
0
0
1
2
0
0
1
1
0
1
0
1
1
1
0
1
0
1
1
1
1
0
2
0
3
2
0
0
1
2
0
0
1
1
0
0
0
0
0
2
0
1
1
0
2
0
0
0
0
0
1
1
1
0
3
1
0
0
1
0
0
0
2
0
0
0
0
0
1
2
0
2
1
0
0
1
1
1
0
2
0
1
0
0
1
1
0
0
1
0
0
0
0
0
0
2
1
0
1
0
0
0
0
0
0
0
0
1
0
0
0
1
1
1
0
2
0
0
0
0
0
1
0
0
2
0
0
1
1
0
1
0
0
0
1
1
0
1
0
0
1
1
2
0
1
1
2
0
0
0
1
0
0
0
0
0
0
0
0
1
1
0
0
0
0
0
1
0
1
0
0
1
0
0
1
0
0
0
0
1
0
0
2
1
0
0
0
1
1
0
0
0
0
0
2
1
0
0
2
0
0
0
0
2
0
0
1
1
0
1
0
0
1
0
2
2
0
0
1
0
1
0
0
1
0
0
0
0
0
1
0
0
0
0
1
0
2
0
0
0
0
1
0
1
1
0
0
0
0
1
0
0
0
0
0
0
0
1
0
0
0
1
0
1
0
0
1
1
0
0
1
0
2
0
1
0
0
0
0
0
1
1
0
0
2
0
0
2
0
0
1
0
0
2
1
0
1
1
0
0
0
1
0
0
0
0
1
1
0
1
0
1
0
1
0
0
0
0
0
1
0
1
1
0
0
0
0
1
0
1
0
0
0
0
0
0
0
0
0
0
0
0
0
2
0
0
0
1
0
0
0
0
1
0
0
0
0
2
0
1
1
1
0
0
1
0
0
1
1
0
1
2
0
0
0
0
0
2
0
0
1
2
0
0
2
0
1
0
0
1
0
0
1
0
0
1
0
1
0
0
0
1
0
0
0
0
1
0
1
0
0
0
0
0
0
0
1
1
0
1
0
0
0
0
0
0
0
1
0
0
0
0
0
2
1
2
1
1
0
0
1
2
0
0
2
0
0
0
1
0
0
0
1
1
0
0
0
0
0
0
0
0
0
1
1
0
0
0
1
0
0
0
0
0
0
1
0
0
0
0
0
1
0
0
0
2
1
1
0
0
0
1
0
0
0
1
0
0
0
1
0
0
0
1
0
0
0
0
0
1
1
0
0
1
0
0
0
1
0
0
1
0
0
1
0
1
1
0
1
2
1
1
0
0
0
1
0
0
0
1
1
0
0
1
0
2
1
0
1
0
0
0
0
0
0
0
0
0
0
0
0
1
0
0
0
0
0
0
1
0
0
0
0
1
1
0
0
1
0
1
1
0
0
0
0
0
0
0
1
0
0
0
0
0
0
0
1
0
0
1
0
0
0
0
0
0
0
0
2
0
0
0
0
0
2
0
0
1
0
1
0
0
0
1
0
1
0
0
0
0
1
0
0
0
0
0
2
0
0
0
0
0
0
1
0
0
0
0
1
0
1
1
0
0
2
0
1
1
1
1
0
0
0
2
0
1
0
0
1
0
0
0
0
1
0
1
1
0
3
1
0
0
0
0
0
0
0
0
0
0
1
0
0
0
0
2
1
0
0
1
1
1
1
0
0
0
1
0
0
2
0
0
0
1
0
0
0
2
0
0
0
1
1
1
2
0
0
0
0
1
1
0
0
1
1
0
0
0
1
0
0
0
1
1
0
0
1
0
0
0
1
1
0
1
1
1
0
0
0
0
0
0
0
0
1
0
0
0
0
0
0
0
0
1
1
0
1
1
0
0
0
0
2
1
0
0
0
1
0
0
0
1
2
2
0
0
0
1
1
0
2
0
1
0
0
0
0
1
0
0
0
0
0
0
0
1
1
0
0
0
0
0
0
0
1
0
0
0
1
0
1
0
0
0
1
0
0
0
0
0
1
0
0
0
1
1
0
0
0
0
0
1
0
0
0
0
0
1
0
0
1
1
1
0
0
1
1
0
0
1
0
0
0
0
0
1
0
0
0
0
0
1
0
0
0
0
1
0
0
2
0
0
1
0
0
0
0
0
0
0
0
0
0
0
3
0
0
0
1
0
1
0
1
1
0
1
1
0
0
0
0
1
1
0
0
1
0
1
0
1
0
1
0
1
1
1
0
1
0
0
1
0
0
0
0
1
1
0
0
1
0
0
0
0
0
0
1
1
0
2
0
1
2
0
2
1
0
0
0
0
0
1
0
0
0
0
0
0
0
0
0
0
0
0
0
1
1
1
0
0
2
0
0
1
0
3
1
0
1
1
1
0
0
1
1
0
0
0
1
1
0
0
1
0
0
0
0
0
0
0
0
1
0
0
1
1
1
0
1
0
0
0
0
1
1
0
2
1
0
1
0
0
1
2
0
0
1
1
1
0
0
0
0
1
0
0
1
0
1
0
2
0
0
0
0
0
0
0
0
0
0
1
0
0
0
1
0
0
1
0
1
0
0
0
0
0
0
0
2
1
0
0
1
0
0
0
0
0
1
0
0
1
0
0
2
1
0
1
0
0
0
1
0
1
0
0
0
2
0
2
0
0
0
0
0
2
0
1
1
0
2
1
0
0
0
0
0
0
1
2
2
0
1
0
1
0
1
1
2
2
1
1
1
0
0
0
1
1
1
0
1
1
1
0
1
0
0
0
0
2
1
3
1
0
0
0
1
0
0
0
1
0
1
0
0
0
0
1
1
0
0
0
0
1
0
2
2
0
0
0
1
0
0
0
2
0
0
0
1
0
0
2
3
1
1
1
1
1
0
0
0
2
0
0
0
0
0
0
0
0
0
0
1
2
1
0
0
0
0
1
0
0
0
0
0
0
3
0
2
0
2
0
0
1
1
0
0
2
1
0
0
0
0
0
1
1
1
0
0
1
0
0
1
0
1
2
1
0
1
1
0
0
3
0
1
1
0
0
0
1
0
0
0
1
1
0
0
0
0
0
0
0
0
0
2
2
0
1
0
2
0
0
0
2
3
0
3
0
0
0
0
1
0
1
0
0
1
1
1
1
1
0
2
1
0
0
2
1
0
0
1
1
0
1
5
1
3
1
1
2
0
2
0
0
0
0
1
0
2
0
2
0
2
2
0
0
3
0
0
0
1
1
0
2
0
1
0
2
1
0
1
0
1
1
0
3
2
0
1
1
1
1
1
1
1
1
0
0
0
0
1
1
1
1
1
1
2
0
0
0
1
1
1
2
1
0
0
0
1
1
2
0
2
1
2
1
0
0
0
2
0
0
1
0
2
0
0
2
0
2
0
1
1
0
2
1
0
1
1
0
2
1
2
1
0
0
1
0
3
0
0
1
1
2
0
1
0
0
0
3
0
2
4
1
2
2
1
0
1
1
0
1
2
3
1
1
1
0
1
4
1
0
3
2
3
1
0
1
3
0
1
0
0
1
1
2
5
3
1
2
1
1
1
2
2
2
1
2
1
3
0
0
1
0
0
0
0
1
1
0
1
0
2
1
0
1
0
2
1
0
3
1
1
2
2
1
0
0
1
0
3
0
5
2
1
0
2
2
3
1
3
1
1
3
4
2
4
2
2
0
1
2
0
1
0
4
0
1
0
1
3
1
1
1
3
3
3
2
2
0
0
1
1
0
2
2
0
4
6
1
0
2
0
0
1
2
0
1
3
1
5
3
4
2
3
2
2
1
0
0
4
2
1
1
1
2
1
5
3
3
0
1
4
5
2
2
2
3
3
2
3
1
2
4
1
3
1
2
1
3
3
3
1
1
4
2
3
3
1
2
3
2
4
1
2
2
4
2
1
2
3
2
3
3
4
4
1
4
2
2
2
3
2
2
2
3
2
1
2
5
5
2
2
2
2
4
1
3
8
2
4
4
3
5
1
0
4
1
4
5
0
1
5
1
1
4
3
6
3
4
3
3
2
5
2
2
3
6
2
2
7
3
3
5
4
3
3
4
4
6
0
1
0
5
1
2
5
3
3
4
4
4
3
5
3
1
4
7
3
3
2
5
2
2
3
3
4
1
5
2
1
5
3
6
5
3
6
2
6
3
3
1
5
6
5
2
5
5
7
5
7
4
5
4
0
4
4
7
5
7
2
7
6
2
3
4
2
9
6
3
8
4
9
2
5
6
6
7
4
5
5
3
7
6
7
4
4
7
9
6
8
8
6
6
8
10
7
12
5
13
7
4
4
16
8
6
4
7
8
3
5
8
7
8
6
7
5
8
8
7
3
5
6
10
8
7
4
12
7
3
3
8
9
12
7
10
12
8
10
11
13
9
7
12
9
11
9
9
7
2
6
9
11
6
10
5
9
10
12
3
15
10
11
8
11
13
16
11
11
11
8
4
18
10
7
11
17
14
12
12
12
10
15
19
12
13
9
14
17
14
14
14
19
11
19
17
19
11
21
15
15
10
14
19
11
24
16
16
14
18
11
12
17
16
15
16
9
18
21
17
18
16
15
16
18
18
21
16
24
24
28
15
19
24
22
23
14
18
17
24
28
12
21
21
19
23
21
20
19
24
26
22
29
29
26
18
24
26
19
27
35
22
16
35
27
21
23
23
23
25
34
26
26
25
33
33
24
23
30
23
28
41
33
37
26
26
24
28
28
41
26
44
38
30
35
35
28
35
41
28
39
29
31
37
28
21
32
38
44
26
37
41
42
41
47
37
36
37
38
43
48
33
51
38
35
35
37
37
43
31
52
48
43
38
46
46
42
43
29
46
40
38
37
47
46
43
43
30
37
48
50
50
43
53
45
36
48
43
35
47
50
53
41
44
42
41
46
45
53
39
39
34
28
39
38
45
38
37
42
25
35
44
38
44
27
38
33
22
32
42
30
44
28
36
33
35
33
32
28
23
29
29
30
25
28
26
25
30
20
18
26
41
25
36
24
24
35
24
18
18
15
31
20
28
16
18
24
7
18
16
19
23
14
18
15
15
13
13
18
22
12
16
8
24
9
15
14
18
8
13
16
10
14
7
14
11
14
8
6
15
8
13
11
4
6
9
10
11
11
13
9
8
8
9
9
8
7
11
6
6
8
5
4
7
7
6
3
10
10
9
8
9
6
2
1
6
3
7
4
8
5
7
4
1
8
4
5
2
2
4
5
2
3
4
0
5
6
5
2
5
3
7
5
3
2
1
3
4
3
2
2
3
3
3
2
2
3
1
2
3
5
4
1
2
0
0
4
4
1
2
2
3
1
3
6
4
3
5
2
1
3
2
4
5
4
3
2
3
2
1
1
1
2
5
2
5
4
0
1
1
1
1
2
5
1
3
1
0
4
3
0
1
3
0
3
3
2
2
0
0
2
3
0
1
2
0
1
2
2
3
1
1
3
1
3
2
1
0
3
2
1
1
1
2
0
0
2
1
2
0
2
0
2
0
0
1
2
1
2
2
2
3
1
0
0
1
1
1
2
1
2
1
1
0
2
0
1
0
1
1
3
1
7
2
0
0
1
0
2
1
1
0
0
0
0
0
1
0
1
1
2
1
4
0
1
1
1
1
2
1
0
1
1
1
1
1
3
1
0
3
3
0
3
1
2
0
3
0
3
1
2
1
1
1
3
1
0
2
1
3
4
0
0
0
1
2
1
1
0
4
2
2
1
1
3
1
2
3
1
0
3
1
2
0
3
1
4
1
0
4
1
4
2
1
0
1
1
1
2
0
0
1
2
0
2
4
1
1
0
3
4
4
3
2
1
1
0
2
1
1
0
1
2
3
1
4
4
3
2
2
3
2
1
4
3
3
2
0
0
1
2
2
1
5
3
3
0
4
0
3
2
0
1
0
2
2
4
2
0
0
5
2
2
3
3
1
1
5
0
2
1
1
3
3
2
1
2
2
0
1
2
1
4
1
1
2
2
1
5
0
4
1
0
1
5
2
2
1
3
1
5
3
3
1
1
1
3
2
2
1
1
3
3
0
2
1
0
2
2
2
6
1
4
1
3
3
2
3
1
4
3
6
0
4
3
4
4
1
2
4
3
3
4
2
3
3
3
0
2
6
2
2
2
5
4
0
5
4
0
4
3
6
2
4
3
2
4
2
2
4
0
2
4
2
2
2
2
4
1
2
5
2
4
2
2
4
7
4
3
4
4
1
2
5
4
5
0
8
1
3
2
1
3
4
2
1
1
4
2
2
9
2
6
3
8
2
1
4
4
3
7
2
3
4
5
6
2
3
6
2
2
7
4
3
3
6
4
2
7
3
3
4
4
5
3
2
2
5
6
7
4
6
5
7
3
7
6
8
3
9
8
4
10
0
3
6
4
7
1
7
7
7
5
5
7
4
4
5
7
3
7
7
3
1
4
5
8
6
8
4
5
3
3
6
4
7
5
3
8
4
3
6
3
6
5
4
5
9
5
6
4
6
7
9
2
7
5
9
7
1
3
3
3
3
7
7
3
1
4
4
3
3
4
3
1
2
5
9
4
6
4
4
4
4
8
6
5
4
7
6
5
5
4
4
3
6
5
6
4
5
4
5
2
4
8
7
5
6
8
2
4
4
7
4
3
8
3
8
7
5
7
5
8
1
7
5
9
0
2
7
8
6
5
4
5
9
7
5
3
7
3
5
1
6
6
7
4
5
11
8
5
8
10
10
7
4
5
9
1
7
4
4
6
3
5
8
9
9
6
9
6
3
6
6
7
13
6
5
2
9
8
5
5
9
8
5
5
5
8
12
4
4
5
4
6
10
7
7
8
8
7
4
14
10
7
9
7
11
7
5
10
8
9
5
5
6
2
6
4
4
8
10
9
6
9
6
8
10
5
7
6
7
7
12
8
5
10
9
6
8
13
9
6
16
7
7
9
6
12
14
7
9
5
12
6
8
13
14
3
11
6
11
16
9
12
10
7
16
6
10
6
11
8
8
16
11
12
9
13
10
11
12
12
11
9
9
12
13
10
21
22
20
8
8
14
16
13
9
17
14
14
11
15
17
12
12
13
14
17
16
16
11
13
12
20
14
18
15
8
12
21
17
14
27
25
15
16
20
12
15
15
19
18
11
18
15
25
14
23
16
20
25
19
13
22
18
15
22
17
17
28
22
22
19
25
28
16
23
28
21
27
28
44
20
22
24
23
16
25
31
25
33
35
30
37
33
28
33
33
29
31
27
32
31
31
37
30
41
38
44
30
41
43
34
26
50
43
41
36
45
52
49
45
54
51
50
42
45
55
55
45
36
49
50
53
46
44
57
53
61
69
45
74
54
64
58
55
59
59
69
80
71
62
73
71
60
76
86
73
47
55
79
71
89
79
76
94
66
94
74
61
81
74
75
54
69
83
84
84
97
85
77
79
75
87
87
83
74
87
86
84
87
92
89
83
100
71
79
85
96
90
80
95
87
94
84
72
76
94
100
78
67
74
88
80
71
82
84
85
80
71
72
78
62
70
78
67
83
69
62
79
75
56
64
59
76
55
56
71
48
41
52
46
50
53
55
54
48
37
38
44
46
58
46
51
39
36
31
46
36
35
26
40
41
33
34
31
31
39
35
24
35
34
26
33
37
23
44
32
26
23
30
21
20
22
25
20
23
19
18
19
25
17
17
24
18
24
12
23
16
18
15
13
21
9
20
14
16
12
10
10
9
6
14
9
7
17
9
9
13
15
9
14
3
14
15
7
4
8
9
11
9
7
4
10
9
3
13
1
11
7
8
4
6
7
4
6
8
4
5
3
4
2
6
4
5
6
4
5
3
3
2
4
3
4
1
1
2
4
1
3
0
9
4
1
1
2
1
0
3
3
0
1
3
2
5
0
0
3
2
0
2
2
0
1
1
0
0
1
3
0
1
1
0
1
1
0
1
0
1
0
2
0
1
1
0
1
1
2
1
0
1
1
1
1
0
0
0
0
1
0
1
0
0
0
0
0
0
0
1
0
0
0
0
0
0
0
0
0
0
1
1
0
0
0
0
0
0
0
0
1
0
0
1
0
0
0
0
0
0
0
0
0
0
0
0
0
1
0
0
0
0
0
0
1
0
0
0
0
0
0
0
0
0
0
0
0
0
0
0
0
0
0
0
0
0
0
0
0
0
0
0
0
0
0
0
0
0
0
0
0
0
0
0
0
0
0
0
0
0
0
0
0
0
0
0
0
0
0
0
0
0
0
0
0
0
0
0
0
0
0
0
0
0
0
0
0
0
0
0
0
0
0
0
0
0
0
0
0
0
0
0
0
0
0
0
0
0
0
0
0
0
0
0
0
0
0
0
0
0
0
0
0
0
0
0
0
1
0
0
0
0
0
0
0
0
0
0
0
0
0
0
0
0
0
0
0
0
0
0
0
0
0
0
0
0
0
0
0
0
0
0
0
0
0
0
0
0
0
0
0
0
0
0
0
0
0
1
0
0
0
0
0
0
0
0
0
0
0
0
0
0
0
0
0
0
0
0
0
0
0
0
0
0
0
0
0
0
0
0
0
0
0
0
0
0
0
0
0
0
0
0
0
0
0
0
0
0
0
0
0
0
0
0
0
0
0
0
0
0
0
0
0
0
0
0
0
0
0
0
0
0
0
0
0
0
0
0
0
0
0
0
0
0
0
0
0
0
0
0
0
0
0
0
0
0
0
0
0
0
0
0
0
0
0
0
0
0
0
0
0
0
0
0
0
0
0
0
0
0
0
0
0
1
0
0
0
0
0
0
0
0
0
0
0
0
0
0
0
0
0
0
0
0
0
0
0
0
0
0
0
0
0
0
0
0
0
0
0
0
0
0
0
0
0
0
0
0
0
0
0
0
0
0
0
0
0
0
0
0
0
0
0
0
0
0
0
0
0
0
0
0
0
0
0
0
0
0
0
0
0
0
0
0
0
0
0
0
0
0
0
0
0
0
0
0
0
0
0
0
0
0
0
0
0
0
0
0
0
0
0
0
0
0
0
0
0
0
0
0
0
0
0
0
0
0
0
0
0
0
0
0
0
0
0
0
0
0
0
0
0
0
0
0
0
0
0
0
0
0
0
0
0
0
0
0
0
0
0
0
0
0
0
0
0
0
0
0
0
0
0
0
0
0
0
0
0
0
0
0
0
0
0
0
0
0
0
0
0
0
0
0
0
0
0
0
0
0
0
0
0
0
0
0
0
0
0
0
0
0
0
0
0
0
0
0
0
0
0
0
0
0
0
0
0
0
0
0
0
0
0
0
0
0
0
0
0
0
0
0
0
0
0
0
0
0
0
0
0
0
0
0
0
0
0
0
0
0
0
0
0
0
0
0
0
0
0
0
0
0
0
0
0
0
0
0
0
0
0
0
0
0
0
0
0
0
0
0
0
0
0
0
0
0
0
0
0
0
0
0
0
0
0
0
0
0
0
0
0
0
0
0
0
0
0
0
0
0
0
0
0
0
0
0
0
0
0
0
0
0
0
0
0
0
0
0
0
0
0
0
0
0
0
0
0
0
0
0
0
0
0
0
0
0
0
0
0
0
0
0
0
0
0
0
0
0
0
0
0
0
0
0
0
0
0
0
0
0
0
0
0
0
0
0
0
0
0
0
0
0
0
0
0
0
0
0
0
0
0
0
0
0
0
0
0
0
0
0
0
0
0
0
0
0
0
0
0
0
0
0
0
0
0
0
0
0
0
0
0
0
0
0
0
0
0
0
0
0
0
0
0
0
0
0
0
0
0
0
0
0
0
0
0
0
0
0
0
0
0
0
0
0
0
0
0
0
0
0
0
0
0
0
0
0
0
0
0
0
0
0
0
0
0
0
0
0
0
0
0
0
0
0
0
0
0
0
0
0
0
0
0
0
0
0
0
0
0
0
0
0
0
0
0
0
0
0
0
0
0
0
0
0
0
0
0
0
0
0
0
0
0
0
0
0
0
0
0
0
0
0
0
0
0
0
0
0
0
0
0
0
0
0
0
0
0
0
0
0
0
0
0
0
0
0
0
0
0
0
0
0
0
0
0
0
0
0
0
0
0
0
0
0
0
0
0
0
0
0
0
0
0
0
0
0
0
0
0
0
0
0
0
0
0
0
0
0
0
0
0
0
0
0
0
0
0
0
0
0
0
0
0
0
0
0
0
0
0
0
0
0
0
0
0
0
0
0
0
0
0
0
0
0
0
0
0
0
0
0
0
0
0
0
0
0
0
0
0
0
0
0
0
0
0
0
0
0
0
0
0
0
0
0
0
0
0
0
0
0
0
0
0
0
0
0
0
0
0
0
0
0
0
0
0
0
0
0
0
0
0
0
0
0
0
0
0
0
0
0
0
0
0
0
0
0
0
0
0
0
0
0
0
0
0
0
0
0
0
0
0
0
0
0
0
0
0
0
0
0
0
0
0
0
0
0
0
0
0
0
0
0
0
0
0
0
0
0
0
0
0
0
0
0
0
0
0
0
0
0
0
0
0
0
1
0
0
0
0
0
0
0
0
0
0
0
0
0
0
0
0
0
0
0
0
0
0
0
0
0
0
0
0
0
0
0
0
0
0
0
0
0
0
0
0
0
0
0
0
0
0
0
0
0
0
0
0
0
0
0
0
1
0
0
0
0
0
0
0
0
0
0
0
0
0
0
0
0
0
0
0
0
0
0
0
0
0
0
0
0
0
0
0
0
0
0
0
0
0
0
0
0
0
0
0
0
0
0
0
0
0
0
0
0
0
0
0
0
0
0
0
0
0
0
0
0
0
0
0
0
0
0
0
0
0
0
0
0
0
0
0
0
0
0
0
0
0
0
0
0
0
0
0
0
0
0
0
0
0
0
0
0
0
0
0
0
0
0
0
0
0
0
0
0
0
0
0
0
0
0
0
0
0
0
0
0
0
0
0
0
0
0
0
0
0
0
0
0
0
0
0
0
0
0
0
0
0
0
0
0
0
0
0
0
0
0
0
0
0
0
0
0
0
0
0
0
0
0
0
0
0
0
0
0
0
0
0
0
0
0
0
0
0
0
0
0
0
0
0
0
0
0
0
0
0
0
0
0
0
0
0
0
0
0
0
0
0
0
0
0
0
0
0
0
0
0
0
0
0
0
0
0
0
0
0
0
0
0
0
0
0
0
0
0
0
0
0
0
0
0
0
0
0
0
0
0
0
0
0
0
0
0
0
0
0
0
0
0
0
0
0
0
0
0
0
0
0
0
0
0
0
0
0
0
0
0
0
0
0
0
0
0
0
0
0
0
0
0
0
0
0
0
0
0
0
0
0
0
0
0
0
0
0
0
0
0
0
0
0
0
0
0
0
0
0
0
0
0
0
0
0
0
0
0
0
0
0
0
0
0
0
0
0
0
0
0
0
0
0
0
0
0
0
0
0
0
0
0
0
0
0
0
0
0
0
0
0
0
0
0
0
0
0
0
0
0
0
0
0
0
0
0
0
0
0
0
0
0
0
0
0
0
0
0
0
0
0
0
0
0
0
0
0
0
0
0
0
0
0
0
0
0
0
0
0
0
0
0
0
0
0
0
0
0
0
0
0
0
0
0
0
0
0
0
0
0
0
0
0
0
0
0
0
0
0
0
0
0
0
0
0
0
0
0
0
0
0
0
0
0
0
0
0
0
0
0
0
0
0
0
0
0
0
0
0
0
0
0
0
0
0
0
0
0
0
0
0
0
0
0
0
0
0
0
0
0
0
0
0
0
0
0
0
0
0
0
0
0
0
0
0
0
0
0
0
0
0
0
0
0
0
0
0
0
0
0
0
0
0
0
0
0
0
0
0
0
0
0
0
0
0
0
0
0
0
0
0
0
0
0
0
0
0
0
0
0
0
0
0
0
0
0
0
0
0
0
0
0
0
0
0
0
0
0
0
0
0
0
0
0
0
0
0
0
0
0
0
0
0
0
0
0
0
0
0
0
0
0
0
0
0
0
0
0
0
0
0
0
0
0
0
0
0
0
0
0
0
0
0
0
0
0
0
0
0
0
0
0
0
0
0
0
0
0
0
0
0
0
0
0
0
0
0
0
0
0
0
0
0
0
0
0
0
0
0
0
0
0
0
0
0
0
0
0
0
0
0
0
0
0
0
0
0
0
0
0
0
0
0
0
0
0
0
0
0
0
0
0
0
0
0
0
0
0
0
0
0
0
0
0
0
0
0
0
0
0
0
0
0
0
0
0
0
0
0
0
0
0
0
0
0
0
0
0
0
0
0
0
0
0
0
0
0
0
0
0
0
0
0
0
0
0
0
0
0
0
0
0
0
0
0
0
0
0
0
0
0
0
0
0
0
0
0
0
0
0
0
0
0
0
0
0
0
0
0
0
0
0
0
0
0
0
0
0
0
0
0
0
0
0
0
0
0
0
0
0
0
0
0
0
0
0
0
0
0
0
0
0
0
0
0
0
0
0
0
0
0
0
0
0
0
0
0
0
0
0
0
0
0
0
0
0
0
0
0
0
0
0
0
0
0
0
0
0
0
0
0
0
0
0
0
0
0
0
0
0
0
0
0
0
0
0
0
0
0
0
0
0
0
0
0
0
0
0
0
0
0
0
0
0
0
0
0
0
0
0
0
0
0
0
0
0
0
0
0
0
0
0
0
0
0
0
0
0
0
0
0
0
0
0
0
0
0
0
0
0
0
0
0
0
0
0
0
0
0
0
0
0
0
0
0
0
0
0
0
0
0
0
0
0
0
0
0
0
0
0
0
0
0
0
0
0
0
0
0
0
0
0
0
0
0
0
0
0
0
0
0
0
0
0
0
0
0
0
0
0
0
0
0
0
0
0
0
0
0
0
0
0
0
0
0
0
0
0
0
0
0
0
0
0
0
0
0
0
0
0
0
0
0
1
0
0
0
0
0
0
0
0
0
0
0
0
0
0
0
0
0
0
0
0
0
0
0
0
0
0
0
0
0
0
0
0
0
0
0
0
0
0
0
0
0
0
0
0
0
0
0
0
0
0
0
0
0
0
0
0
0
0
0
0
0
0
0
0
0
0
0
0
0
0
0
0
0
0
0
0
0
0
0
0
0
0
0
0
0
0
0
0
0
0
0
0
0
0
0
0
0
0
0
0
0
0
0
0
0
0
0
0
0
0
0
0
0
0
0
0
0
0
0
0
0
0
0
0
0
0
0
0
0
0
0
0
0
0
0
0
0
0
0
0
0
0
0
0
0
0
0
0
0
0
0
0
0
0
0
0
0
0
0
0
0
0
0
0
0
0
0
0
0
0
0
0
0
0
0
0
0
0
0
0
0
0
0
0
0
0
0
0
0
0
0
0
0
0
0
0
0
0
0
0
0
0
0
0
0
0
0
0
0
0
0
0
0
0
0
0
0
0
0
0
0
0
0
0
0
0
0
0
0
0
0
0
0
0
0
0
0
0
0
0
0
0
0
0
0
0
0
0
0
0
0
0
0
0
0
0
0
0
0
0
0
0
0
0
0
0
0
0
0
0
0
0
0
0
0
0
0
0
0
0
0
0
0
0
0
0
0
0
0
0
0
0
0
0
0
0
0
0
0
0
0
0
0
0
0
0
0
0
0
0
0
0
0
0
0
0
0
0
0
0
0
0
0
0
0
0
0
0
0
0
0
0
0
0
0
0
0
0
0
0
0
0
0
0
0
0
0
0
0
0
0
0
0
0
0
0
0
0
0
0
0
0
0
0
0
0
0
0
0
0
0
0
0
0
0
0
0
0
0
0
0
0
0
0
0
0
0
0
0
0
0
0
0
0
0
0
0
0
0
0
0
0
0
0
0
0
0
0
0
0
0
0
0
0
0
0
0
0
0
0
0
0
0
0
0
0
0
0
0
0
0
0
0
0
0
0
0
0
0
0
0
0
0
0
0
0
0
0
0
0
0
0
0
0
0
0
0
0
0
0
0
0
0
0
0
0
0
0
0
0
0
0
0
0
0
0
0
0
0
0
0
0
0
0
0
0
0
0
0
0
0
0
0
0
0
0
0
0
0
0
0
0
0
0
0
0
0
0
0
0
0
0
0
0
0
0
0
0
0
0
0
0
0
0
0
0
0
0
0
0
0
0
0
0
0
0
0
0
0
0
0
0
0
0
0
0
0
0
0
0
0
0
0
0
0
0
0
0
0
0
0
0
0
0
0
0
0
0
0
0
0
0
0
0
0
0
0
0
0
0
0
0
0
0
0
0
0
0
0
0
0
0
0
0
0
0
0
0
0
0
0
0
1
0
0
0
0
0
0
0
0
0
0
0
0
0
0
0
0
0
0
0
0
0
0
0
0
0
0
0
0
0
0
0
0
0
0
0
0
0
0
0
0
0
0
0
0
0
0
0
0
0
0
0
0
0
0
0
0
0
0
0
0
0
0
0
0
0
0
0
0
0
0
0
0
0
0
0
0
0
0
0
0
0
0
0
0
0
0
0
0
0
0
0
0
0
0
0
0
0
0
0
0
0
0
0
0
0
0
0
0
0
0
0
0
0
0
0
0
0
0
0
0
0
0
0
0
0
0
0
0
0
0
0
0
0
0
0
0
0
0
0
0
0
0
0
0
0
0
0
0
0
0
0
0
0
0
0
0
0
0
0
0
0
0
0
0
0
0
0
0
0
0
0
0
0
0
0
0
0
0
0
0
0
0
0
0
0
0
0
0
0
0
0
0
0
0
0
0
0
0
0
0
0
0
0
0
0
0
0
0
0
0
0
0
0
0
0
0
0
0
0
0
0
0
0
0
0
0
0
0
0
0
0
0
0
0
0
0
0
0
0
0
0
0
0
0
0
0
0
0
0
0
0
0
0
0
0
0
0
0
0
0
0
0
0
0
0
0
0
0
0
0
0
0
0
0
0
0
0
0
0
0
0
0
0
0
0
0
0
0
0
0
0
0
0
0
0
0
0
0
0
0
0
0
0
0
0
0
0
0
0
0
0
0
0
0
0
0
0
0
0
0
0
0
0
0
0
0
0
0
0
0
0
0
0
0
0
0
0
0
0
0
0
0
0
0
0
0
0
0
0
0
0
0
0
0
0
0
0
0
0
0
0
0
0
0
0
0
0
0
0
0
0
0
0
0
0
0
0
0
0
0
0
0
0
0
0
0
0
0
0
0
0
0
0
0
0
0
0
0
0
0
0
0
0
0
0
0
0
0
0
0
0
0
0
0
0
0
0
0
0
0
0
0
0
0
0
0
0
0
0
0
0
0
0
0
0
0
0
0
0
0
0
0
0
0
0
0
0
0
0
0
0
0
0
0
0
0
0
0
0
0
0
0
0
0
0
0
0
0
0
0
0
0
0
0
0
0
0
0
0
0
0
0
0
0
0
0
0
0
0
0
0
0
0
0
0
0
0
0
0
0
0
0
0
0
0
0
0
0
0
0
0
0
0
0
0
0
0
0
0
0
0
0
0
0
0
0
0
0
0
0
0
0
0
0
0
0
0
0
0
0
0
0
0
0
0
0
0
0
0
0
0
0
0
0
0
0
0
0
0
0
0
0
0
0
0
0
0
0
0
0
0
0
0
0
0
0
0
0
0
0
0
0
0
0
0
0
0
0
0
0
0
0
0
0
0
0
0
0
0
0
0
0
0
0
0
0
0
0
0
0
0
0
0
0
0
0
0
0
0
0
0
0
0
0
0
0
0
0
0
0
0
0
0
0
0
0
0
0
0
0
0
0
0
0
0
0
0
0
0
0
0
0
0
0
0
0
0
0
0
0
0
0
0
0
0
0
0
0
0
0
0
0
0
0
0
0
0
0
0
0
0
0
0
0
0
0
0
0
0
0
0
0
0
0
0
0
0
0
0
0
0
0
0
0
0
0
0
0
0
0
0
0
0
0
0
0
0
0
0
0
0
0
0
0
0
1
0
0
0
0
0
0
0
0
0
0
0
0
0
0
0
0
0
0
0
0
0
0
0
0
0
0
0
0
0
0
0
0
0
0
0
0
0
0
0
0
0
0
0
0
0
0
0
0
0
0
0
0
0
0
0
0
0
0
0
0
0
0
0
0
0
0
0
0
0
0
0
0
0
0
0
0
0
0
0
0
0
0
0
0
0
0
0
0
0
0
0
0
0
0
0
0
0
0
0
0
0
0
0
0
0
0
0
0
0
0
0
0
0
0
0
0
0
0
0
0
0
0
0
0
0
0
0
0
0
0
0
0
0
0
0
0
0
0
0
0
0
0
0
0
0
0
0
0
0
0
0
0
0
0
0
0
0
0
0
0
0
0
0
1
0
0
0
0
0
0
0
0
0
0
0
0
0
0
0
0
0
0
0
0
0
0
0
0
0
0
0
0
0
0
0
0
0
0
0
0
0
0
0
0
0
0
0
0
0
0
0
0
0
0
0
0
0
0
0
0
0
0
0
0
0
0
0
0
0
0
0
0
0
